"0","suppressMessages(library(tidyverse))"
"0","suppressMessages(library(readxl))"
"0","suppressMessages(library(magrittr))"
"0","suppressMessages(library(usethis))"
"0","suppressMessages(library(here))"
"0","suppressMessages(library(janitor))"
"0","suppressMessages(library(ggplot2))"
"0","suppressMessages(library(ggthemes))"
"0","suppressMessages(library(ggrepel))"
"0","suppressMessages(library(gridExtra))"
"0","suppressMessages(library(cowplot))"
