"0","dfBatchID <-"
"0","  readxl::read_xlsx(here('Batch OrganizerV2.xlsx'), sheet = 'HSM', range = ""A2:A61"") %>%"
"0","  clean_names()  %>%"
"0","  data.frame()"
"0","dfVariables <-"
"0","  readxl::read_xlsx(here('Batch OrganizerV2.xlsx'), sheet = 'HSM', range = ""AX2:BD61"") %>%"
"0","  clean_names()  %>%"
"0","  data.frame()"
"0","df <- data.frame(dfBatchID, dfVariables)"
