"0","batch_16008 <- df %>%"
"0","  filter(r216batch_num_pv == '16008')"
"0",""
"0","p <- ggplot(batch_16008, aes(x = timestamp, y = fi21601_pv, color = r216_step))"
"0","p + geom_line() + ggthemes::theme_hc() + labs(x = 'Time', y = 'SMBS FLOW')"
