"0","plot1 <- ggplot2::ggplot(df, aes(x = batch_id, y = max_temp)) +"
"0","  geom_point() +"
"0","  ggthemes::theme_hc() +"
"0","  theme(axis.text.x = element_text(angle = 90, vjust = 0.5))"
"0",""
"0","plot2 <- ggplot2::ggplot(df, aes(x = '', y = max_temp)) +"
"0","  geom_boxplot() +"
"0","  ggthemes::theme_hc() +"
"0","  theme(axis.text.x = element_text(angle = 90, vjust = 0.5))"
"0",""
"0","plot_grid(plot1, plot2, align = ""h"", axis = ""b"", rel_widths = c(4, 1))"
