"0","df <- read.csv(here('data', 'FR-MC Batch Values  - 2019-10-01 15.00.37 PM EDT.csv')) %>%"
"0","  clean_names()  %>%"
"0","  mutate(timestamp = as_datetime(time)) %>%"
"0","  select(timestamp, everything())"
"0",""
"0","# remove rows with ALL entries == NA"
"0","rowNA <- apply(df, 1, function(df) all(is.na(df)))"
"0","df <- df[ !rowNA, ]"
