,,Loading (gpt),,,,
FR,Water,0.1,0.2,0.3,0.5,1
Plexslick 953,Fresh,TRUE,TRUE,TRUE,TRUE,TRUE
Plexslick 953,50k,TRUE,TRUE,FALSE,TRUE,TRUE
Plexslick 953,100k,TRUE,TRUE,FALSE,TRUE,TRUE
Plexslick 953,150k,TRUE,TRUE,FALSE,TRUE,TRUE
Plexslick 959,Fresh,TRUE,TRUE,TRUE,TRUE,FALSE
Plexslick 959,50k,TRUE,TRUE,TRUE,TRUE,FALSE
Plexslick 959,100k,TRUE,TRUE,TRUE,TRUE,FALSE
Plexslick V999,Fresh,TRUE,TRUE,TRUE,TRUE,TRUE
Plexslick V999,50k,TRUE,TRUE,FALSE,TRUE,TRUE
Plexslick V999,100k,TRUE,TRUE,FALSE,TRUE,TRUE
Plexslick V999,150k,TRUE,TRUE,TRUE,TRUE,TRUE
Plexslick V999,200k,TRUE,TRUE,TRUE,TRUE,TRUE
HiFlo 5,Fresh,TRUE,TRUE,TRUE,FALSE,FALSE
Plexslick 930,Fresh,TRUE,TRUE,TRUE,TRUE,FALSE
Plexslick 930,50k,TRUE,TRUE,TRUE,TRUE,FALSE
Plexslick 930,100k,TRUE,TRUE,TRUE,TRUE,FALSE
Plexslick 930,150k,TRUE,TRUE,TRUE,TRUE,FALSE
Plexslick 930,200k,TRUE,TRUE,TRUE,TRUE,FALSE
Plexslick 986C Boost,Fresh,TRUE,TRUE,TRUE,TRUE,TRUE
Plexslick 986C Boost,50k,TRUE,TRUE,TRUE,TRUE,TRUE
Plexslick 986C Boost,100k,TRUE,TRUE,TRUE,TRUE,TRUE
Plexslick 986C Boost,150k,TRUE,TRUE,TRUE,TRUE,TRUE
Plexslick 986C Boost,200k,TRUE,TRUE,TRUE,TRUE,TRUE
FR-HPA,Fresh,TRUE,TRUE,TRUE,TRUE,TRUE
FR-HPA,50k,TRUE,TRUE,TRUE,TRUE,TRUE
FR-HPA,100k,TRUE,TRUE,TRUE,TRUE,TRUE
FR-HPA,150k,TRUE,TRUE,FALSE,TRUE,TRUE
FR-HPA,200k,TRUE,TRUE,TRUE,TRUE,TRUE
DR-22430,50k,TRUE,TRUE,FALSE,TRUE,FALSE
DR-22430,100k,TRUE,TRUE,FALSE,TRUE,FALSE
DR-22430,150k,TRUE,TRUE,FALSE,TRUE,FALSE
Kemflow A4251,50k,TRUE,TRUE,FALSE,TRUE,FALSE
Kemflow A4251,100k,TRUE,TRUE,FALSE,TRUE,FALSE
Kemflow A4251,150k,TRUE,TRUE,FALSE,TRUE,FALSE
DR-42430,50k,TRUE,TRUE,FALSE,TRUE,FALSE
DR-42430,100k,TRUE,TRUE,FALSE,TRUE,FALSE
DR-42430,150k,TRUE,TRUE,FALSE,TRUE,FALSE
DR-42430,200k,TRUE,TRUE,FALSE,TRUE,FALSE
Plexslick 922,Fresh,TRUE,TRUE,FALSE,TRUE,FALSE
Plexslick 922,50k,TRUE,TRUE,FALSE,TRUE,TRUE
Plexslick 922,100k,TRUE,TRUE,FALSE,TRUE,TRUE
Plexslick 922,150k,TRUE,TRUE,FALSE,TRUE,TRUE
Plexslick 922,200k,TRUE,TRUE,FALSE,TRUE,TRUE
Plexslick 920,Fresh,TRUE,TRUE,FALSE,TRUE,FALSE
Plexslick 920,50k,TRUE,TRUE,FALSE,TRUE,TRUE
Plexslick 920,100k,TRUE,TRUE,FALSE,TRUE,TRUE
Plexslick 920,150k,TRUE,TRUE,FALSE,TRUE,TRUE
Plexslick 920,200k,TRUE,TRUE,FALSE,TRUE,TRUE
Plexslick V997,Fresh,TRUE,TRUE,FALSE,TRUE,TRUE
Plexslick V997,50k,TRUE,TRUE,FALSE,TRUE,TRUE
Plexslick V997,100k,TRUE,TRUE,FALSE,TRUE,TRUE
Plexslick V997,150k,TRUE,TRUE,FALSE,TRUE,TRUE
Plexslick V997,200k,TRUE,TRUE,FALSE,TRUE,TRUE
Plexslick V993,Fresh,TRUE,TRUE,FALSE,TRUE,TRUE
Plexslick V993,50k,TRUE,TRUE,FALSE,TRUE,TRUE
Plexslick V993,100k,TRUE,TRUE,FALSE,TRUE,TRUE
Plexslick V993,150k,TRUE,TRUE,FALSE,TRUE,TRUE
Plexslick V993,200k,FALSE,FALSE,FALSE,FALSE,TRUE
FR-HSU,Fresh,TRUE,TRUE,FALSE,TRUE,TRUE
FR-HSU,50k,TRUE,TRUE,FALSE,TRUE,TRUE
FR-HSU,100k,TRUE,TRUE,FALSE,TRUE,TRUE
FR-HSU,150k,TRUE,TRUE,FALSE,TRUE,TRUE
FR-HSU,200k,TRUE,TRUE,FALSE,TRUE,TRUE
