Expt,FR,FR Type,LOOP,Supplier,Loading (gpt),Water,t_0,t_0_17,t_0_33,t_0_50,t_0_67,t_0_83,T_1_0,t_1_17,t_1_33,t_1_50,t_1_67,t_1_83,t_2_0,t_2_17,t_2_33,t_2_50,t_2_67,t_2_83,t_3_0,t_3_17,t_3_33,t_3_5,t_3_67,t_3_83,t_4_0,t_4_17,t_4_33,t_4_5,t_4_67,t_4_83,t_5_0,Average,3 gpt,6 gpt,Date,Batch No,Sample,Pipe ID,Flow Rate
"Plexslick 953AFresh (5/16"")",Plexslick 953,Anionic,"5/16""",Solvay,A,Fresh,NA,0.668264447,0.723703637,0.718681458,0.718430035,0.720777557,0.721308871,0.716949252,0.718673804,0.718917335,0.721308871,0.722750355,0.720237212,0.718548066,0.721196666,0.721606055,0.725269985,0.719729335,0.722621465,0.720888597,0.723969996,0.723664655,0.722379947,0.725924971,0.725121949,0.72579836,0.723035807,0.725964218,0.724112153,0.72382061,0.723037873,0.722273456,NA,NA,NA,NA,NA,NA,NA
"Plexslick 953kFresh (5/16"")",Plexslick 953,Anionic,"5/16""",Solvay,k,Fresh,NA,3.568443787,6.334069698,7.111623298,7.107000443,6.905178193,6.705921357,6.590588562,6.392908736,6.245158091,6.093908098,5.932368944,5.853593946,5.786157214,5.622191875,5.516193459,5.394316932,5.350725151,5.244599032,5.169408435,5.049350597,4.966933851,4.912053235,4.778675377,4.723667624,4.653263621,4.618528927,4.522427754,4.475232757,4.408783139,4.361229698,5.295332837,NA,NA,NA,NA,NA,NA,NA
"Plexslick 953A50k (5/16"")",Plexslick 953,Anionic,"5/16""",Solvay,A,50k,NA,0.347802324,0.604180048,0.652160344,0.66610622,0.670328264,0.66954815,0.667268535,0.663593893,0.657480451,0.652313224,0.647182774,0.642633799,0.637340135,0.632710056,0.628695872,0.624109326,0.62038572,0.616663889,0.613230888,0.608562868,0.605663704,0.601575146,0.597983197,0.594260439,0.592684287,0.589750492,0.586030755,0.58403907,0.581267429,0.577962218,0.619717453,NA,NA,NA,NA,NA,NA,NA
"Plexslick 953k50k (5/16"")",Plexslick 953,Anionic,"5/16""",Solvay,k,50k,NA,2.180040418,3.286674128,4.035689634,4.31585007,4.383953788,4.377567501,4.329027128,4.275248492,4.23354308,4.17881442,4.134131348,4.081609311,4.051657023,3.993819917,3.94119535,3.870296153,3.867123961,3.784897908,3.712372565,3.668736396,3.615815115,3.602273078,3.558431631,3.531843951,3.528087574,3.526207258,3.503684552,3.474909115,3.449796186,3.419345345,3.835726632,NA,NA,NA,NA,NA,NA,NA
"Plexslick 953A100k (5/16"")",Plexslick 953,Anionic,"5/16""",Solvay,A,100k,NA,0.137843569,0.228632911,0.279086472,0.312555463,0.33593137,0.352180713,0.364534005,0.373379109,0.381790732,0.38814694,0.394416981,0.398859595,0.40252159,0.405018525,0.407902549,0.411134086,0.413357215,0.415499597,0.416866253,0.418733705,0.420488174,0.421156559,0.42462325,0.428598102,0.431753459,0.434250844,0.435147766,0.436467956,0.436745033,0.436511576,0.410003373,NA,NA,NA,NA,NA,NA,NA
"Plexslick 953k100k (5/16"")",Plexslick 953,Anionic,"5/16""",Solvay,k,100k,NA,1.422636064,1.807235466,2.019455557,2.186387813,2.198805276,2.275008101,2.417282247,2.684264636,2.773996761,2.868619876,2.834504609,2.834459014,2.889418535,2.909764053,2.946945076,2.967301412,2.977287315,3.011807187,3.059724528,3.078473305,3.078799979,3.142375086,3.132014137,3.104600418,3.092891452,3.081464163,3.128750171,3.09195307,3.085295488,3.085446177,2.950008849,NA,NA,NA,NA,NA,NA,NA
"Plexslick 953A150k (5/16"")",Plexslick 953,Anionic,"5/16""",Solvay,A,150k,NA,0.057991317,0.102597948,0.135735917,0.163290072,0.176979198,0.192708119,0.214771179,0.228500586,0.243300898,0.253903399,0.265136334,0.274398357,0.280829264,0.286784665,0.293146451,0.298986967,0.304452083,0.30802947,0.308285934,0.310926131,0.312717328,0.314018621,0.318035787,0.320304636,0.323693846,0.327597368,0.32953074,0.331542648,0.332028761,0.335636372,0.292370638,NA,NA,NA,NA,NA,NA,NA
"Plexslick 953k150k (5/16"")",Plexslick 953,Anionic,"5/16""",Solvay,k,150k,NA,1.984355737,2.372422964,2.781796225,2.933478324,3.21182337,3.434998492,3.417256193,3.590814046,3.505221274,3.507722165,3.435255291,3.627561093,3.657770132,3.685657109,3.629259251,3.6358273,3.652156729,3.603998913,3.668921797,3.709939146,3.706921335,3.760544776,3.61367744,3.673281026,3.668123267,3.644659577,3.624083464,3.636491588,3.639796527,3.539425035,3.618246474,NA,NA,NA,NA,NA,NA,NA
"Plexslick 959AFresh (5/16"")",Plexslick 959,Anionic,"5/16""",Solvay,A,Fresh,NA,0.699171136,0.7278178,0.729151407,0.726230828,0.729014712,0.723812647,0.722767748,0.724215245,0.722589347,0.720590928,0.719627356,0.720332323,0.718746634,0.716579626,0.717067935,0.713608705,0.712981215,0.708939222,0.707771236,0.705472212,0.704555399,0.703593377,0.701585146,0.698917531,0.698615429,0.696493656,0.69478341,0.692741253,0.691154976,0.690604669,0.709125889,NA,NA,NA,NA,NA,NA,NA
"Plexslick 959kFresh (5/16"")",Plexslick 959,Anionic,"5/16""",Solvay,k,Fresh,NA,8.912896186,12.60739472,12.55715821,12.2599668,11.60973595,11.37307793,10.98044845,10.53930199,10.2723612,10.03508563,9.771444586,9.499738212,9.322816629,9.176923107,8.942927607,8.858452754,8.702470998,8.654232884,8.534372047,8.419229221,8.30770907,8.221188413,8.124330248,8.05713807,7.955096268,7.876266651,7.808208676,7.744330586,7.674633184,7.601152432,8.832176575,NA,NA,NA,NA,NA,NA,NA
"Plexslick 959A50k (5/16"")",Plexslick 959,Anionic,"5/16""",Solvay,A,50k,NA,0.589615189,0.678101055,0.68753146,0.684354124,0.679662649,0.672724844,0.666198314,0.658199845,0.651670936,0.645020501,0.638210602,0.632455535,0.627721285,0.623027562,0.618454162,0.612826818,0.609562364,0.604054455,0.599607183,0.59593425,0.593073359,0.588344861,0.584835707,0.581281607,0.57736753,0.573862402,0.570192633,0.566927237,0.564029323,0.561944758,0.608701123,NA,NA,NA,NA,NA,NA,NA
"Plexslick 959k50k (5/16"")",Plexslick 959,Anionic,"5/16""",Solvay,k,50k,NA,4.855209545,7.273915869,7.838103315,7.9578633,7.780807795,7.661868598,7.498025277,7.32456061,7.183441783,7.105561738,6.969660291,6.830825126,6.758313199,6.646108104,6.546306297,6.457039786,6.367084232,6.332509467,6.272167215,6.195340004,6.173970417,6.12015192,6.082845285,6.027232513,6.006995029,5.963449247,5.948611479,5.889556393,5.86596918,5.799884124,6.488680827,NA,NA,NA,NA,NA,NA,NA
"Plexslick 959A100k (5/16"")",Plexslick 959,Anionic,"5/16""",Solvay,A,100k,NA,0.355054092,0.555783056,0.598695357,0.611380565,0.612861931,0.611389687,0.60766881,0.602438032,0.596701643,0.592468592,0.587116842,0.582422572,0.576954921,0.572223019,0.567647832,0.563033745,0.558419783,0.554578207,0.54934825,0.545969559,0.541628462,0.538293293,0.534571596,0.530580688,0.528324474,0.524447927,0.521500281,0.518517639,0.516998617,0.513162485,0.557456278,NA,NA,NA,NA,NA,NA,NA
"Plexslick 959k100k (5/16"")",Plexslick 959,Anionic,"5/16""",Solvay,k,100k,NA,2.540474714,3.91331714,4.64488793,4.971896399,5.171843944,5.219171625,5.262563933,5.257492378,5.254528427,5.20285297,5.183742078,5.132070116,5.092970251,5.063839952,5.033831726,5.015640328,4.99169967,4.974320547,4.977708735,4.953320518,4.961442483,4.933684406,4.941975583,4.93148909,4.888877838,4.898403467,4.907083781,4.895808397,4.863579992,4.883488458,5.032738188,NA,NA,NA,NA,NA,NA,NA
"Plexslick V999AFresh (5/16"")",Plexslick V999,Anionic,"5/16""",Solvay,A,Fresh,NA,0.45002712,0.689385164,0.687977487,0.704514875,0.706601272,0.706361432,0.706364283,0.708074207,0.707954051,0.707667839,0.708193446,0.707014335,0.707300285,0.708721094,0.707665851,0.707948899,0.706887902,0.708965641,0.707009182,0.705340923,0.707662948,0.706845558,0.705584346,0.706110136,0.706592353,0.706351833,0.705165973,0.706345765,0.7036214,0.704211259,0.706779506,NA,NA,NA,NA,NA,NA,NA
"Plexslick V999kFresh (5/16"")",Plexslick V999,Anionic,"5/16""",Solvay,k,Fresh,NA,1.100499111,3.926726572,8.434861988,10.49901226,11.64280831,12.20771313,12.48298056,12.47220121,12.49691509,12.38924303,12.28024823,12.17737901,11.97868026,11.76626861,11.6788353,11.52317268,11.36383694,11.12114089,11.02563855,10.96487294,10.7280965,10.62009369,10.54540897,10.41275179,10.23484403,10.10479064,10.01978825,9.84878416,9.83474393,9.676423195,11.13506172,NA,NA,NA,NA,NA,NA,NA
"Plexslick V999A50k (5/16"")",Plexslick V999,Anionic,"5/16""",Solvay,A,50k,NA,0.16574808,0.311095437,0.41608262,0.489223705,0.541277491,0.574612007,0.595461329,0.609097042,0.616303707,0.624267662,0.631952984,0.636527329,0.640196077,0.643075693,0.645129888,0.646746386,0.648520609,0.649784156,0.651160657,0.652459203,0.653087656,0.652970562,0.652699832,0.653210307,0.653365658,0.653209473,0.652817129,0.652073627,0.652073627,0.652698368,0.639740039,NA,NA,NA,NA,NA,NA,NA
"Plexslick V999k50k (5/16"")",Plexslick V999,Anionic,"5/16""",Solvay,k,50k,NA,3.170550128,3.584955577,4.09438898,4.591993539,5.0600167,5.571677032,5.999391017,6.317798972,6.698004777,6.840889919,6.988876384,7.109621082,7.19808707,7.295229922,7.346647284,7.361959066,7.310267544,7.268092059,7.273736672,7.287390455,7.288037419,7.252847378,7.174043601,7.136543067,7.10770003,7.052762045,7.012137051,6.98676061,6.920918392,6.870664844,6.981560771,NA,NA,NA,NA,NA,NA,NA
"Plexslick V999A100k (5/16"")",Plexslick V999,Anionic,"5/16""",Solvay,A,100k,NA,0.115569268,0.244702311,0.342378925,0.410918019,0.460021425,0.495774822,0.522586439,0.544530263,0.561607999,0.574428128,0.58382394,0.592567938,0.598810382,0.604176103,0.609313893,0.613683784,0.617343148,0.620537949,0.622481182,0.625863188,0.628070178,0.630123647,0.629940586,0.631232443,0.632829296,0.632826883,0.630390914,0.631376386,0.630660399,0.632097564,0.603883098,NA,NA,NA,NA,NA,NA,NA
"Plexslick V999k100k (5/16"")",Plexslick V999,Anionic,"5/16""",Solvay,k,100k,NA,4.900480416,4.836752141,4.984008654,5.379257558,5.67661317,5.954930412,6.201541905,6.4228818,6.581492521,6.791532909,6.971134106,7.073814023,7.200911792,7.275987042,7.359297546,7.387967934,7.39568763,7.395040778,7.387239941,7.360024816,7.299623908,7.266951012,7.254523137,7.205512776,7.147245758,7.106282594,7.106386759,7.049851622,7.001092016,6.901453768,7.053715081,NA,NA,NA,NA,NA,NA,NA
"Plexslick V999A150k (5/16"")",Plexslick V999,Anionic,"5/16""",Solvay,A,150k,NA,0.063042627,0.148346023,0.220991165,0.276694303,0.322214164,0.350799271,0.376159371,0.397027561,0.413775924,0.428423484,0.441608194,0.451801193,0.461428466,0.469970928,0.478135975,0.48510296,0.491213675,0.496868531,0.502112415,0.507539377,0.51140236,0.515263687,0.519083151,0.521743655,0.524815804,0.527476068,0.529873273,0.532160083,0.534070967,0.536395152,0.480170061,NA,NA,NA,NA,NA,NA,NA
"Plexslick V999k150k (5/16"")",Plexslick V999,Anionic,"5/16""",Solvay,k,150k,NA,0.627250022,1.08623586,1.685646795,2.166791683,2.443621163,2.75627955,3.030829538,3.361060847,3.615439385,3.851282739,4.077394762,4.301178843,4.427422406,4.645228213,4.740194403,4.846123508,4.959341953,5.051893632,5.119227588,5.187350625,5.247028138,5.273192345,5.275475503,5.335348472,5.372293909,5.392302273,5.239568737,5.321807834,5.266930877,5.30698999,4.723739897,NA,NA,NA,NA,NA,NA,NA
"Plexslick V999A200k (5/16"")",Plexslick V999,Anionic,"5/16""",Solvay,A,200k,NA,0.01865304,0.075648173,0.129854965,0.178434453,0.218336956,0.239532637,0.254492867,0.276755101,0.293513874,0.309020331,0.321660514,0.33257938,0.341216458,0.350876062,0.35804318,0.3650995,0.372527653,0.377961376,0.384574028,0.389714696,0.395154116,0.400084298,0.403976393,0.408496953,0.412026749,0.416725751,0.420032748,0.423673508,0.426831658,0.428965471,0.364141412,NA,NA,NA,NA,NA,NA,NA
"Plexslick V999k200k (5/16"")",Plexslick V999,Anionic,"5/16""",Solvay,k,200k,NA,1.657901977,1.674673684,1.935158162,2.058098355,2.264418361,2.66670734,3.034272369,3.229447071,3.430629612,3.298825652,3.227072508,3.459307752,3.689289482,3.910795814,4.111784858,4.290513456,4.433182165,4.595985373,4.726725204,4.834036667,4.936718037,5.038626595,5.14338999,5.181907502,5.229457218,5.311136849,5.277625193,5.293472742,5.290477234,5.340379349,4.414786493,NA,NA,NA,NA,NA,NA,NA
"HiFlo 5AFresh (5/16"")",HiFlo 5,HVFR,"5/16""",Clearpoint,A,Fresh,NA,0.257843891,0.542981419,0.63468449,0.671905977,0.690364685,0.704315761,0.703843703,0.70671814,0.708217427,0.711364784,0.710314334,0.709431976,0.710197894,0.713545478,0.709148559,0.709025562,0.709026677,0.709146849,0.709267021,0.707325557,0.705389198,0.70918041,0.707199864,0.703851244,0.704087183,0.703683413,0.700733043,0.700728404,0.70060424,0.699673082,0.706640792,NA,NA,NA,NA,NA,NA,NA
"HiFlo 5kFresh (5/16"")",HiFlo 5,HVFR,"5/16""",Clearpoint,k,Fresh,NA,4.852323159,7.780937267,10.73733963,12.56841402,13.87404929,14.52060115,15.79310592,16.40270495,16.81276241,17.03407461,17.3539458,17.45864891,17.27898892,16.71585757,17.34740257,16.99648214,16.71267129,16.5821881,16.36310113,16.36302178,16.28804659,15.66142918,15.59392207,15.75281082,15.47000241,15.23919675,15.29020864,15.08729056,14.82919821,14.75246225,16.09157404,NA,NA,NA,NA,NA,NA,NA
"Plexslick 930AFresh (5/16"")",Plexslick 930,Cationic,"5/16""",Solvay,A,Fresh,NA,0.614252887,0.69745664,0.709139884,0.711671435,0.712214132,0.714200042,0.714204736,0.715776258,0.715531576,0.716313995,0.717385386,0.718172844,0.717391035,0.718426702,0.719254843,0.719664829,0.719912534,0.720572559,0.71937782,0.720162573,0.720287301,0.720448707,0.720572559,0.722679988,0.719748502,0.720697287,0.721352538,0.720153715,0.719494645,0.718546046,0.718813161,NA,NA,NA,NA,NA,NA,NA
"Plexslick 930kFresh (5/16"")",Plexslick 930,Cationic,"5/16""",Solvay,k,Fresh,NA,5.108077464,6.510752875,7.530539158,8.236895718,8.734773896,9.036862487,9.275866057,9.394994238,9.502324114,9.502165271,9.456043906,9.394547324,9.31462623,9.163471587,9.028213139,8.857009407,8.738088983,8.573853719,8.430355886,8.275105536,8.128734681,7.960293274,7.81564814,7.621948175,7.558328263,7.414223723,7.268986532,7.17731413,7.079432014,6.98135916,8.382485794,NA,NA,NA,NA,NA,NA,NA
"Plexslick 930A50k (5/16"")",Plexslick 930,Cationic,"5/16""",Solvay,A,50k,NA,0.569962681,0.694839678,0.712586171,0.718129183,0.721097941,0.722621259,0.723424427,0.725704572,0.725548148,0.725591713,0.72558994,0.725312639,0.724831185,0.724550106,0.723636085,0.724556737,0.72354952,0.722509249,0.722507732,0.722381792,0.720294953,0.720294953,0.719534168,0.719531315,0.716443402,0.715961023,0.712827334,0.713222711,0.709136551,0.70925221,0.720752549,NA,NA,NA,NA,NA,NA,NA
"Plexslick 930k50k (5/16"")",Plexslick 930,Cationic,"5/16""",Solvay,k,50k,NA,5.266555989,6.267949578,7.092574842,7.710859944,8.085383638,8.352387004,8.50106076,8.541222072,8.587611478,8.553099948,8.487722796,8.391225387,8.282793732,8.155132535,8.02047252,7.84595716,7.728616558,7.596204518,7.43781774,7.28956025,7.189073355,7.038313492,6.915204388,6.781263927,6.705736344,6.580045001,6.534229365,6.396964554,6.359165607,6.257852583,7.498422505,NA,NA,NA,NA,NA,NA,NA
"Plexslick 930-1 gpt-100k (5/16"")",Plexslick 930,Cationic,"5/16""",Solvay,1,100k,NA,NA,NA,NA,NA,NA,NA,NA,NA,NA,NA,NA,NA,NA,NA,NA,NA,NA,NA,NA,NA,NA,NA,NA,NA,NA,NA,NA,NA,NA,NA,NA,NA,NA,NA,NA,NA,NA,NA
"Plexslick 930A100k (5/16"")",Plexslick 930,Cationic,"5/16""",Solvay,A,100k,NA,0.44742323,0.599011588,0.639847207,0.6607031,0.672928154,0.682785112,0.688742322,0.693944124,0.695569665,0.699118829,0.701011013,0.701643366,0.70255067,0.702435543,0.70255067,0.703023526,0.702943021,0.70179872,0.700656339,0.698728448,0.697070886,0.696125779,0.694544431,0.693400055,0.690290994,0.689146694,0.687487617,0.684843888,0.682440084,0.680317419,0.694926768,NA,NA,NA,NA,NA,NA,NA
"Plexslick 930k100k (5/16"")",Plexslick 930,Cationic,"5/16""",Solvay,k,100k,NA,4.706168127,5.499545566,6.360325315,7.030797223,7.559560151,7.930000177,8.191226664,8.342049587,8.452149701,8.453370102,8.429048151,8.389441981,8.23415344,8.113082911,8.00434073,7.867293712,7.747573538,7.626334565,7.495221257,7.41481236,7.30012747,7.180464104,7.104312019,7.038762857,6.967622392,6.862770551,6.790192852,6.709881002,6.649447305,6.549172511,7.570209284,NA,NA,NA,NA,NA,NA,NA
"Plexslick 930-1 gpt-150k (5/16"")",Plexslick 930,Cationic,"5/16""",Solvay,1,150k,NA,NA,NA,NA,NA,NA,NA,NA,NA,NA,NA,NA,NA,NA,NA,NA,NA,NA,NA,NA,NA,NA,NA,NA,NA,NA,NA,NA,NA,NA,NA,NA,NA,NA,NA,NA,NA,NA,NA
"Plexslick 930A150k (5/16"")",Plexslick 930,Cationic,"5/16""",Solvay,A,150k,NA,0.083081658,0.167821334,0.24463225,0.317380229,0.373978508,0.420632106,0.460235083,0.494097896,0.52279992,0.543987106,0.562411799,0.576706661,0.589235444,0.598670053,0.605049472,0.611901206,0.617574075,0.621703198,0.624914182,0.627272102,0.630002057,0.631179695,0.6331712,0.635160439,0.635047501,0.63541675,0.636596206,0.636597764,0.63703674,0.636705696,0.592964174,NA,NA,NA,NA,NA,NA,NA
"Plexslick 930k150k (5/16"")",Plexslick 930,Cationic,"5/16""",Solvay,k,150k,NA,6.609551471,6.070883229,6.287926515,6.467951053,6.735959736,6.858844058,6.955326342,6.999601132,6.975343102,7.049876456,7.029727992,7.014384383,6.969342408,6.92713036,6.925068799,6.842820744,6.762442332,6.721832724,6.642473304,6.583184302,6.523921933,6.441981925,6.359257858,6.28306619,6.23409501,6.178011182,6.100221467,6.040394739,5.99100547,5.925338668,6.578460953,NA,NA,NA,NA,NA,NA,NA
"Plexslick 930-1 gpt-200k (5/16"")",Plexslick 930,Cationic,"5/16""",Solvay,1,200k,NA,NA,NA,NA,NA,NA,NA,NA,NA,NA,NA,NA,NA,NA,NA,NA,NA,NA,NA,NA,NA,NA,NA,NA,NA,NA,NA,NA,NA,NA,NA,NA,NA,NA,NA,NA,NA,NA,NA
"Plexslick 930A200k (5/16"")",Plexslick 930,Cationic,"5/16""",Solvay,A,200k,NA,0.08438336,0.159373945,0.229345647,0.291546416,0.347472975,0.393468023,0.43365505,0.467652796,0.49801229,0.521868038,0.542759518,0.560200922,0.573445612,0.583740176,0.592858573,0.601045324,0.60720796,0.612618961,0.617140565,0.620704176,0.624228596,0.62643717,0.629920003,0.630959549,0.63259611,0.631928652,0.633489705,0.634199274,0.634058182,0.635085843,0.581571243,NA,NA,NA,NA,NA,NA,NA
"Plexslick 930k200k (5/16"")",Plexslick 930,Cationic,"5/16""",Solvay,k,200k,NA,3.019453965,3.939701768,4.423485302,4.840297801,5.082700317,5.356239903,5.57175854,5.741606623,5.826424377,5.944654329,6.001869868,6.054337448,6.098881712,6.156848982,6.155528971,6.136464824,6.132120195,6.105692531,6.058485473,6.030253691,6.022159846,5.949735825,5.867597585,5.851128793,5.787820503,5.770464225,5.69787329,5.655696578,5.63010344,5.56712892,5.887634516,NA,NA,NA,NA,NA,NA,NA
"Plexslick 986C BoostAFresh (5/16"")",Plexslick 986C Boost,Cationic,"5/16""",Solvay,A,Fresh,NA,0.693056126,0.716147808,0.717656748,0.71538682,0.714430569,0.718165412,0.71895266,0.718044492,0.716189364,0.715103687,0.720030596,0.718582369,0.716179122,0.719492985,0.717795121,0.721232352,0.721233496,0.720980827,0.720194457,0.719779337,0.723629001,0.720022854,0.722424345,0.724415983,0.723216568,0.722796658,0.723209517,0.720683141,0.724371153,0.72362219,0.720348777,NA,NA,NA,NA,NA,NA,NA
"Plexslick 986C BoostkFresh (5/16"")",Plexslick 986C Boost,Cationic,"5/16""",Solvay,k,Fresh,NA,6.684425878,9.246262289,10.40317417,11.27737122,11.85142494,12.00654378,12.16214532,12.20693825,12.32956398,12.38668137,11.96340324,11.87884404,11.82541435,11.43208673,11.34116795,10.9531929,10.72921319,10.50506774,10.30308114,10.12740889,9.777294489,9.709383279,9.417460691,9.180022429,9.031066892,8.886427847,8.684756605,8.625022298,8.374721363,8.262190678,10.33258534,NA,NA,NA,NA,NA,NA,NA
"Plexslick 986C BoostA50k (5/16"")",Plexslick 986C Boost,Cationic,"5/16""",Solvay,A,50k,NA,0.657552961,0.717388204,0.719726881,0.718455856,0.714619557,0.718165412,0.71895266,0.718044492,0.715899754,0.715260401,0.720030596,0.718582369,0.716179122,0.719492985,0.717795121,0.721232352,0.721233496,0.720980827,0.720194457,0.719779337,0.723629001,0.720022854,0.722424345,0.724415983,0.723216568,0.722796658,0.723209517,0.720683141,0.724371153,0.72362219,0.720348777,NA,NA,NA,NA,NA,NA,NA
"Plexslick 986C Boostk50k (5/16"")",Plexslick 986C Boost,Cationic,"5/16""",Solvay,k,50k,NA,3.309021104,4.835663227,5.826939903,6.631805489,7.29108844,7.622517078,7.9044115,8.107017991,8.296550751,8.39173814,8.279822203,8.263877646,8.267787632,8.098352437,8.038680975,7.856784772,7.751544599,7.649481472,7.540287086,7.493244776,7.332257502,7.247993523,7.071462169,6.912826642,6.800859787,6.694392002,6.559016852,6.496827071,6.334071499,6.267232254,7.457321929,NA,NA,NA,NA,NA,NA,NA
"Plexslick 986C BoostA100k (5/16"")",Plexslick 986C Boost,Cationic,"5/16""",Solvay,A,100k,NA,0.438744362,0.592918777,0.658475123,0.689962339,0.701317853,0.706727503,0.707307165,0.708796741,0.705725036,0.705725645,0.706219024,0.705388221,0.704890695,0.704436616,0.705765335,0.703416243,0.70588299,0.704554075,0.704019592,0.705044283,0.703941603,0.703565513,0.703568221,0.702462833,0.702959212,0.705498606,0.705611113,0.704548684,0.706749531,0.703447858,0.705050094,NA,NA,NA,NA,NA,NA,NA
"Plexslick 986C Boostk100k (5/16"")",Plexslick 986C Boost,Cationic,"5/16""",Solvay,k,100k,NA,1.687462188,2.529627498,3.160907233,3.808988563,4.44464749,5.035192954,5.536607764,5.958258802,6.353696134,6.628016187,6.804279003,6.953245466,7.06172616,7.094610188,7.079520133,7.104001066,7.038367358,7.008424619,6.952152951,6.860500613,6.783511777,6.711256617,6.606418549,6.534828546,6.419171434,6.290232993,6.230568795,6.146969343,6.025587835,6.004220121,6.504845595,NA,NA,NA,NA,NA,NA,NA
"Plexslick 986C BoostA150k (5/16"")",Plexslick 986C Boost,Cationic,"5/16""",Solvay,A,150k,NA,0.323381455,0.48731348,0.585145499,0.633985602,0.662613359,0.680115176,0.691434715,0.697920424,0.701775098,0.703805367,0.705376913,0.706464773,0.706804567,0.707401901,0.70740639,0.708374769,0.707554841,0.70733436,0.7070725,0.706362285,0.706921384,0.707068804,0.706961035,0.70792879,0.70767125,0.707666138,0.707334984,0.707776642,0.708151383,0.707554841,0.704809573,NA,NA,NA,NA,NA,NA,NA
"Plexslick 986C Boostk150k (5/16"")",Plexslick 986C Boost,Cationic,"5/16""",Solvay,k,150k,NA,2.215510612,2.759801332,3.297513835,3.935217242,4.498877285,5.014926837,5.450031083,5.820953504,6.131927809,6.394887903,6.602651748,6.739317629,6.842538459,6.893449276,6.937281698,6.915564229,6.915238651,6.878376319,6.839544942,6.81862141,6.730474119,6.672627338,6.590502375,6.495815185,6.424784929,6.350647127,6.273614636,6.226721338,6.160868501,6.046921207,6.423907713,NA,NA,NA,NA,NA,NA,NA
"Plexslick 986C BoostA200k (5/16"")",Plexslick 986C Boost,Cationic,"5/16""",Solvay,A,200k,NA,0.246304156,0.407438559,0.522331645,0.588280962,0.625864142,0.650865634,0.667493675,0.679623264,0.688371087,0.694849128,0.698310788,0.701693637,0.704100829,0.705936509,0.706159436,0.707092485,0.707203649,0.707418879,0.708104113,0.707673653,0.708250212,0.70918174,0.709397201,0.709753437,0.709184252,0.709504816,0.709396187,0.709292904,0.709291106,0.708929778,0.701083136,NA,NA,NA,NA,NA,NA,NA
"Plexslick 986C Boostk200k (5/16"")",Plexslick 986C Boost,Cationic,"5/16""",Solvay,k,200k,NA,1.759386008,2.171797533,2.565174799,3.023910703,3.496795847,3.981281376,4.387202552,4.738997001,5.048981926,5.287511063,5.508315967,5.688526102,5.835065421,5.927517975,6.007227123,6.045763725,6.082689317,6.096492081,6.101339589,6.09124806,6.101019036,6.051818095,6.028535748,5.950178799,5.903509933,5.829726548,5.741931088,5.717965551,5.658534912,5.579370177,5.644386694,NA,NA,NA,NA,NA,NA,NA
"FR-HPAAFresh (5/16"")",FR-HPA,Anionic,"5/16""",Solvay,A,Fresh,NA,0.583797149,0.695393124,0.707378788,0.710319883,0.714877908,0.714849161,0.717787117,0.718985148,0.719531771,0.718583298,0.719826337,0.7181637,0.717543749,0.720687718,0.717539843,0.717826492,0.716087763,0.716329989,0.713143005,0.713135965,0.711931105,0.712441225,0.711527,0.711775266,0.714188589,0.714851577,0.71460655,0.712976413,0.71272638,0.716722886,0.710785614,NA,NA,NA,NA,NA,NA,NA
"FR-HPAkFresh (5/16"")",FR-HPA,Anionic,"5/16""",Solvay,k,Fresh,NA,3.433845502,5.24790731,7.252280707,8.840632126,9.894449324,10.70063693,11.06466128,11.26260796,11.31781758,11.30932143,11.05969581,10.90645114,10.62679528,10.22666431,10.11382675,9.842127128,9.658656701,9.41408995,9.259850087,9.030010213,8.869168416,8.67457923,8.527236399,8.381039886,8.152471302,7.958028323,7.883435813,7.768274705,7.671765293,7.452355443,9.518374086,NA,NA,NA,NA,NA,NA,NA
"FR-HPAA50k (5/16"")",FR-HPA,Anionic,"5/16""",Solvay,A,50k,NA,0.589630701,0.682035243,0.7001307,0.70575502,0.716794373,0.723824535,0.72577387,0.725498672,0.724080269,0.724361868,0.725658077,0.728373104,0.723059441,0.722652317,0.723707883,0.721716421,0.720165858,0.715344043,0.713141212,0.712077215,0.708951654,0.705947794,0.704966364,0.705086414,0.704844804,0.704069918,0.702976244,0.703015705,0.703780179,0.701593037,0.710867066,NA,NA,NA,NA,NA,NA,NA
"FR-HPAk50k (5/16"")",FR-HPA,Anionic,"5/16""",Solvay,k,50k,NA,2.480775601,4.439327461,6.370188522,8.01953301,9.026986652,9.662587166,10.06952002,10.29480678,10.37511382,10.25782501,10.01575215,9.665683011,9.569496276,9.320919394,9.037379787,8.849524117,8.63630023,8.526100901,8.371472672,8.201229925,8.079948146,7.951794868,7.82048187,7.66532877,7.512503562,7.39258897,7.296251447,7.166217818,7.045421057,6.967661943,8.660730738,NA,NA,NA,NA,NA,NA,NA
"FR-HPAA100k (5/16"")",FR-HPA,Anionic,"5/16""",Solvay,A,100k,NA,0.448313804,0.618686757,0.677079985,0.698726742,0.703933049,0.706338252,0.706842062,0.705723826,0.705457765,0.705958222,0.705456945,0.705729339,0.705571287,0.705572107,0.707419683,0.706684805,0.70718936,0.707799787,0.706952505,0.705674329,0.70567351,0.705286823,0.704543651,0.70384615,0.702448616,0.70132874,0.699121077,0.698383194,0.69698797,0.69624589,0.704329436,NA,NA,NA,NA,NA,NA,NA
"FR-HPAk100k (5/16"")",FR-HPA,Anionic,"5/16""",Solvay,k,100k,NA,1.528911838,2.367176506,3.504431579,4.595654226,5.475905662,6.149165359,6.598356799,6.874343247,7.026262494,7.05607743,7.033165439,6.96964571,6.866575047,6.777828536,6.65170509,6.515370214,6.428283238,6.287983938,6.212586235,6.126038826,6.043253824,6.007574437,5.921978884,5.815944125,5.747540252,5.705977329,5.641197376,5.577790616,5.544872384,5.468178066,6.265719677,NA,NA,NA,NA,NA,NA,NA
"FR-HPAA150k (5/16"")",FR-HPA,Anionic,"5/16""",Solvay,A,150k,NA,0.023854084,0.068490463,0.132552182,0.200860525,0.26524107,0.322458261,0.36802507,0.407091425,0.439736337,0.466803013,0.490925688,0.511159836,0.526361023,0.540715733,0.552023005,0.561093059,0.568359591,0.575084801,0.581692574,0.586062964,0.590504955,0.593119118,0.596864115,0.599579055,0.603102685,0.604174129,0.606410454,0.608064421,0.609131654,0.610526983,0.540762798,NA,NA,NA,NA,NA,NA,NA
"FR-HPAk150k (5/16"")",FR-HPA,Anionic,"5/16""",Solvay,k,150k,NA,5.97961106,5.849817018,5.445128175,5.589121758,5.804206445,6.03627788,6.34099642,6.558677351,6.765111341,6.959001954,7.107668694,7.226932779,7.332387412,7.388567887,7.498281683,7.573330505,7.664497442,7.746729388,7.740338936,7.811088869,7.834274026,7.895050956,7.894685396,7.883447131,7.831371981,7.858276835,7.832590525,7.824534891,7.821502854,7.855977495,7.499151192,NA,NA,NA,NA,NA,NA,NA
"FR-HPAA200k (5/16"")",FR-HPA,Anionic,"5/16""",Solvay,A,200k,NA,0.013784677,0.036802655,0.083360034,0.137455501,0.192124337,0.23624576,0.277746593,0.311786993,0.343220091,0.367633399,0.387546854,0.407959984,0.427660745,0.442428407,0.45801175,0.469703403,0.479464434,0.489690825,0.499516546,0.507462681,0.517178057,0.523621935,0.533447816,0.540351076,0.5453909,0.551688583,0.5558331,0.561871932,0.565560915,0.569704676,0.462829098,NA,NA,NA,NA,NA,NA,NA
"FR-HPAk200k (5/16"")",FR-HPA,Anionic,"5/16""",Solvay,k,200k,NA,10.60531184,3.520149984,1.036396101,1.653179746,1.929610738,2.268655622,2.478156549,2.654564618,2.81270639,2.941688382,3.094678612,3.218498486,3.289559006,3.446148829,3.556170965,3.685275742,3.842938762,3.963067948,4.078028698,4.20893674,4.301658152,4.439404607,4.51243537,4.625231287,4.749507708,4.844183532,4.958900508,5.023719559,5.140604613,5.221327289,4.018544265,NA,NA,NA,NA,NA,NA,NA
"DR-22430A50k (5/16"")",DR-22430,Anionic,"5/16""",SNF,A,50k,NA,0.311959136,0.607404212,0.656772084,0.667239951,0.669085643,0.668427567,0.665816708,0.661118873,0.656790622,0.65115308,0.647107142,0.641715543,0.637383286,0.632439089,0.628469869,0.62247107,0.619197421,0.614622991,0.610941216,0.605679803,0.602042332,0.5984898,0.594974869,0.591703917,0.588192547,0.585247897,0.581732075,0.578178444,0.575561694,0.572822743,0.617291224,NA,NA,NA,NA,NA,NA,NA
"DR-22430k50k (5/16"")",DR-22430,Anionic,"5/16""",SNF,k,50k,NA,5.515299169,5.438627685,5.98692538,6.248309028,6.299802687,6.316348137,6.188964519,6.130224013,6.047864191,6.006201682,5.901033819,5.874291196,5.809212935,5.739860946,5.682511683,5.626147424,5.572860214,5.509360349,5.457325348,5.432109981,5.396412604,5.355271945,5.385742433,5.358483647,5.318340856,5.262342653,5.212883123,5.212654828,5.193185686,5.199621351,5.614760004,NA,NA,NA,NA,NA,NA,NA
"DR-22430A100k (5/16"")",DR-22430,Anionic,"5/16""",SNF,A,100k,NA,0.304126377,0.594213005,0.647146003,0.66049024,0.662887956,0.660850197,0.662742772,0.661489787,0.656823701,0.652701924,0.647920772,0.643523384,0.638504783,0.634620279,0.629717348,0.624939639,0.621869978,0.617865656,0.614451901,0.610179359,0.606646264,0.602491151,0.599115484,0.595349892,0.592482207,0.588724359,0.585541793,0.582129948,0.580007919,0.576870102,0.619502424,NA,NA,NA,NA,NA,NA,NA
"DR-22430k100k (5/16"")",DR-22430,Anionic,"5/16""",SNF,k,100k,NA,4.023161066,4.955395676,5.628672183,5.939943368,6.019646273,6.063798357,5.972334196,5.873884387,5.812244554,5.729681999,5.681263425,5.597785182,5.551098848,5.480572163,5.445165721,5.382084923,5.334320512,5.314800266,5.233480942,5.222680543,5.154937552,5.121102225,5.092403032,5.046274316,5.013245247,4.979096295,4.946924119,4.923665028,4.884811974,4.887228411,5.355246025,NA,NA,NA,NA,NA,NA,NA
"DR-22430A150k (5/16"")",DR-22430,Anionic,"5/16""",SNF,A,150k,NA,0.327433957,0.554635412,0.59917829,0.609689977,0.610178988,0.605754454,0.601577292,0.596547919,0.59084403,0.585329181,0.579702709,0.574226079,0.576836576,0.573860276,0.569943433,0.565133508,0.559994256,0.555820486,0.551868242,0.548177774,0.543521394,0.539685766,0.536328806,0.532527981,0.528467458,0.525113364,0.522021835,0.519260923,0.515796592,0.512962013,0.556452094,NA,NA,NA,NA,NA,NA,NA
"DR-22430k150k (5/16"")",DR-22430,Anionic,"5/16""",SNF,k,150k,NA,2.90718224,3.889889894,4.507739504,4.801998348,4.893089613,4.924082581,4.931159516,4.885013879,4.887631199,4.930259037,4.913993231,4.882478592,4.731192843,4.667399576,4.610062516,4.566327982,4.523680211,4.481627168,4.452595604,4.41777488,4.390598005,4.362850697,4.32821731,4.336070599,4.33492654,4.32498715,4.299209426,4.285075129,4.261686837,4.271811631,4.56613007,NA,NA,NA,NA,NA,NA,NA
"Kemflow A4251A50k (5/16"")",Kemflow A4251,Anionic,"5/16""",Kemira,A,50k,NA,0.51570534,0.673886436,0.695312418,0.695682029,0.699952578,0.696671825,0.689661692,0.683101262,0.67678471,0.669823998,0.663390931,0.6578959,0.652119545,0.648016063,0.642893925,0.63855019,0.63396234,0.630026582,0.625808159,0.622401568,0.619613034,0.616091712,0.613055336,0.609245074,0.605441299,0.60424376,0.600478902,0.597813869,0.595308393,0.592808773,0.635408354,NA,NA,NA,NA,NA,NA,NA
"Kemflow A4251k50k (5/16"")",Kemflow A4251,Anionic,"5/16""",Kemira,k,50k,NA,5.07356483,6.347582269,6.557872209,6.406220614,6.1221766,5.946552499,5.794062017,5.694228239,5.624119837,5.60470033,5.525410751,5.497044583,5.443719516,5.413992633,5.444474074,5.345749378,5.420754236,5.437619924,5.418237771,5.34502527,5.273180211,5.269604827,5.29262117,5.324758724,5.395111119,5.390981637,5.450097698,5.410831722,5.452218445,5.469624609,5.469140154,NA,NA,NA,NA,NA,NA,NA
"Kemflow A4251A100k (5/16"")",Kemflow A4251,Anionic,"5/16""",Kemira,A,100k,NA,0.23790274,0.487530266,0.55531518,0.568273826,0.56929983,0.568203426,0.561609232,0.554973573,0.548181993,0.54061335,0.535232782,0.530283268,0.524123147,0.519100993,0.515172979,0.511406421,0.507400811,0.503240563,0.500330475,0.49696211,0.494171737,0.491545085,0.489616995,0.487105075,0.484747995,0.482586287,0.476695385,0.468996938,0.468597939,0.466598091,0.509099866,NA,NA,NA,NA,NA,NA,NA
"Kemflow A4251k100k (5/16"")",Kemflow A4251,Anionic,"5/16""",Kemira,k,100k,NA,3.22680843,3.077099701,3.130164346,3.232481436,3.256892104,3.24428197,3.272253541,3.289122241,3.330037476,3.356096539,3.390921199,3.401276908,3.459690043,3.510875886,3.555646152,3.592910108,3.628995766,3.691758453,3.740037952,3.81835259,3.82484627,3.864014799,3.895873868,3.965754283,4.016763594,4.069183983,4.157526371,4.286942773,4.331180353,4.372562395,3.696047216,NA,NA,NA,NA,NA,NA,NA
"Kemflow A4251A150k (5/16"")",Kemflow A4251,Anionic,"5/16""",Kemira,A,150k,NA,0.047654702,0.132381397,0.194662858,0.234257729,0.26447793,0.287053107,0.303890833,0.317576668,0.328959635,0.337413704,0.345056305,0.351695922,0.358259402,0.364186208,0.369195788,0.373572162,0.377358589,0.382726783,0.385254615,0.388441927,0.39152317,0.394268319,0.396419435,0.398086056,0.399722769,0.401873054,0.404021319,0.404952657,0.406844006,0.408403157,0.371070224,NA,NA,NA,NA,NA,NA,NA
"Kemflow A4251k150k (5/16"")",Kemflow A4251,Anionic,"5/16""",Kemira,k,150k,NA,2.317638114,2.743220958,2.826670432,2.968921436,3.121541685,3.262566301,3.436652518,3.60063658,3.700665061,3.831010843,3.90985722,4.053155227,4.096048117,4.198169083,4.311931875,4.539947661,4.606129467,4.689662353,4.736715681,4.854564184,4.92558397,5.033325491,5.169305334,5.182608158,5.286360046,5.325217907,5.412566157,5.48478197,5.583019379,5.625679869,4.623806292,NA,NA,NA,NA,NA,NA,NA
"DR-42430A50k (5/16"")",DR-42430,Cationic,"5/16""",SNF,A,50k,NA,0.680371402,0.715990583,0.714043316,0.72216794,0.719665614,0.726889127,0.724353635,0.722578669,0.723441188,0.723953096,0.721176017,0.721529406,0.719621113,0.718984642,0.716436133,0.716040357,0.714405391,0.713410386,0.708646939,0.709670958,0.705857455,0.705609933,0.701002534,0.70012282,0.69809865,0.695156353,0.693363301,0.690029787,0.688674235,0.687124426,0.709847062,NA,NA,NA,NA,NA,NA,NA
"DR-42430k50k (5/16"")",DR-42430,Cationic,"5/16""",SNF,k,50k,NA,9.731594057,14.79021429,14.20850681,12.70742646,12.0765189,11.07988374,10.66220304,10.2419806,9.8442522,9.462758068,9.231700934,8.934346973,8.717959405,8.497290876,8.325546812,8.105270047,7.946041142,7.797103023,7.717356904,7.520536834,7.445498236,7.304516076,7.252231017,7.13907763,7.038857967,6.977573894,6.901489461,6.847397859,6.770643122,6.693333577,8.085532584,NA,NA,NA,NA,NA,NA,NA
"DR-42430A100k (5/16"")",DR-42430,Cationic,"5/16""",SNF,A,100k,NA,0.716522254,0.726995849,0.729097622,0.729446025,0.730669491,0.729090469,0.731156872,0.729093443,0.730543516,0.730154507,0.727582165,0.727352584,0.726126685,0.72462986,0.722783477,0.721211608,0.718871872,0.717636706,0.716395468,0.712456062,0.710992986,0.707779293,0.705818439,0.703478063,0.701250143,0.699558248,0.697716019,0.695337298,0.692386959,0.691532814,0.714837422,NA,NA,NA,NA,NA,NA,NA
"DR-42430k100k (5/16"")",DR-42430,Cationic,"5/16""",SNF,k,100k,NA,10.22408381,14.52456854,13.3977384,12.39025382,11.50920543,10.97626025,10.33409289,9.942390553,9.502762852,9.163192313,8.887806767,8.606754794,8.400505725,8.188825042,8.024952812,7.839757542,7.69866723,7.554551935,7.405878906,7.321587699,7.246922811,7.179037645,7.040318954,6.984829517,6.86746617,6.809758262,6.717311728,6.690655301,6.62635278,6.528142626,7.854647656,NA,NA,NA,NA,NA,NA,NA
"DR-42430A150k (5/16"")",DR-42430,Cationic,"5/16""",SNF,A,150k,NA,0.696983988,0.720480414,0.721217489,0.721542618,0.721466894,0.720505364,0.720392251,0.718953082,0.718729406,0.716960293,0.716219772,0.714708987,0.712239599,0.710211591,0.707489611,0.705348514,0.703357071,0.700888721,0.699556575,0.696278425,0.694837085,0.691410155,0.689637832,0.68621508,0.684444622,0.683151613,0.680167929,0.678175682,0.675815677,0.674160693,0.699994225,NA,NA,NA,NA,NA,NA,NA
"DR-42430k150k (5/16"")",DR-42430,Cationic,"5/16""",SNF,k,150k,NA,7.712182017,9.733624606,9.669583257,9.371709181,9.078906658,8.812006361,8.589111862,8.337627422,8.09080211,7.92055877,7.72555376,7.571681293,7.440986003,7.31150467,7.185597635,7.093152529,6.963805053,6.862645417,6.750919876,6.68376545,6.588733064,6.52480271,6.438043073,6.397437544,6.313341802,6.242326039,6.203932251,6.147746345,6.087298681,6.032852359,7.020191514,NA,NA,NA,NA,NA,NA,NA
"DR-42430A200k (5/16"")",DR-42430,Cationic,"5/16""",SNF,A,200k,NA,0.493693308,0.633538394,0.653417015,0.660104045,0.662995023,0.664218396,0.663807959,0.663251102,0.66199944,0.660889315,0.659567318,0.658696019,0.657132767,0.655563764,0.655213429,0.653646967,0.65173318,0.649995285,0.648848845,0.647734329,0.645958112,0.644495536,0.643029169,0.641295265,0.640176959,0.638233567,0.637226592,0.635348496,0.634926668,0.633359961,0.649853938,NA,NA,NA,NA,NA,NA,NA
"DR-42430k200k (5/16"")",DR-42430,Cationic,"5/16""",SNF,k,200k,NA,4.184877997,5.40011621,6.038524485,6.413953176,6.653585044,6.760778511,6.876195664,6.894814692,6.916717334,6.993349407,6.940766464,6.928613724,6.879777293,6.83117236,6.766406038,6.706901793,6.657824123,6.623160271,6.551842761,6.476611616,6.424965063,6.397022865,6.377151376,6.325421456,6.288534561,6.252188475,6.162951547,6.123163293,6.058939357,5.997079335,6.564561244,NA,NA,NA,NA,NA,NA,NA
"Plexslick 922AFresh (5/16"")",Plexslick 922,Cationic,"5/16""",Solvay,A,Fresh,NA,0.361981084,0.568985685,0.623673665,0.648042322,0.661531097,0.671318539,0.677572503,0.678235983,0.681763713,0.686311336,0.687853933,0.687092857,0.692560695,0.690978977,0.692040019,0.699567775,0.691915372,0.692044884,0.689198165,0.697339614,0.685913305,0.687984018,0.688255111,0.688251106,0.688734689,0.686016546,0.684479567,0.681512753,0.677175278,0.681055649,0.686606895,NA,NA,NA,NA,NA,NA,NA
"Plexslick 922kFresh (5/16"")",Plexslick 922,Cationic,"5/16""",Solvay,k,Fresh,NA,3.093805522,4.097160686,4.97364162,5.626843507,6.106585508,6.426287299,6.666868899,6.874876232,6.992965996,6.999905965,7.029923268,7.047924478,6.922453188,6.913891332,6.839154953,6.649467922,6.69465606,6.599201567,6.555004342,6.335560599,6.429488442,6.339864501,6.262707865,6.185869524,6.037576957,5.955366827,5.913596137,5.862213801,5.83993217,5.706178648,6.47143839,NA,NA,NA,NA,NA,NA,NA
"Plexslick 922A50k (5/16"")",Plexslick 922,Cationic,"5/16""",Solvay,A,50k,NA,0.347674901,0.591708295,0.677734652,0.709415663,0.718229783,0.720335296,0.722682594,0.723917655,0.722299729,0.722772316,0.72281541,0.722814317,0.72162957,0.721273961,0.722258593,0.72167091,0.719496726,0.721561509,0.723687591,0.722304484,0.722304484,0.723922231,0.724597399,0.725071486,0.726970732,0.72594476,0.725193294,0.72623513,0.726974443,0.726847246,0.723423275,NA,NA,NA,NA,NA,NA,NA
"Plexslick 922k50k (5/16"")",Plexslick 922,Cationic,"5/16""",Solvay,k,50k,NA,2.16044265,3.398719319,4.590644607,5.622954951,6.55374731,7.319302614,7.826936987,8.174922608,8.488672028,8.611052778,8.711058499,8.677900481,8.672059859,8.581588398,8.461749318,8.333948594,8.250345409,8.067629544,7.859185743,7.768147859,7.626225863,7.433925432,7.323331926,7.194153564,7.05665153,6.968543257,6.87186537,6.745023803,6.649491218,6.555678333,7.730245283,NA,NA,NA,NA,NA,NA,NA
"Plexslick 922A100k (5/16"")",Plexslick 922,Cationic,"5/16""",Solvay,A,100k,NA,0.251490219,0.404044975,0.511529631,0.575270426,0.613490612,0.639376633,0.65765173,0.671579422,0.681699187,0.689209326,0.695862428,0.70067258,0.703528056,0.70671622,0.708835231,0.709952484,0.711300555,0.711304104,0.712382349,0.713149937,0.713421217,0.714763621,0.714884365,0.715496563,0.71549883,0.716001619,0.715726716,0.723036765,0.724000919,0.725113984,0.703646594,NA,NA,NA,NA,NA,NA,NA
"Plexslick 922k100k (5/16"")",Plexslick 922,Cationic,"5/16""",Solvay,k,100k,NA,2.725599314,3.349970212,3.998857527,4.592625218,5.234910517,5.720810907,6.182292338,6.570843995,6.902721269,7.134017342,7.277451109,7.39394528,7.469980196,7.463248005,7.437705634,7.405792184,7.327927229,7.237817991,7.148852559,7.028203585,6.910651075,6.763048772,6.649803315,6.511114214,6.41675541,6.284276539,6.183993476,5.976694197,5.903436163,5.777328791,6.739497777,NA,NA,NA,NA,NA,NA,NA
"Plexslick 922A150k (5/16"")",Plexslick 922,Cationic,"5/16""",Solvay,A,150k,NA,0.17454986,0.327942352,0.445833449,0.52390891,0.57515992,0.60812716,0.629226602,0.64349008,0.655761012,0.664143133,0.671428051,0.677785958,0.683558578,0.686654331,0.69135473,0.693708591,0.696214395,0.697028951,0.699012031,0.700334665,0.701620779,0.701955299,0.702584593,0.703242237,0.705588563,0.704347752,0.705742225,0.705850373,0.705638858,0.705745428,0.685605775,NA,NA,NA,NA,NA,NA,NA
"Plexslick 922k150k (5/16"")",Plexslick 922,Cationic,"5/16""",Solvay,k,150k,NA,2.517887299,2.798570398,3.241297398,3.772296652,4.29934073,4.815254288,5.272583819,5.682027813,5.997372913,6.29292759,6.500095882,6.668827369,6.776975519,6.86880121,6.880149077,6.899107478,6.868825804,6.845353835,6.768968259,6.71072435,6.612631087,6.54493337,6.436599358,6.328960128,6.208140952,6.138823423,6.023032287,5.942188544,5.856902046,5.774544541,6.292258737,NA,NA,NA,NA,NA,NA,NA
"Plexslick 922A200k (5/16"")",Plexslick 922,Cationic,"5/16""",Solvay,A,200k,NA,0.11840103,0.239694607,0.34643516,0.428850341,0.491373419,0.537325777,0.569810631,0.593299261,0.610611467,0.624712972,0.635815572,0.645553126,0.652848164,0.660318975,0.664689925,0.669644274,0.672756278,0.676564354,0.679114334,0.682042514,0.68372163,0.685645189,0.687737455,0.689099572,0.69021899,0.691233182,0.692345691,0.693463567,0.694472571,0.69468667,0.659109286,NA,NA,NA,NA,NA,NA,NA
"Plexslick 922k200k (5/16"")",Plexslick 922,Cationic,"5/16""",Solvay,k,200k,NA,3.255668221,3.645852644,4.137559232,4.656595281,5.094846791,5.489460642,5.825712397,6.138745849,6.368252786,6.539370768,6.677825839,6.768244554,6.777232566,6.734677207,6.704178902,6.625562296,6.56589495,6.456808346,6.362073598,6.242066047,6.13641529,6.004850761,5.872975948,5.77950738,5.689025897,5.598573971,5.469636917,5.367284132,5.271177687,5.157538422,6.076265117,NA,NA,NA,NA,NA,NA,NA
"Plexslick 920AFresh (5/16"")",Plexslick 920,Cationic,"5/16""",Solvay,A,Fresh,NA,0.543699502,0.658565691,0.689604164,0.693250165,0.696915001,0.701359048,0.703323925,0.704874797,0.704756379,0.70451411,0.706350851,0.707084529,0.707656685,0.708185686,0.710381128,0.709734834,0.71547066,0.711934953,0.712582815,0.711523926,0.715870689,0.716278555,0.715753394,0.712985769,0.717172683,0.71664282,0.716887937,0.718966085,0.7165255,0.721079526,0.711515891,NA,NA,NA,NA,NA,NA,NA
"Plexslick 920kFresh (5/16"")",Plexslick 920,Cationic,"5/16""",Solvay,k,Fresh,NA,4.458808706,6.530869119,8.096551096,9.571692384,10.62789919,11.35632037,11.87938118,12.15056934,12.45590521,12.57537929,12.52175855,12.3581838,12.17460083,12.00784993,11.694436,11.53059608,11.04343713,11.03364938,10.81939933,10.69045893,10.35465954,10.16869914,10.06253222,10.00766148,9.710913781,9.567079542,9.423693135,9.256303646,9.22026567,8.96034407,10.81224666,NA,NA,NA,NA,NA,NA,NA
"Plexslick 920A50k (5/16"")",Plexslick 920,Cationic,"5/16""",Solvay,A,50k,NA,0.684587873,0.70362748,0.708672327,0.714867687,0.71352798,0.713892171,0.712114179,0.713309054,0.713150334,0.71366541,0.71706687,0.715557659,0.722014219,0.716946406,0.719874174,0.71709808,0.719242882,0.721506723,0.720115458,0.724307261,0.722528405,0.721611671,0.719985379,0.720741918,0.719072309,0.718437812,0.716692709,0.716806738,0.713395943,0.714382981,0.71774067,NA,NA,NA,NA,NA,NA,NA
"Plexslick 920k50k (5/16"")",Plexslick 920,Cationic,"5/16""",Solvay,k,50k,NA,3.752957008,7.245723439,9.561977521,10.96050663,11.95483995,12.3942329,12.80875173,12.94584004,12.70774719,12.38884792,11.79017903,11.54733774,10.80213382,10.66778556,10.22196346,9.967764853,9.502771745,9.200302557,9.039959399,8.760012227,8.622872765,8.488869503,8.353239375,8.193257565,8.10067736,7.991744904,7.865309099,7.788791062,7.745183551,7.607523176,9.548585848,NA,NA,NA,NA,NA,NA,NA
"Plexslick 920A100k (5/16"")",Plexslick 920,Cationic,"5/16""",Solvay,A,100k,NA,0.523827121,0.684405948,0.711103591,0.716096804,0.717818399,0.716769395,0.71517995,0.715560698,0.714347058,0.714195597,0.721754474,0.721982714,0.721150138,0.721374286,0.722247333,0.7216063,0.722740678,0.723308464,0.725163965,0.722856028,0.724063239,0.726259528,0.725613114,0.726826754,0.727700847,0.726867225,0.727469661,0.727465911,0.728182066,0.728410841,0.722763851,NA,NA,NA,NA,NA,NA,NA
"Plexslick 920k100k (5/16"")",Plexslick 920,Cationic,"5/16""",Solvay,k,100k,NA,2.050987754,3.71190977,5.21148509,6.413291861,7.278089583,7.88946755,8.265986954,8.42651114,8.537140651,8.569586528,8.313567396,8.245526512,8.149725506,8.021330894,7.881686495,7.759176452,7.618504972,7.479000487,7.340752686,7.272503976,7.156435735,7.013997434,6.928098066,6.810680334,6.711777005,6.64133908,6.555867385,6.474465836,6.387807099,6.320040094,7.42552737,NA,NA,NA,NA,NA,NA,NA
"Plexslick 920A150k (5/16"")",Plexslick 920,Cationic,"5/16""",Solvay,A,150k,NA,0.071274403,0.166145409,0.270889166,0.358029942,0.427289732,0.484171137,0.529888723,0.56589919,0.593991839,0.614574322,0.63132522,0.64369659,0.653186379,0.663952226,0.671654983,0.679539624,0.684107884,0.690780579,0.693889028,0.697284156,0.699878988,0.70243606,0.704083366,0.705616174,0.707259341,0.708643817,0.709490922,0.709966988,0.712039179,0.711825778,0.6627673,NA,NA,NA,NA,NA,NA,NA
"Plexslick 920k150k (5/16"")",Plexslick 920,Cationic,"5/16""",Solvay,k,150k,NA,6.144955762,5.884096913,5.916512134,6.092167419,6.244047702,6.319878649,6.386196642,6.474225133,6.537521309,6.613249026,6.662162055,6.700320753,6.731960221,6.699275624,6.708078775,6.66689725,6.658274731,6.592092076,6.56454975,6.543306337,6.491074499,6.474568715,6.43656205,6.393611409,6.355564018,6.331208656,6.281932506,6.264637167,6.200802276,6.17983749,6.486246513,NA,NA,NA,NA,NA,NA,NA
"Plexslick 920A200k (5/16"")",Plexslick 920,Cationic,"5/16""",Solvay,A,200k,NA,0.064039361,0.151872767,0.261385311,0.358286951,0.431452483,0.491890095,0.53902766,0.575039503,0.601162487,0.620612368,0.638060008,0.651479839,0.661949709,0.672094714,0.679861345,0.687410319,0.690679634,0.693562425,0.697212573,0.700131198,0.702941309,0.705641309,0.706209612,0.707579958,0.708564208,0.710281713,0.710918264,0.710817196,0.712499857,0.713059455,0.66754747,NA,NA,NA,NA,NA,NA,NA
"Plexslick 920k200k (5/16"")",Plexslick 920,Cationic,"5/16""",Solvay,k,200k,NA,4.549079723,4.768422809,4.742441104,4.865262197,5.105674595,5.332701559,5.493181231,5.671066086,5.906888321,6.10657581,6.172065932,6.282624132,6.365068023,6.409293947,6.470285327,6.46089154,6.506285037,6.496728345,6.463768301,6.433942358,6.423235683,6.373698401,6.34959052,6.306527943,6.263936194,6.208213798,6.165416619,6.115145961,6.0181698,5.991819326,6.20461981,NA,NA,NA,NA,NA,NA,NA
"Plexslick V997AFresh (5/16"")",Plexslick V997,Anionic,"5/16""",Solvay,A,Fresh,NA,0.151369943,0.479433051,0.675209794,0.692904984,0.692794101,0.698038507,0.699587506,0.702624794,0.703586656,0.707480466,0.709049316,0.710384246,0.715555693,0.713041745,0.712504887,0.714650806,0.714613486,0.715396598,0.713581786,0.714779902,0.714243627,0.714617598,0.714740566,0.71490462,0.713871753,0.715565613,0.714735606,0.715849771,0.715854731,0.716471746,0.710384897,NA,NA,NA,NA,NA,NA,NA
"Plexslick V997kFresh (5/16"")",Plexslick V997,Anionic,"5/16""",Solvay,k,Fresh,NA,1.554143676,1.411026367,2.199447904,3.747651633,5.445154069,7.08631399,8.5659795,9.736800316,10.68484705,11.29188062,11.75276284,12.07303189,12.23392609,12.51122322,12.63857727,12.67289677,12.70307064,12.735919,12.90516429,12.84913929,12.73362679,12.68601756,12.69743681,12.65214224,12.69939985,12.56906524,12.53557617,12.41895369,12.42070024,12.31072987,11.83073466,NA,NA,NA,NA,NA,NA,NA
"Plexslick V997A50k (5/16"")",Plexslick V997,Anionic,"5/16""",Solvay,A,50k,NA,0.116987529,0.284085033,0.417995425,0.500169503,0.551814797,0.583598246,0.602321219,0.616895914,0.627799277,0.636652718,0.642894595,0.648582067,0.653129327,0.657037816,0.660119975,0.66327949,0.665177938,0.668225682,0.674312794,0.675419958,0.676448272,0.677321037,0.67811103,0.678741374,0.679729555,0.67925853,0.680007554,0.680242231,0.679261339,0.680245875,0.658592552,NA,NA,NA,NA,NA,NA,NA
"Plexslick V997k50k (5/16"")",Plexslick V997,Anionic,"5/16""",Solvay,k,50k,NA,3.427485024,2.784061052,2.902390409,3.237612079,3.66696324,4.130179769,4.590357209,4.973601624,5.337025093,5.67658993,6.019035347,6.291896556,6.583192143,6.815128151,6.997310117,7.18194705,7.339614681,7.507950254,7.566130966,7.689518875,7.804990542,7.895684339,7.989002772,8.076396379,8.063640601,8.141083046,8.164229077,8.150295969,8.203615429,8.188874138,6.957294478,NA,NA,NA,NA,NA,NA,NA
"Plexslick V997A100k (5/16"")",Plexslick V997,Anionic,"5/16""",Solvay,A,100k,NA,0.088844939,0.23561166,0.368690368,0.4564167,0.515612094,0.554558543,0.58033111,0.597888927,0.61095465,0.622568041,0.630603046,0.634372596,0.639286763,0.643555584,0.647976164,0.653580131,0.655025144,0.657347827,0.659707059,0.660665855,0.662115675,0.663603898,0.665273452,0.665886665,0.666915289,0.666311641,0.667641614,0.667605699,0.668326632,0.668366524,0.644418741,NA,NA,NA,NA,NA,NA,NA
"Plexslick V997k100k (5/16"")",Plexslick V997,Anionic,"5/16""",Solvay,k,100k,NA,1.84275504,1.811133268,1.980924203,2.338044573,2.762940198,3.159841688,3.547170629,3.926103903,4.242704119,4.535869375,4.805591851,5.08423473,5.334275808,5.554453902,5.699469976,5.806220189,5.961208075,6.098336747,6.184315784,6.277740798,6.349788453,6.390250538,6.425141086,6.489177338,6.506098518,6.577991054,6.58242339,6.589533621,6.588511949,6.601419348,5.591921344,NA,NA,NA,NA,NA,NA,NA
"Plexslick V997A150k (5/16"")",Plexslick V997,Anionic,"5/16""",Solvay,A,150k,NA,0.069662412,0.19354509,0.325074528,0.416048786,0.476401291,0.515579271,0.547434813,0.569264769,0.585596947,0.598052848,0.607799546,0.615640149,0.621431413,0.627732067,0.631984179,0.635396241,0.638802084,0.641841198,0.64429505,0.647260123,0.648291129,0.649974983,0.651109834,0.651954836,0.652801456,0.652545658,0.653971086,0.653717893,0.654085069,0.653719442,0.626011283,NA,NA,NA,NA,NA,NA,NA
"Plexslick V997k150k (5/16"")",Plexslick V997,Anionic,"5/16""",Solvay,k,150k,NA,1.279400514,1.396498249,1.556967164,1.965662605,2.297257972,2.718073124,3.132491194,3.475590061,3.808403166,4.099427461,4.358546096,4.584387637,4.820051149,4.947301859,5.126011857,5.261301214,5.352416036,5.494557436,5.576249095,5.603786617,5.642441354,5.656812247,5.693057617,5.795023245,5.789688023,5.796784325,5.81268037,5.814369455,5.821432305,5.825895582,5.009577339,NA,NA,NA,NA,NA,NA,NA
"Plexslick V997A200k (5/16"")",Plexslick V997,Anionic,"5/16""",Solvay,A,200k,NA,0.031408329,0.112935105,0.225329894,0.321976575,0.39263342,0.444780215,0.483004726,0.512381076,0.534937354,0.551763291,0.565893132,0.576178607,0.585377132,0.591888503,0.597832653,0.601652029,0.606026792,0.609947022,0.613301241,0.616100498,0.61788867,0.619710279,0.621285314,0.622646608,0.622758734,0.622830429,0.624085065,0.625096443,0.624542154,0.626221673,0.588725186,NA,NA,NA,NA,NA,NA,NA
"Plexslick V997k200k (5/16"")",Plexslick V997,Anionic,"5/16""",Solvay,k,200k,NA,1.709093307,1.96501934,2.165778298,2.503054686,2.937393009,3.377064774,3.751587517,4.10819603,4.376983555,4.662595562,4.828905545,5.002344427,5.151931264,5.346245083,5.352167659,5.448307516,5.513771922,5.516303012,5.553835358,5.57678654,5.590284681,5.586071256,5.556640904,5.560345512,5.572748861,5.581281763,5.542134562,5.50686256,5.472183537,5.44043644,5.185076782,NA,NA,NA,NA,NA,NA,NA
"Plexslick V993AFresh (5/16"")",Plexslick V993,Anionic,"5/16""",Solvay,A,Fresh,NA,0.570446698,0.728224719,0.724933977,0.727992389,0.729639098,0.727302624,0.728450311,0.729396637,0.727798275,0.729516879,0.728446251,0.727826536,0.728562881,0.728602821,0.72716551,0.726872538,0.72551487,0.722103736,0.722263495,0.72184957,0.718274774,0.718558941,0.716350704,0.713300847,0.714330534,0.715935656,0.715276172,0.716725277,0.716184807,0.716060231,0.719970463,NA,NA,NA,NA,NA,NA,NA
"Plexslick V993kFresh (5/16"")",Plexslick V993,Anionic,"5/16""",Solvay,k,Fresh,NA,4.465056852,9.988402786,16.42019468,21.01043944,25.13437244,28.11092275,29.56752041,30.13596502,29.31070203,27.82701807,27.23777721,25.98907407,24.83315365,23.86311036,22.92630273,22.33175747,21.9863459,21.66375428,21.04671491,20.55875483,20.34181688,19.8935742,19.71231537,19.52842568,19.04043575,18.50396161,18.22158758,17.88133604,17.64744798,17.25908543,22.17125596,NA,NA,NA,NA,NA,NA,NA
"Plexslick V993A50k (5/16"")",Plexslick V993,Anionic,"5/16""",Solvay,A,50k,NA,0.394203586,0.620523014,0.686371,0.704982339,0.710313947,0.711301137,0.710711778,0.709927551,0.708035221,0.708815552,0.707790233,0.707278775,0.705740531,0.706167787,0.705379108,0.70447455,0.702737846,0.703088036,0.702850638,0.700918838,0.70044141,0.701696537,0.700198977,0.69917677,0.698031955,0.698303004,0.697001045,0.695110461,0.694633033,0.691797764,0.702864342,NA,NA,NA,NA,NA,NA,NA
"Plexslick V993k50k (5/16"")",Plexslick V993,Anionic,"5/16""",Solvay,k,50k,NA,1.897122652,3.568780374,5.090297783,6.330853024,7.306496975,8.018336168,8.613807443,9.068031831,9.443134548,9.668916114,9.888469473,9.980101088,10.1211859,10.13063881,10.16497699,10.16597943,10.17239173,10.11256725,10.04993201,10.00727565,9.95997695,9.795275404,9.722685932,9.635687879,9.604111737,9.488908423,9.367313642,9.294749701,9.146527967,9.080971277,9.607520459,NA,NA,NA,NA,NA,NA,NA
"Plexslick V993A100k (5/16"")",Plexslick V993,Anionic,"5/16""",Solvay,A,100k,NA,0.273109044,0.531444864,0.63684601,0.675252632,0.691667445,0.698291241,0.701127068,0.701021021,0.702852404,0.708356352,0.70885136,0.70785843,0.707628527,0.706415787,0.708244671,0.7077467,0.707632054,0.706639369,0.706518526,0.704694394,0.703928893,0.702360753,0.700908066,0.699419492,0.698687085,0.698686032,0.698536381,0.697733179,0.696508484,0.695736417,0.703055307,NA,NA,NA,NA,NA,NA,NA
"Plexslick V993k100k (5/16"")",Plexslick V993,Anionic,"5/16""",Solvay,k,100k,NA,1.552013452,2.720840399,4.01699066,5.114184392,5.944274017,6.625531673,7.168827255,7.655889219,7.981897949,8.114749427,8.338564004,8.564562694,8.697198847,8.835545554,8.844109834,8.936486491,8.968015728,8.99500421,8.993959135,9.008603058,8.945323131,9.006530649,8.97727658,8.952028965,8.865117469,8.781920341,8.649612132,8.604128543,8.542184094,8.433759239,8.514595221,NA,NA,NA,NA,NA,NA,NA
"Plexslick V993A150k (5/16"")",Plexslick V993,Anionic,"5/16""",Solvay,A,150k,NA,0.235770511,0.443250276,0.571278455,0.637176897,0.663558711,0.675274631,0.683696165,0.687750954,0.691285686,0.692708059,0.692239624,0.69271602,0.693043129,0.69325966,0.688232091,0.685096263,0.684150895,0.684072631,0.68345283,0.682398192,0.680761949,0.678907938,0.679154099,0.677840599,0.67692647,0.675725601,0.67318018,0.671904621,0.67051664,0.668876032,0.682526838,NA,NA,NA,NA,NA,NA,NA
"Plexslick V993k150k (5/16"")",Plexslick V993,Anionic,"5/16""",Solvay,k,150k,NA,1.362301351,2.21222976,3.199500212,3.965163147,4.662022014,5.216300471,5.640853318,5.983234883,6.27241205,6.494187024,6.715246866,6.852780729,6.978446826,7.080735531,7.253634277,7.358392814,7.419327431,7.457985306,7.474859209,7.48172874,7.504517009,7.555937105,7.507791973,7.515034383,7.488182469,7.462326842,7.456069978,7.428463272,7.402191001,7.38831906,7.023114031,NA,NA,NA,NA,NA,NA,NA
"Plexslick V993A200k (5/16"")",Plexslick V993,Anionic,"5/16""",Solvay,A,200k,NA,NA,NA,NA,NA,NA,NA,NA,NA,NA,NA,NA,NA,NA,NA,NA,NA,NA,NA,NA,NA,NA,NA,NA,NA,NA,NA,NA,NA,NA,NA,NA,NA,NA,NA,NA,NA,NA,NA
"Plexslick V993k200k (5/16"")",Plexslick V993,Anionic,"5/16""",Solvay,k,200k,NA,NA,NA,NA,NA,NA,NA,NA,NA,NA,NA,NA,NA,NA,NA,NA,NA,NA,NA,NA,NA,NA,NA,NA,NA,NA,NA,NA,NA,NA,NA,NA,NA,NA,NA,NA,NA,NA,NA
"FR-HSUAFresh (5/16"")",FR-HSU,Cationic,"5/16""",Solvay,A,Fresh,NA,0.632149788,0.703513472,0.702092137,0.701571934,0.709250473,0.711480026,0.714229651,0.715439391,0.71357481,0.717181512,0.716355943,0.717686153,0.719700506,0.717440443,0.722596649,0.71876297,0.719959728,0.722184129,0.717734453,0.726064942,0.717978997,0.729119311,0.718931608,0.721817631,0.723552651,0.723016137,0.72594977,0.723553579,0.723926833,0.723390584,0.71951571,NA,NA,NA,NA,NA,NA,NA
"FR-HSUkFresh (5/16"")",FR-HSU,Cationic,"5/16""",Solvay,k,Fresh,NA,2.231146849,4.048393522,5.43774106,6.526393924,7.227985259,7.836286204,8.307406454,8.704755972,9.075880799,9.281132834,9.557552722,9.734296933,9.837612888,10.06818421,10.0697433,10.28593815,10.37264665,10.37933009,10.57050509,10.34719891,10.71543452,10.36430989,10.77663563,10.68227122,10.63145404,10.64758459,10.54609397,10.61505485,10.60249571,10.57991335,9.997744818,NA,NA,NA,NA,NA,NA,NA
"FR-HSUA50k (5/16"")",FR-HSU,Cationic,"5/16""",Solvay,A,50k,NA,0.662425689,0.716851749,0.72052032,0.726365493,0.726608214,0.728174396,0.728820573,0.728700474,0.728226242,0.729097408,0.728936749,0.729971122,0.727828493,0.73012615,0.729216386,0.728184816,0.729727535,0.730956731,0.729568812,0.730081005,0.729211622,0.728297553,0.730199142,0.730869854,0.730316414,0.730471238,0.731065518,0.729955326,0.729323212,0.73058935,0.729516645,NA,NA,NA,NA,NA,NA,NA
"FR-HSUk50k (5/16"")",FR-HSU,Cationic,"5/16""",Solvay,k,50k,NA,3.586595679,6.490725977,8.640105353,9.904941482,10.93499653,11.5193599,11.92679979,12.21700593,12.4059872,12.4111762,12.38517127,12.27948966,12.2675645,12.0652581,11.95906552,11.86259869,11.62710692,11.41593504,11.28419214,11.08743176,10.8978838,10.86160482,10.58120658,10.37547644,10.1962024,10.06275863,9.893015253,9.790204559,9.701530357,9.517317995,11.15769325,NA,NA,NA,NA,NA,NA,NA
"FR-HSUA100k (5/16"")",FR-HSU,Cationic,"5/16""",Solvay,A,100k,NA,0.622155439,0.708860807,0.711669302,0.714394699,0.716407515,0.718251064,0.718521411,0.717675528,0.716674544,0.716675355,0.715570011,0.717177542,0.713622643,0.716026838,0.714842101,0.718634297,0.717291485,0.716414027,0.717748877,0.716299027,0.717286644,0.713958131,0.716284554,0.714793128,0.715175722,0.713723145,0.71355358,0.714062245,0.714098415,0.714671617,0.715948124,NA,NA,NA,NA,NA,NA,NA
"FR-HSUk100k (5/16"")",FR-HSU,Cationic,"5/16""",Solvay,k,100k,NA,2.768312678,4.662258007,6.489479216,7.875457558,8.887898138,9.579471328,10.07597234,10.47366518,10.76385663,10.93332719,11.06357847,11.02915322,11.16538978,11.02481086,11.00530252,10.78216072,10.71354622,10.62683857,10.44441165,10.33829787,10.14824476,10.14807348,9.937907101,9.833585291,9.677068183,9.568149622,9.448487764,9.277320133,9.146276921,9.014472826,10.21951069,NA,NA,NA,NA,NA,NA,NA
"FR-HSUA150k (5/16"")",FR-HSU,Cationic,"5/16""",Solvay,A,150k,NA,0.368086185,0.579704465,0.649091808,0.681658496,0.698154234,0.706772241,0.711632509,0.714105141,0.715761364,0.716132834,0.71833655,0.718374876,0.719326626,0.719183412,0.71944033,0.719515708,0.720031947,0.7206201,0.720252331,0.72083947,0.720399952,0.720619322,0.720619322,0.720509248,0.719816985,0.720584391,0.720730174,0.720471866,0.720032961,0.720032961,0.718565705,NA,NA,NA,NA,NA,NA,NA
"FR-HSUk150k (5/16"")",FR-HSU,Cationic,"5/16""",Solvay,k,150k,NA,1.647887424,2.575500407,3.532292213,4.43799067,5.244255103,5.919356642,6.530205183,7.021407701,7.381487547,7.689154301,7.841073464,8.009571896,8.099557754,8.180749875,8.254383044,8.295187538,8.309145702,8.292918862,8.273782902,8.215313237,8.198123174,8.135858175,8.096073175,8.053986185,7.989564965,7.914722041,7.833839068,7.747649516,7.671936816,7.612657893,7.798435801,NA,NA,NA,NA,NA,NA,NA
"FR-HSUA200k (5/16"")",FR-HSU,Cationic,"5/16""",Solvay,A,200k,NA,0.068233336,0.165158053,0.269418367,0.364838503,0.443824624,0.505791566,0.55511615,0.59043092,0.614783067,0.633755322,0.648056823,0.658260263,0.668944488,0.676772594,0.684349786,0.688681982,0.69483786,0.698138369,0.702208493,0.704832768,0.707769955,0.708556192,0.711415802,0.713220483,0.714249607,0.714152031,0.715247869,0.715744891,0.715745662,0.716632968,0.674307836,NA,NA,NA,NA,NA,NA,NA
"FR-HSUk200k (5/16"")",FR-HSU,Cationic,"5/16""",Solvay,k,200k,NA,3.409933135,3.360162045,3.568176554,3.901231229,4.276418844,4.719739163,5.111458661,5.559725552,6.027902401,6.475282267,6.868380186,7.207957474,7.452059797,7.687291076,7.879863724,7.993564496,8.064491156,8.170502666,8.176796697,8.198875566,8.20267761,8.226867563,8.163140829,8.110587067,8.057787615,8.016772833,7.946668322,7.876306703,7.785221568,7.712225856,7.424075944,NA,NA,NA,NA,NA,NA,NA
