FR,Supplier,Type,Cost
Plexslick 953,Solvay,Anionic,4.5
Plexslick 959,Solvay,Anionic,5.99
FR-HPA,Solvay,Anionic,7.5
FR-WW,Solvay,Anionic,11
FR-WW2,Solvay,Anionic,8
Plexslick V993,Solvay,HVFR,7
Plexslick V999,Solvay,HVFR,6.2
Plexslick V997,Solvay,HVFR,7
Plexslick 920,Solvay,Cationic,9
Plexslick 922,Solvay,Cationic,8.5
Plexslick 930,Solvay,Cationic,6.5
Plexslick 986C Boost,Solvay,Cationic,8
FR-HSU,Solvay,Cationic,9
DR-22430,SNF,Anionic,4.75
DR-42430,SNF,Cationic,5.5
Kemflow A4251,Kemira,Anionic,7.5
Hiflo 5,DCS,HVFR,12
