"0","graf <- ggplot(predicted, aes(x = `Loading (gpt)`, y = pctFR)) +"
"0","  geom_smooth(method = ""loess"", se = FALSE) +"
"0","  geom_point(data = exemplum, aes(x = `Loading (gpt)`, y = pctFR)) +"
"0","  geom_hline(yintercept = model$coefficients[3], color = 'red') +"
"0","  xlim(-0.1, 1.3) +"
"0","  ylim(-1.0, 100) +"
"0","  ggtitle(titleString) +"
"0","  xlab('Loading (gpt)') +"
"0","  ylab('% Friction Reduction') +"
"0","  annotate(""text"","
"0","           x = 0.75,"
"0","           y = 20,"
"0","           label = asymptote) +"
"0","  annotate(""text"","
"0","           x = 0.75,"
"0","           y = 15,"
"0","           label = rateConstant) +"
"0","  ggthemes::theme_hc()"
"0","graf"
