"0","df <- read.csv('BatchSummaries.csv', stringsAsFactors = FALSE)"
"0","row.names(df) <- df$Batch"
"0","res.pca <- prcomp(df[ , 2:ncol(df)], scale = TRUE)"
"0","fviz_pca_ind(res.pca,"
"0","             repel = TRUE     # Avoid text overlapping"
"0","             )"
