"0","batches <- df %>%"
"0","  group_by(r216batch_num_pv) %>%"
"0","  summarise(begin = min(timestamp), end = max(timestamp)) %>%"
"0","  arrange(begin) %>%"
"0","  rename(`batch` = `r216batch_num_pv`) %>%"
"0","  mutate(duration = format(as.numeric((end - begin)/60), digits=2, nsmall=2, trim = FALSE)) %>%"
"0","  data.frame()"
