source,batchid,30sec,60sec
R216 / FR-MC,13007,,
R216 / FR-MC,14006,,
R216 / FR-MC,20004,,
R216 / FR-MC,24004,,
R216 / FR-MC,24006,,
R216 / FR-MC,27007,,
R216 / FR-MC,28001,,
R216 / FR-MC,28005,,
R216 / FR-MC,28007,,
R216 / FR-MC,CT19H10001,43.6,50.2
R216 / FR-MC,CT19H12001,34.1,36.8
R216 / FR-MC,CT19H12003,30.3,35.3
R216 / FR-MC,CT19H14008,37.3,40.9
R216 / FR-MC,CT19H29005,37.6,38
R216 / FR-MC,CT19H29007,39.2,39.8
R216 / FR-MC,CT19H6007,,
R216 / FR-MC,CT19H8002,,
R216 / FR-MC,CT19H8004,,
R216 / FR-MC,CT19I15002,56.4,55
R216 / FR-MC,CT19I16008,42.2,49.4
R216 / FR-MC,CT19I4007,,
FDP-S1176M,CT19F23002,31.1,45.4
FDP-S1176M,CT19F23003,31.2,45.5
FDP-S1176M,CT19G10003,36.3,48.3
FDP-S1176M,CT19G12002,36.1,47.3
FDP-S1176M,CT19G13010,33.5,47.5
FDP-S1176M,CT19G17006,38.6,50.9
FDP-S1176M,CT19G18003,34.2,42.2
FDP-S1176M,CT19G19005,32.6,47.2
FDP-S1176M,CT19G19006,38.4,50.4
FDP-S1176M,CT19G20006,35.9,49.4
FDP-S1176M,CT19G24009,39.4,50.7
FDP-S1176M,CT19G25009,49.3,57.4
FDP-S1176M,CT19G25010,35,50.2
FDP-S1176M,CT19I13002,30.3,41.3
FDP-S1176M,CT19I13003,24.2,37.7
FDP-S1176M,CT19I13004,32.6,42.6
FDP-S1176M,CT19I13005,31.5,41.9
FDP-S1176M,CT19I21007,34,42.9
FDP-S1176M,CT19I22007,32.6,43
FDP-S1176M,CT19I25007,35.6,46.5
FDP-S1176-15,CT19F24001,51.8,60.8
FDP-S1176-15,CT19F24002,49,59.3
FDP-S1176-15,CT19F26001,52.4,60.2
FDP-S1176-15,CT19F26002,49.6,59.4
FDP-S1176-15,CT19F26003,50.5,59.7
FDP-S1176-15,CT19F28003,48.9,58.5
FDP-S1176-15,CT19F28006,52.3,61.3
FDP-S1176-15,CT19F28007,50.9,58.6
FDP-S1176-15,CT19F30005,56,62
FDP-S1176-15,CT19F30006,52.7,61.5
FDP-S1176-15,CT19G02005,44.7,53.6
FDP-S1176-15,CT19G05001,51.3,59.2
FDP-S1176-15,CT19G05002,,
FDP-S1176-15,CT19G07001,44.4,55.2
FDP-S1176-15,CT19G07006,50.7,59
FDP-S1176-15,CT19G08006,51.7,58.8
FDP-S1176-15,CT19G15003,40.2,52.8
FDP-S1176-15,CT19G19003,48.6,57.3
FDP-S1176-15,CT19H28002,,
FDP-S1176-15,CT19H28006,,
FDP-S1176-15,CT19H28007,,
FDP-S1176-15,CT19H3005,,
FDP-S1176-15,CT19I6006,,
FDP-S1176-15,CT19I6009,,
FR-HSM,CT19F30007,39.7,43.8
