source,batchid,Thirty,Sixty
R216 / FR-MC,CT19H10001,43.6,50.2
R216 / FR-MC,CT19H12001,34.1,36.8
R216 / FR-MC,CT19H12003,30.3,35.3
R216 / FR-MC,CT19H14008,37.3,40.9
R216 / FR-MC,CT19H29005,37.6,38
R216 / FR-MC,CT19H29007,39.2,39.8
R216 / FR-MC,CT19I15002,56.4,55
R216 / FR-MC,CT19I16008,42.2,49.4
FDP-S1176M,CT19G17006,38.6,50.9
FDP-S1176M,CT19G18003,34.2,42.2
FDP-S1176M,CT19G19005,32.6,47.2
FDP-S1176M,CT19G19006,38.4,50.4
FDP-S1176M,CT19G20006,35.9,49.4
FDP-S1176M,CT19G24009,39.4,50.7
FDP-S1176M,CT19G25009,49.3,57.4
FDP-S1176M,CT19G25010,35,50.2
FDP-S1176M,CT19I13002,30.3,41.3
FDP-S1176M,CT19I13003,24.2,37.7
FDP-S1176M,CT19I13004,32.6,42.6
FDP-S1176M,CT19I13005,31.5,41.9
FDP-S1176M,CT19I21007,34,42.9
FDP-S1176M,CT19I22007,32.6,43
FDP-S1176M,CT19I25007,35.6,46.5
FDP-S1176-15,CT19G19003,48.6,57.3
