time,CT19H10001,CT19H12001,CT19H12003,CT19H14008,CT19H29005,CT19H29007,CT19I15002,CT19I16008,CT19F23002,CT19F23003,CT19G10003,CT19G12002,CT19G13010,CT19G17006,CT19G18003,CT19G19005,CT19G19006,CT19G20006,CT19G24009,CT19G25009,CT19G25010,CT19I13002,CT19I13003,CT19I13004,CT19I13005,CT19I21007,CT19I22007,CT19I25007,CT19F24001,CT19F24002,CT19F26001,CT19F26002,CT19F26003,CT19F28003,CT19F28006,CT19F28007,CT19F30005,CT19F30006,CT19G02005,CT19G05001,CT19G07001,CT19G07006,CT19G08006,CT19G15003,CT19G19003,CT19F30007
0,0,0,0,0,0,0,0,0,0,0,0,0,0,0,0,0,0,0,0,0,0,0,0,0,0,0,0,0,0,0,0,0,0,0,0,0,0,0,0,0,0,0,0,0,0,NA
10,32.6,18.9,17.9,23.1,22,23.6,35.4,25.9,15,13.6,18.8,15.3,14,20.9,12.7,14.6,18.3,17.1,20.5,30.8,13.6,12.3,13.8,14.8,15.4,17.6,15.7,25.4,31.9,28.5,32.7,33.5,32.7,32.9,27.5,30.9,35.7,42.1,30.1,29.4,32.2,29.9,41.4,29.6,25.4,NA
20,41.1,28.8,26.1,34.8,35.6,36.7,55.2,34.4,25.1,22.3,31.5,29.3,26.6,30.6,25.2,24.5,30.3,28.6,29.5,41,25.5,23.9,21,23.5,26,20.9,23.3,26.3,46.9,44.1,46.3,47,41.7,43.2,48.1,44.7,50.5,46.1,37.1,41.9,40.3,44.3,47.1,37.7,41.9,NA
30,43.6,34.1,30.3,37.3,37.6,39.2,56.4,42.2,31.1,31.2,36.3,36.1,33.5,38.6,34.2,32.6,38.4,35.9,39.4,49.3,35,30.3,24.2,32.6,31.5,34,32.6,35.6,51.8,49,52.4,49.6,50.5,48.9,52.3,50.9,56,52.7,44.7,51.3,44.4,50.7,51.7,40.2,48.6,39.7
60,50.2,36.8,35.3,40.9,38,39.8,55,49.4,45.4,45.5,48.3,47.3,47.5,50.9,42.2,47.2,50.4,49.4,50.7,57.4,50.2,41.3,37.7,42.6,41.9,42.9,43,46.5,60.8,59.3,60.2,59.4,59.7,58.5,61.3,58.6,62,61.5,53.6,59.2,55.2,59,58.8,52.8,57.3,43.8
120,51.8,36.6,37.4,43.6,37.1,39.4,52.6,52.7,57.4,56.7,58.2,56.2,58.4,58.8,53.2,57.5,60.4,60.6,59.1,63.8,60.3,50.3,45.1,49.2,49.6,50.8,50.9,53.2,66.4,65.3,64.8,65.1,65.9,63.5,66.2,63.7,66.7,66.4,61.5,65.1,63.1,64.5,63.7,59.9,63.8,48.1
180,51.3,36.5,36.8,44.4,36.8,39.2,50.1,52.1,60.7,59.7,61.8,59.2,61.3,61.6,57.6,61,64.7,63.5,61.8,65.8,63.6,52.4,47.3,51.9,51.6,53.1,53.3,55.7,67.1,66.8,66.7,65.8,67.1,65,67.2,65.2,67.6,67.4,64,66.4,65.2,66.3,65.4,63,64.2,49.1
240,NA,NA,NA,NA,NA,NA,NA,NA,62.9,60.8,62.7,61,62,62,59.1,62.3,66.2,64.5,62.7,66.1,64.7,52.9,47.9,52.4,51.6,53.2,53.5,55,NA,NA,NA,NA,NA,NA,NA,NA,NA,NA,NA,NA,NA,NA,NA,NA,NA,NA
300,NA,NA,NA,NA,NA,NA,NA,NA,63.5,61.7,62.7,61.8,61.3,62.6,59.1,63.3,66.2,65.1,62.6,65.7,64.7,53.4,47.3,51.9,51.1,53.4,52.7,55.2,NA,NA,NA,NA,NA,NA,NA,NA,NA,NA,NA,NA,NA,NA,NA,NA,NA,NA
