time,SMBS_FLOW,fi21601_tot,fi21603_pv,fi21603_tot,fi21625_pv,fv21625_op,pi21615_pv,r216_d_t,r216step_time_pv,sit21641_pv,sit21642_op,ti21619_pv,ti21626_pv,TEMPERATURE,ti21631_tgt,wi21620_pv,r216_lot_number,a216_pv,r216_grade,r216_step,r216_batch_abnormal,r216_batch_active,r216_batch_charging_aqueous,r216_batch_completing,r216_batch_control_air_on,r216_batch_reacting,r216_batch_sparging,r216_batch_surfactant_charging,r216_batch_turns,r216_transfer_pv,r216batch_num_pv,r216cooling_mo,r216step_sp,fi21601_sp,pi21615_sp,r216step_time_pv_string,r216top_temp_sp,r216turn1_sp,r216turn2_sp,ti21631_sp,p216a_pv,fv21625_mo,xv21602_pv,xv21604_pv,xv21605_pv,xv21606_pv,xv21610_pv,xv21612_pv,xv21613_pv,xv21614_pv,xv21616_pv,xv21617_pv,xv21618_pv,xv21621_pv,xv21623_pv,xv21627_pv,xv21628_pv,r201_batch_charging_aqueous,r201_batch_surfactant_charging,vp3_pv,xv21016_pv,xv21535_pv,xv21536_pv,xv50410_pv,batchid,phase,time0,timephase
7/18/2019 5:30,0.0317421,499.3793,-8.332642,7.097273,2.036265,-10,0.004867907,-1.139278,92.77084,50.4798,44.16879,34.68438,20.41095,40.48249,41.53987,9.04714,No Data,OFF,FR-WH,TRANSFER,No Data,ON,OFF,OFF,OFF,OFF,OFF,OFF,OFF,OFF,17007,No Data,TRANSFER,7.647187,25,   1:32:59.750,50,40,40,47,OFF,Auto,CLOSED,CLOSED,OPEN,CLOSED,CLOSED,CLOSED,CLOSED,CLOSED,OPEN,OPEN,CLOSED,CLOSED,CLOSED,CLOSED,CLOSED,OFF,OFF,OFF,CLOSED,CLOSED,CLOSED,CLOSED,13007,0,0,0
7/18/2019 5:31,0.0317421,499.3794,505.7901,461.1649,2.030335,-10,-0.007214176,-0.6175737,92.77084,50.47964,44.16961,34.63279,20.42782,39.75229,41.53987,452.1767,No Data,OFF,FR-WH,TRANSFER,No Data,ON,OFF,OFF,OFF,OFF,OFF,OFF,OFF,OFF,17007,No Data,TRANSFER,7.647187,25,   1:33:57.750,50,40,40,47,OFF,Auto,CLOSED,CLOSED,OPEN,CLOSED,CLOSED,CLOSED,CLOSED,CLOSED,OPEN,OPEN,CLOSED,CLOSED,CLOSED,CLOSED,CLOSED,OFF,OFF,OFF,CLOSED,CLOSED,CLOSED,CLOSED,13007,0,60,60
7/18/2019 5:32,0.0317421,499.3795,505.5594,969.6259,2.024405,-10,-0.01929626,-0.6175737,94.29583,50.47947,44.17043,34.56199,20.44469,38.97223,41.53987,955.9734,No Data,OFF,FR-WH,TRANSFER,No Data,ON,OFF,OFF,OFF,OFF,OFF,OFF,OFF,OFF,17007,No Data,TRANSFER,7.647187,25,   1:34:55.250,50,40,40,47,OFF,Auto,CLOSED,CLOSED,OPEN,CLOSED,CLOSED,CLOSED,CLOSED,CLOSED,OPEN,OPEN,CLOSED,CLOSED,CLOSED,CLOSED,CLOSED,OFF,OFF,OFF,CLOSED,CLOSED,CLOSED,CLOSED,13007,0,120,120
7/18/2019 5:33,0.0317421,499.3795,505.3287,1469.313,2.018475,-10,-0.03137834,-1.263413,95.75833,50.4793,44.17124,34.5535,20.46156,38.0282,41.53987,1459.77,No Data,OFF,FR-WH,TRANSFER,No Data,ON,OFF,OFF,OFF,OFF,OFF,OFF,OFF,OFF,17007,No Data,TRANSFER,7.647187,25,   1:35:58.500,50,40,40,47,OFF,Auto,CLOSED,CLOSED,OPEN,CLOSED,CLOSED,CLOSED,CLOSED,CLOSED,OPEN,OPEN,CLOSED,CLOSED,CLOSED,CLOSED,CLOSED,OFF,OFF,OFF,CLOSED,CLOSED,CLOSED,CLOSED,13007,0,180,180
7/18/2019 5:34,0.0317421,499.3796,505.098,1975.763,2.012545,-10,-0.04346042,-2.377072,95.75833,50.47913,44.17206,34.60331,20.47843,35.66844,41.53987,1963.567,No Data,OFF,FR-WH,TRANSFER,No Data,ON,OFF,OFF,OFF,OFF,OFF,OFF,OFF,OFF,17007,No Data,TRANSFER,7.647187,25,   1:36:52.750,50,40,40,47,OFF,Auto,CLOSED,CLOSED,OPEN,CLOSED,CLOSED,CLOSED,CLOSED,CLOSED,OPEN,OPEN,CLOSED,CLOSED,CLOSED,CLOSED,CLOSED,OFF,OFF,OFF,CLOSED,CLOSED,CLOSED,CLOSED,13007,0,240,240
7/18/2019 5:35,0.0317421,499.3797,504.8673,2480.458,2.006615,-10,-0.05554251,-1.725457,97.25417,50.47896,44.17288,34.65311,20.49529,33.82821,41.53987,2471.812,No Data,OFF,FR-WH,TRANSFER,No Data,ON,OFF,OFF,OFF,OFF,OFF,OFF,OFF,OFF,17007,No Data,TRANSFER,7.647187,25,   1:37:49.500,50,40,40,47,OFF,Auto,CLOSED,CLOSED,OPEN,CLOSED,CLOSED,CLOSED,CLOSED,CLOSED,OPEN,OPEN,CLOSED,CLOSED,CLOSED,CLOSED,CLOSED,OFF,OFF,OFF,CLOSED,CLOSED,CLOSED,CLOSED,13007,0,300,300
7/18/2019 5:36,0.0317421,499.3798,504.6366,2986.955,2.000685,-10,-0.06762459,-1.125883,98.7875,50.47879,44.17369,34.70292,20.51217,32.60692,41.53987,2983.949,No Data,OFF,FR-WH,TRANSFER,No Data,ON,OFF,OFF,OFF,OFF,OFF,OFF,OFF,OFF,17007,No Data,TRANSFER,7.647187,25,   1:38:57.000,50,40,40,47,OFF,Auto,CLOSED,CLOSED,OPEN,CLOSED,CLOSED,CLOSED,CLOSED,CLOSED,OPEN,OPEN,CLOSED,CLOSED,CLOSED,CLOSED,CLOSED,OFF,OFF,OFF,CLOSED,CLOSED,CLOSED,CLOSED,13007,0,360,360
7/18/2019 5:37,0.0317421,499.3799,504.4059,3490.04,1.994755,-10,-0.07970668,-0.6187257,98.7875,50.47863,44.17451,34.75272,20.52903,31.878,41.53987,3496.087,No Data,OFF,FR-WH,TRANSFER,No Data,ON,OFF,OFF,OFF,OFF,OFF,OFF,OFF,OFF,17007,No Data,TRANSFER,7.647187,25,   1:39:58.500,50,40,40,47,OFF,Auto,CLOSED,CLOSED,OPEN,CLOSED,CLOSED,CLOSED,CLOSED,CLOSED,OPEN,OPEN,CLOSED,CLOSED,CLOSED,CLOSED,CLOSED,OFF,OFF,OFF,CLOSED,CLOSED,CLOSED,CLOSED,13007,0,420,420
7/18/2019 5:38,0.0317421,499.38,504.1751,4001.377,1.988825,-10,-0.09178876,-0.6187257,100.2917,50.47846,44.17533,34.80853,20.5459,31.36366,41.53987,4008.224,No Data,OFF,FR-WH,TRANSFER,No Data,ON,OFF,OFF,OFF,OFF,OFF,OFF,OFF,OFF,17007,No Data,TRANSFER,7.647187,25,   1:40:58.500,50,40,40,47,OFF,Auto,CLOSED,CLOSED,OPEN,CLOSED,CLOSED,CLOSED,CLOSED,CLOSED,OPEN,OPEN,CLOSED,CLOSED,CLOSED,CLOSED,CLOSED,OFF,OFF,OFF,CLOSED,CLOSED,CLOSED,CLOSED,13007,0,480,480
7/18/2019 5:39,0.0317421,499.3801,503.9444,4506.715,1.982895,-10,-0.1038708,-0.6187257,101.7917,50.47829,44.17615,34.86713,20.56277,30.97297,41.53987,4520.362,No Data,OFF,FR-WH,TRANSFER,No Data,ON,OFF,OFF,OFF,OFF,OFF,OFF,OFF,OFF,17007,No Data,TRANSFER,7.647187,25,   1:41:59.500,50,40,40,47,OFF,Auto,CLOSED,CLOSED,OPEN,CLOSED,CLOSED,CLOSED,CLOSED,CLOSED,OPEN,OPEN,CLOSED,CLOSED,CLOSED,CLOSED,CLOSED,OFF,OFF,OFF,CLOSED,CLOSED,CLOSED,CLOSED,13007,0,540,540
7/18/2019 5:40,0.0317421,499.3802,503.7137,5008.362,1.976965,-10,-0.1159529,-0.6187257,101.7917,50.47812,44.17696,34.83614,20.57964,30.6679,41.53987,5028.881,No Data,OFF,FR-WH,TRANSFER,No Data,ON,OFF,OFF,OFF,OFF,OFF,OFF,OFF,OFF,17007,No Data,TRANSFER,7.647187,25,   1:42:52.250,50,40,40,47,OFF,Auto,CLOSED,CLOSED,OPEN,CLOSED,CLOSED,CLOSED,CLOSED,CLOSED,OPEN,OPEN,CLOSED,CLOSED,CLOSED,CLOSED,CLOSED,OFF,OFF,OFF,CLOSED,CLOSED,CLOSED,CLOSED,13007,0,600,600
7/18/2019 5:41,0.0317421,499.3802,503.483,5511.215,1.971035,-10,-0.128035,-0.6187257,103.2958,50.47795,44.17778,34.7753,20.59651,30.50253,41.53987,5537.211,No Data,OFF,FR-WH,TRANSFER,No Data,ON,OFF,OFF,OFF,OFF,OFF,OFF,OFF,OFF,17007,No Data,TRANSFER,7.647187,25,   1:43:57.500,50,40,40,47,OFF,Auto,CLOSED,CLOSED,OPEN,CLOSED,CLOSED,CLOSED,CLOSED,CLOSED,OPEN,OPEN,CLOSED,CLOSED,CLOSED,CLOSED,CLOSED,OFF,OFF,OFF,CLOSED,CLOSED,CLOSED,CLOSED,13007,0,660,660
7/18/2019 5:42,0.0317421,499.3803,503.2523,6015.086,1.965105,-10,-0.1401171,-0.6187257,104.7667,50.47778,44.1786,34.71445,20.61338,30.3065,41.53987,6045.54,No Data,OFF,FR-WH,TRANSFER,No Data,ON,OFF,OFF,OFF,OFF,OFF,OFF,OFF,OFF,17007,No Data,TRANSFER,7.647187,25,   1:44:58.250,50,40,40,47,OFF,Auto,CLOSED,CLOSED,OPEN,CLOSED,CLOSED,CLOSED,CLOSED,CLOSED,OPEN,OPEN,CLOSED,CLOSED,CLOSED,CLOSED,CLOSED,OFF,OFF,OFF,CLOSED,CLOSED,CLOSED,CLOSED,13007,0,720,720
7/18/2019 5:43,0.0317421,499.3804,503.0216,6515.906,1.959175,-10,-0.1521992,0,104.7667,50.47762,44.17942,34.65361,20.63025,30.22352,41.53987,6553.87,No Data,OFF,FR-WH,TRANSFER,No Data,ON,OFF,OFF,OFF,OFF,OFF,OFF,OFF,OFF,17007,No Data,TRANSFER,7.647187,25,   1:45:57.500,50,40,40,47,OFF,Auto,CLOSED,CLOSED,OPEN,CLOSED,CLOSED,CLOSED,CLOSED,CLOSED,OPEN,OPEN,CLOSED,CLOSED,CLOSED,CLOSED,CLOSED,OFF,OFF,OFF,CLOSED,CLOSED,CLOSED,CLOSED,13007,0,780,780
7/18/2019 5:44,0.0317421,499.3805,502.7909,7020.42,1.953245,-10,-0.1642813,0,106.2458,50.47745,44.18023,34.61944,20.64712,30.14053,41.53987,7058.944,No Data,OFF,FR-WH,TRANSFER,No Data,ON,OFF,OFF,OFF,OFF,OFF,OFF,OFF,OFF,17007,No Data,TRANSFER,7.647187,25,   1:46:56.250,50,40,40,47,OFF,Auto,CLOSED,CLOSED,OPEN,CLOSED,CLOSED,CLOSED,CLOSED,CLOSED,OPEN,OPEN,CLOSED,CLOSED,CLOSED,CLOSED,CLOSED,OFF,OFF,OFF,CLOSED,CLOSED,CLOSED,CLOSED,13007,0,840,840
7/18/2019 5:45,0.0317421,499.3806,502.5602,7516.481,1.947315,-10,-0.1763633,0,107.7542,50.47728,44.18105,34.61377,20.66399,30.07299,41.53987,7562.391,No Data,OFF,FR-WH,TRANSFER,No Data,ON,OFF,OFF,OFF,OFF,OFF,OFF,OFF,OFF,17007,No Data,TRANSFER,7.647187,25,   1:47:58.500,50,40,40,47,OFF,Auto,CLOSED,CLOSED,OPEN,CLOSED,CLOSED,CLOSED,CLOSED,CLOSED,OPEN,CLOSED,CLOSED,CLOSED,CLOSED,CLOSED,CLOSED,OFF,OFF,OFF,CLOSED,CLOSED,CLOSED,CLOSED,13007,0,900,900
7/18/2019 5:46,0.0317421,499.3807,1.083649,7535.561,1.941385,-10,-0.1884454,0,107.7542,50.47711,44.18187,34.60811,20.68086,30.03878,41.53987,7555.881,No Data,OFF,FR-WH,TRANSFER,No Data,ON,OFF,OFF,OFF,OFF,OFF,OFF,OFF,OFF,17007,No Data,TRANSFER,7.647187,25,   1:48:57.750,50,40,40,47,OFF,Auto,CLOSED,CLOSED,OPEN,CLOSED,CLOSED,CLOSED,CLOSED,CLOSED,OPEN,CLOSED,CLOSED,CLOSED,CLOSED,CLOSED,CLOSED,OFF,OFF,OFF,CLOSED,CLOSED,CLOSED,CLOSED,13007,0,960,960
7/18/2019 5:47,0.0317421,499.3808,1.08355,7535.561,1.935454,-10,-0.2005275,0,109.2917,50.47694,44.18269,34.60244,20.69773,30.00456,41.53987,7549.371,No Data,OFF,FR-WH,TRANSFER,No Data,ON,OFF,OFF,OFF,OFF,OFF,OFF,OFF,OFF,17007,No Data,TRANSFER,7.647187,25,   1:49:53.500,50,40,40,47,OFF,Auto,CLOSED,CLOSED,OPEN,CLOSED,CLOSED,CLOSED,CLOSED,CLOSED,OPEN,CLOSED,CLOSED,CLOSED,CLOSED,CLOSED,CLOSED,OFF,OFF,OFF,CLOSED,CLOSED,CLOSED,CLOSED,13007,0,1020,1020
7/18/2019 5:48,0.0317421,499.3809,1.083452,7535.561,1.929525,-10,-0.2126096,0,110.7917,50.47678,44.1835,34.59678,20.7146,29.90245,41.53987,7542.861,No Data,OFF,FR-WH,TRANSFER,No Data,ON,OFF,OFF,OFF,OFF,OFF,OFF,OFF,OFF,17007,No Data,TRANSFER,7.647187,25,   1:50:56.750,50,40,40,47,OFF,Auto,CLOSED,CLOSED,OPEN,CLOSED,CLOSED,CLOSED,CLOSED,CLOSED,OPEN,CLOSED,CLOSED,CLOSED,CLOSED,CLOSED,CLOSED,OFF,OFF,OFF,CLOSED,CLOSED,CLOSED,CLOSED,13007,0,1080,1080
7/18/2019 5:49,0.0317421,499.381,1.083354,7535.561,1.923594,-10,-0.2668275,0,110.7917,50.47609,44.18432,34.59111,20.73147,29.91155,41.53987,7536.351,No Data,ON,FR-WH,TRANSFER,No Data,ON,OFF,OFF,OFF,OFF,OFF,OFF,OFF,OFF,17007,No Data,TRANSFER,7.647187,25,   1:51:57.750,50,40,40,47,OFF,Auto,CLOSED,CLOSED,OPEN,CLOSED,CLOSED,CLOSED,OPEN,CLOSED,CLOSED,CLOSED,CLOSED,CLOSED,CLOSED,CLOSED,CLOSED,OFF,OFF,ON,CLOSED,CLOSED,CLOSED,CLOSED,13007,0,1140,1140
7/18/2019 5:50,0.0317421,499.381,1.083256,7535.561,1.917665,-10,-1.542985,0,112.7667,50.47409,44.18514,34.58545,20.74834,30.00708,41.53987,7529.841,No Data,ON,FR-WH,TRANSFER,No Data,ON,OFF,OFF,OFF,OFF,OFF,OFF,OFF,OFF,17007,No Data,TRANSFER,7.647187,25,   1:52:55.000,50,40,40,47,OFF,Auto,CLOSED,CLOSED,OPEN,CLOSED,CLOSED,CLOSED,OPEN,CLOSED,CLOSED,CLOSED,CLOSED,CLOSED,CLOSED,CLOSED,CLOSED,OFF,OFF,ON,CLOSED,CLOSED,CLOSED,CLOSED,13007,0,1200,1200
7/18/2019 5:51,0.0317421,499.3811,1.083158,7535.561,1.911734,-10,-2.394535,0,112.7667,50.47209,44.18596,34.59172,20.76521,30.11043,41.53987,7523.331,No Data,ON,FR-WH,TRANSFER,No Data,ON,OFF,OFF,OFF,OFF,OFF,OFF,OFF,OFF,17007,No Data,TRANSFER,7.647187,25,   1:53:57.000,50,40,40,47,OFF,Auto,CLOSED,CLOSED,OPEN,CLOSED,CLOSED,CLOSED,OPEN,CLOSED,CLOSED,CLOSED,CLOSED,CLOSED,CLOSED,CLOSED,CLOSED,OFF,OFF,ON,CLOSED,CLOSED,CLOSED,CLOSED,13007,0,1260,1260
7/18/2019 5:52,0.0317421,499.3812,1.08306,7535.561,1.905804,-10,-3.150766,0,114.2667,50.47009,44.18677,34.60068,20.78207,30.18743,41.53987,7516.821,No Data,ON,FR-WH,TRANSFER,No Data,ON,OFF,OFF,OFF,OFF,OFF,OFF,OFF,OFF,17007,No Data,TRANSFER,7.647187,25,   1:54:59.500,50,40,40,47,OFF,Auto,CLOSED,CLOSED,OPEN,CLOSED,CLOSED,CLOSED,OPEN,CLOSED,CLOSED,CLOSED,CLOSED,CLOSED,CLOSED,CLOSED,CLOSED,OFF,OFF,ON,CLOSED,CLOSED,CLOSED,CLOSED,13007,0,1320,1320
7/18/2019 5:53,0.0317421,499.3813,1.082961,7535.561,1.899874,-10,-3.906996,0,115.7917,50.46809,44.18759,34.60963,20.79894,30.26442,41.53987,7510.311,No Data,ON,FR-WH,TRANSFER,No Data,ON,OFF,OFF,OFF,OFF,OFF,OFF,OFF,OFF,17007,No Data,TRANSFER,7.647187,25,   1:55:57.500,50,40,40,47,OFF,Auto,CLOSED,CLOSED,OPEN,CLOSED,CLOSED,CLOSED,OPEN,CLOSED,CLOSED,CLOSED,CLOSED,CLOSED,CLOSED,CLOSED,CLOSED,OFF,OFF,ON,CLOSED,CLOSED,CLOSED,CLOSED,13007,0,1380,1380
7/18/2019 5:54,0.0317421,499.3814,1.082863,7535.561,1.893944,-10,-4.663227,0,115.7917,50.46609,44.18841,34.61858,20.81581,30.34141,41.53987,7503.801,No Data,ON,FR-WH,TRANSFER,No Data,ON,OFF,OFF,OFF,OFF,OFF,OFF,OFF,OFF,17007,No Data,TRANSFER,7.647187,25,   1:56:58.750,50,40,40,47,OFF,Auto,CLOSED,CLOSED,OPEN,CLOSED,CLOSED,CLOSED,OPEN,CLOSED,CLOSED,CLOSED,CLOSED,CLOSED,CLOSED,CLOSED,CLOSED,OFF,OFF,ON,CLOSED,CLOSED,CLOSED,CLOSED,13007,0,1440,1440
7/18/2019 5:55,0.0317421,499.3815,1.082765,7535.561,1.888014,-10,-5.419457,0,117.2833,50.46409,44.18922,34.62753,20.83268,30.44155,41.53987,7497.291,No Data,ON,FR-WH,TRANSFER,No Data,ON,OFF,OFF,OFF,OFF,OFF,OFF,OFF,OFF,17007,No Data,TRANSFER,7.647187,25,   1:57:56.500,50,40,40,47,OFF,Auto,CLOSED,CLOSED,OPEN,CLOSED,CLOSED,CLOSED,OPEN,CLOSED,CLOSED,CLOSED,CLOSED,CLOSED,CLOSED,CLOSED,CLOSED,OFF,OFF,ON,CLOSED,CLOSED,CLOSED,CLOSED,13007,0,1500,1500
7/18/2019 5:56,0.0317421,499.3816,1.082667,7535.561,1.882084,-10,-6.175688,0,118.7958,50.46209,44.19004,34.63649,20.84955,30.51966,41.53987,7490.781,No Data,ON,FR-WH,TRANSFER,No Data,ON,OFF,OFF,OFF,OFF,OFF,OFF,OFF,OFF,17007,No Data,TRANSFER,7.647187,25,   1:58:54.250,50,40,40,47,OFF,Auto,CLOSED,CLOSED,OPEN,CLOSED,CLOSED,CLOSED,OPEN,CLOSED,CLOSED,CLOSED,CLOSED,CLOSED,CLOSED,CLOSED,CLOSED,OFF,OFF,ON,CLOSED,CLOSED,CLOSED,CLOSED,13007,0,1560,1560
7/18/2019 5:57,0.0317421,499.3817,1.082569,7535.561,1.876154,-10,-6.797567,0,118.7958,50.46009,44.19086,34.64544,20.86642,30.55531,41.53987,7484.271,No Data,ON,FR-WH,TRANSFER,No Data,ON,OFF,OFF,OFF,OFF,OFF,OFF,OFF,OFF,17007,No Data,TRANSFER,7.647187,25,   1:59:57.750,50,40,40,47,OFF,Auto,CLOSED,CLOSED,OPEN,CLOSED,CLOSED,CLOSED,OPEN,CLOSED,CLOSED,CLOSED,CLOSED,CLOSED,CLOSED,CLOSED,CLOSED,OFF,OFF,ON,CLOSED,CLOSED,CLOSED,CLOSED,13007,0,1620,1620
7/18/2019 5:58,0.0317421,499.3818,1.082471,7535.561,1.870224,-10,-7.347103,0,120.3042,50.45809,44.19168,34.65439,20.88329,30.59095,41.53987,7477.761,No Data,ON,FR-WH,TRANSFER,No Data,ON,OFF,OFF,OFF,OFF,OFF,OFF,OFF,OFF,17007,No Data,TRANSFER,7.647187,25,   2:00:57.250,50,40,40,47,OFF,Auto,CLOSED,CLOSED,OPEN,CLOSED,CLOSED,CLOSED,OPEN,CLOSED,CLOSED,CLOSED,CLOSED,CLOSED,CLOSED,CLOSED,CLOSED,OFF,OFF,ON,CLOSED,CLOSED,CLOSED,CLOSED,13007,0,1680,1680
7/18/2019 5:59,0.0317421,499.3819,1.082372,7535.561,1.864294,-10,-7.896638,0,121.8083,50.45609,44.19249,34.66335,20.90016,30.62659,41.53987,7471.251,No Data,ON,FR-WH,TRANSFER,No Data,ON,OFF,OFF,OFF,OFF,OFF,OFF,OFF,OFF,17007,No Data,TRANSFER,7.647187,25,   2:01:59.500,50,40,40,47,OFF,Auto,CLOSED,CLOSED,OPEN,CLOSED,CLOSED,CLOSED,OPEN,CLOSED,CLOSED,CLOSED,CLOSED,CLOSED,CLOSED,CLOSED,CLOSED,OFF,OFF,ON,CLOSED,CLOSED,CLOSED,CLOSED,13007,0,1740,1740
7/18/2019 6:00,0.0317421,499.382,1.082274,7535.561,1.858364,-10,-8.446174,0,121.8083,50.45409,44.19331,34.6723,20.91703,30.66224,41.53987,7464.741,No Data,ON,FR-WH,TRANSFER,No Data,ON,OFF,OFF,OFF,OFF,OFF,OFF,OFF,OFF,17007,No Data,TRANSFER,7.647187,25,   2:02:56.250,50,40,40,47,OFF,Auto,CLOSED,CLOSED,OPEN,CLOSED,CLOSED,CLOSED,OPEN,CLOSED,CLOSED,CLOSED,CLOSED,CLOSED,CLOSED,CLOSED,CLOSED,OFF,OFF,ON,CLOSED,CLOSED,CLOSED,CLOSED,13007,0,1800,1800
7/18/2019 6:01,0.0317421,499.382,1.082176,7535.561,1.852434,-10,-8.995709,0,123.3,50.4521,44.19413,34.66182,20.9339,30.69788,41.53987,7458.231,No Data,ON,FR-WH,TRANSFER,No Data,ON,OFF,OFF,OFF,OFF,OFF,OFF,OFF,OFF,17007,No Data,TRANSFER,7.647187,25,   2:03:58.750,50,40,40,47,OFF,Auto,CLOSED,CLOSED,OPEN,CLOSED,CLOSED,CLOSED,OPEN,CLOSED,CLOSED,CLOSED,CLOSED,CLOSED,CLOSED,CLOSED,CLOSED,OFF,OFF,ON,CLOSED,CLOSED,CLOSED,CLOSED,13007,0,1860,1860
7/18/2019 6:02,0.0317421,499.3821,1.082078,7535.561,1.846504,-10,-9.545245,0,124.775,50.4501,44.19495,34.6465,20.95077,30.73352,41.53987,7451.721,No Data,ON,FR-WH,TRANSFER,No Data,ON,OFF,OFF,OFF,OFF,OFF,OFF,OFF,OFF,17007,No Data,TRANSFER,7.647187,25,   2:04:57.750,50,40,40,47,OFF,Auto,CLOSED,CLOSED,OPEN,CLOSED,CLOSED,CLOSED,OPEN,CLOSED,CLOSED,CLOSED,CLOSED,CLOSED,CLOSED,CLOSED,CLOSED,OFF,OFF,ON,CLOSED,CLOSED,CLOSED,CLOSED,13007,0,1920,1920
7/18/2019 6:03,0.0317421,499.3822,1.08198,7535.561,1.840574,-10,-9.876674,0,124.775,50.44809,44.19576,34.63116,20.96764,30.76343,41.53987,7445.211,No Data,ON,FR-WH,TRANSFER,No Data,ON,OFF,OFF,OFF,OFF,OFF,OFF,OFF,OFF,17007,No Data,TRANSFER,7.647187,25,   2:05:57.250,50,40,40,47,OFF,Auto,CLOSED,CLOSED,OPEN,CLOSED,CLOSED,CLOSED,OPEN,CLOSED,CLOSED,CLOSED,CLOSED,CLOSED,CLOSED,CLOSED,CLOSED,OFF,OFF,ON,CLOSED,CLOSED,CLOSED,CLOSED,13007,0,1980,1980
7/18/2019 6:04,0.0317421,499.3823,1.081882,7535.561,1.834644,-10,-10.12879,0,126.2958,50.44609,44.19658,34.61584,20.98451,30.78796,41.53987,7438.701,No Data,ON,FR-WH,TRANSFER,No Data,ON,OFF,OFF,OFF,OFF,OFF,OFF,OFF,OFF,17007,No Data,TRANSFER,7.647187,25,   2:06:58.750,50,40,40,47,OFF,Auto,CLOSED,CLOSED,OPEN,CLOSED,CLOSED,CLOSED,OPEN,CLOSED,CLOSED,CLOSED,CLOSED,CLOSED,CLOSED,CLOSED,OPEN,OFF,OFF,ON,OPEN,CLOSED,CLOSED,CLOSED,13007,0,2040,2040
7/18/2019 6:05,0.0317421,499.3824,1.081783,7535.561,1.828714,-10,-10.38091,0,127.7458,50.4441,44.1974,34.60051,21.00138,30.8125,41.53987,7383.167,No Data,ON,FR-WH,TRANSFER,No Data,ON,OFF,OFF,OFF,OFF,OFF,OFF,OFF,OFF,17007,No Data,TRANSFER,7.647187,25,   2:07:55.250,50,40,40,47,OFF,Auto,CLOSED,CLOSED,OPEN,CLOSED,CLOSED,CLOSED,OPEN,CLOSED,CLOSED,CLOSED,CLOSED,CLOSED,CLOSED,CLOSED,OPEN,OFF,OFF,ON,OPEN,CLOSED,CLOSED,CLOSED,13007,0,2100,2100
7/18/2019 6:06,0.0317421,499.3825,1.081685,7535.561,1.822784,-10,-10.63302,0,127.7458,50.4421,44.19822,34.58518,21.01825,30.83703,41.53987,7384.876,No Data,ON,FR-WH,TRANSFER,No Data,ON,OFF,OFF,OFF,OFF,OFF,ON,OFF,OFF,17007,No Data,TRANSFER,7.647187,25,   2:08:52.750,50,40,40,47,OFF,Auto,CLOSED,CLOSED,OPEN,CLOSED,CLOSED,CLOSED,OPEN,CLOSED,CLOSED,CLOSED,CLOSED,CLOSED,CLOSED,CLOSED,OPEN,OFF,OFF,ON,OPEN,CLOSED,CLOSED,CLOSED,13007,0,2160,2160
7/18/2019 6:07,0.0317421,499.3826,1.081587,7535.561,1.816854,-10,-10.88514,0,129.2917,50.4401,44.19903,34.62626,21.03511,30.87937,41.53987,7386.586,No Data,ON,FR-WH,TRANSFER,No Data,ON,OFF,OFF,OFF,OFF,OFF,ON,OFF,OFF,17007,No Data,TRANSFER,7.647187,25,   2:09:57.250,50,40,40,47,OFF,Auto,CLOSED,CLOSED,OPEN,CLOSED,CLOSED,CLOSED,OPEN,CLOSED,CLOSED,CLOSED,CLOSED,CLOSED,CLOSED,CLOSED,OPEN,OFF,OFF,ON,OPEN,CLOSED,CLOSED,CLOSED,13007,0,2220,2220
7/18/2019 6:08,0.0317421,499.3827,1.081489,7535.561,1.810924,-10,-11.13726,0,130.7833,50.4381,44.19985,34.67031,21.05198,30.91605,41.53987,7388.295,No Data,ON,FR-WH,TRANSFER,No Data,ON,OFF,OFF,OFF,OFF,OFF,ON,OFF,OFF,17007,No Data,TRANSFER,7.647187,25,   2:10:57.000,50,40,40,47,OFF,Auto,CLOSED,CLOSED,OPEN,CLOSED,CLOSED,CLOSED,OPEN,CLOSED,CLOSED,CLOSED,CLOSED,CLOSED,CLOSED,CLOSED,OPEN,OFF,OFF,ON,OPEN,CLOSED,CLOSED,CLOSED,13007,0,2280,2280
7/18/2019 6:09,0.0317421,499.3828,1.081391,7535.561,1.804994,-10,-11.38937,0,130.7833,50.4361,44.20067,34.67086,21.06885,30.915,41.53987,7408.552,No Data,ON,FR-WH,TRANSFER,No Data,ON,OFF,OFF,OFF,OFF,OFF,ON,OFF,OFF,17007,No Data,TRANSFER,7.647187,25,   2:11:57.000,50,40,40,47,OFF,Auto,CLOSED,CLOSED,OPEN,CLOSED,CLOSED,CLOSED,OPEN,CLOSED,CLOSED,CLOSED,CLOSED,CLOSED,CLOSED,CLOSED,OPEN,OFF,OFF,ON,OPEN,CLOSED,CLOSED,CLOSED,13007,0,2340,2340
7/18/2019 6:10,0.0317421,499.3828,1.081293,7535.561,1.799064,-10,-11.64149,0,132.2708,50.4341,44.20148,34.65275,21.08572,30.91395,41.53987,7439.546,No Data,ON,FR-WH,TRANSFER,No Data,ON,OFF,OFF,OFF,OFF,OFF,ON,OFF,OFF,17007,No Data,TRANSFER,7.647187,25,   2:12:56.250,50,40,40,47,OFF,Auto,CLOSED,CLOSED,OPEN,CLOSED,CLOSED,CLOSED,OPEN,CLOSED,CLOSED,CLOSED,CLOSED,CLOSED,CLOSED,CLOSED,OPEN,OFF,OFF,ON,OPEN,CLOSED,CLOSED,CLOSED,13007,0,2400,2400
7/18/2019 6:11,0.0317421,499.3829,1.081194,7535.561,1.793134,-10,-11.85762,0,132.2708,50.4321,44.2023,34.63464,21.10259,30.91289,41.53987,7470.54,No Data,ON,FR-WH,TRANSFER,No Data,ON,OFF,OFF,OFF,OFF,OFF,ON,OFF,OFF,17007,No Data,TRANSFER,7.647187,25,   2:13:58.000,50,40,40,47,OFF,Auto,CLOSED,CLOSED,OPEN,CLOSED,CLOSED,CLOSED,OPEN,CLOSED,CLOSED,CLOSED,CLOSED,CLOSED,CLOSED,CLOSED,OPEN,OFF,OFF,ON,OPEN,CLOSED,CLOSED,CLOSED,13007,0,2460,2460
7/18/2019 6:12,0.0317421,499.383,1.081096,7535.561,1.787204,-10,-11.86985,0,134.2792,50.4301,44.20312,34.61654,21.11946,30.91184,41.53987,7501.534,No Data,ON,FR-WH,TRANSFER,No Data,ON,OFF,OFF,OFF,OFF,OFF,ON,OFF,OFF,17007,No Data,TRANSFER,7.647187,25,   2:14:59.500,50,40,40,47,OFF,Auto,CLOSED,CLOSED,OPEN,CLOSED,CLOSED,CLOSED,OPEN,CLOSED,CLOSED,CLOSED,CLOSED,CLOSED,CLOSED,CLOSED,OPEN,OFF,OFF,ON,OPEN,CLOSED,CLOSED,CLOSED,13007,0,2520,2520
7/18/2019 6:13,0.0317421,499.3831,1.080998,7535.561,1.781274,-10,-11.88209,0,135.7917,50.4281,44.20394,34.59843,21.13633,30.87258,41.53987,7532.528,No Data,ON,FR-WH,TRANSFER,No Data,ON,OFF,OFF,OFF,OFF,OFF,ON,OFF,OFF,17007,No Data,TRANSFER,7.647187,25,   2:15:58.250,50,40,40,47,OFF,Auto,CLOSED,CLOSED,OPEN,CLOSED,CLOSED,CLOSED,OPEN,CLOSED,CLOSED,CLOSED,CLOSED,CLOSED,CLOSED,CLOSED,OPEN,OFF,OFF,ON,OPEN,CLOSED,CLOSED,CLOSED,13007,0,2580,2580
7/18/2019 6:14,0.0317421,499.3832,1.0809,7535.561,1.775344,-10,-11.89432,0,135.7917,50.4261,44.20475,34.58033,21.1532,30.81547,41.53987,7657.211,No Data,ON,FR-WH,TRANSFER,No Data,ON,OFF,OFF,OFF,OFF,OFF,ON,OFF,OFF,17007,No Data,TRANSFER,7.647187,25,   2:16:59.000,50,40,40,47,OFF,Auto,CLOSED,CLOSED,OPEN,CLOSED,CLOSED,CLOSED,OPEN,CLOSED,CLOSED,CLOSED,CLOSED,CLOSED,CLOSED,CLOSED,OPEN,OFF,OFF,ON,OPEN,CLOSED,CLOSED,CLOSED,13007,0,2640,2640
7/18/2019 6:15,0.0317421,499.3833,1.080802,7535.561,1.769414,-10,-11.90655,0,137.775,50.4241,44.20557,34.56222,21.17007,30.78004,41.53987,7977.584,No Data,ON,FR-WH,TRANSFER,No Data,ON,OFF,OFF,OFF,OFF,OFF,ON,OFF,OFF,17007,No Data,TRANSFER,7.647187,25,   2:17:55.000,50,40,40,47,OFF,Auto,CLOSED,CLOSED,OPEN,CLOSED,CLOSED,CLOSED,OPEN,CLOSED,CLOSED,CLOSED,CLOSED,CLOSED,CLOSED,CLOSED,OPEN,OFF,OFF,ON,OPEN,CLOSED,CLOSED,CLOSED,13007,0,2700,2700
7/18/2019 6:16,0.0317421,499.3834,1.080704,7535.561,1.763484,-10,-11.91878,0,137.775,50.4221,44.20639,34.54411,21.18694,30.74461,41.53987,8292.352,No Data,ON,FR-WH,TRANSFER,No Data,ON,OFF,OFF,OFF,OFF,OFF,ON,OFF,OFF,17007,No Data,TRANSFER,7.647187,25,   2:18:58.500,50,40,40,47,OFF,Auto,CLOSED,CLOSED,OPEN,CLOSED,CLOSED,CLOSED,OPEN,CLOSED,CLOSED,CLOSED,CLOSED,CLOSED,CLOSED,CLOSED,OPEN,OFF,OFF,ON,OPEN,CLOSED,CLOSED,CLOSED,13007,0,2760,2760
7/18/2019 6:17,0.0317421,499.3835,1.080606,7535.561,1.757554,-10,-11.91501,0,139.2917,50.4201,44.20721,34.52601,21.20381,30.70918,41.53987,8358.568,No Data,ON,FR-WH,TRANSFER,No Data,ON,OFF,OFF,OFF,OFF,OFF,ON,OFF,OFF,17007,No Data,TRANSFER,7.647187,25,   2:19:55.000,50,40,40,47,OFF,Auto,CLOSED,CLOSED,OPEN,CLOSED,CLOSED,CLOSED,CLOSED,CLOSED,CLOSED,CLOSED,CLOSED,CLOSED,CLOSED,CLOSED,CLOSED,OFF,OFF,OFF,CLOSED,CLOSED,CLOSED,CLOSED,13007,0,2820,2820
7/18/2019 6:18,0.0317421,499.3835,1.080507,7535.561,1.751624,-10,-11.88726,0,140.8,50.4181,44.20802,34.5079,21.22068,30.67375,41.53987,8356.489,No Data,ON,FR-WH,TRANSFER,No Data,ON,OFF,OFF,OFF,OFF,OFF,OFF,OFF,OFF,17007,No Data,TRANSFER,7.647187,25,   2:20:59.000,50,40,40,47,OFF,Auto,CLOSED,CLOSED,OPEN,CLOSED,CLOSED,CLOSED,CLOSED,CLOSED,CLOSED,CLOSED,CLOSED,CLOSED,CLOSED,CLOSED,CLOSED,OFF,OFF,OFF,CLOSED,CLOSED,CLOSED,CLOSED,13007,0,2880,2880
7/18/2019 6:19,0.0317421,499.3836,1.080409,7535.561,1.745694,-10,-11.8595,0,140.8,50.4161,44.20884,34.49493,21.23755,30.65333,41.53987,8354.41,No Data,ON,FR-WH,TRANSFER,No Data,ON,OFF,OFF,OFF,OFF,OFF,OFF,OFF,OFF,17007,No Data,TRANSFER,7.647187,25,   2:21:57.250,50,40,40,47,OFF,Auto,CLOSED,CLOSED,OPEN,CLOSED,CLOSED,CLOSED,CLOSED,CLOSED,CLOSED,CLOSED,CLOSED,CLOSED,CLOSED,CLOSED,CLOSED,OFF,OFF,OFF,CLOSED,CLOSED,CLOSED,CLOSED,13007,0,2940,2940
7/18/2019 6:20,0.0317421,499.3837,1.080311,7535.561,1.739764,-10,-11.83174,0,142.2458,50.4141,44.20966,34.48645,21.25442,30.66295,41.53987,8352.331,No Data,ON,FR-WH,TRANSFER,No Data,ON,OFF,OFF,OFF,OFF,OFF,OFF,OFF,OFF,17007,No Data,TRANSFER,7.647187,25,   2:22:55.000,50,40,40,47,OFF,Auto,CLOSED,CLOSED,OPEN,CLOSED,CLOSED,CLOSED,CLOSED,CLOSED,CLOSED,CLOSED,CLOSED,CLOSED,CLOSED,CLOSED,CLOSED,OFF,OFF,OFF,CLOSED,CLOSED,CLOSED,CLOSED,13007,0,3000,3000
7/18/2019 6:21,0.0317421,499.3838,1.080213,7535.561,1.733834,-10,-11.80399,0,143.8083,50.41211,44.21048,34.47797,21.27129,30.67257,41.53987,8350.252,No Data,ON,FR-WH,TRANSFER,No Data,ON,OFF,OFF,OFF,OFF,OFF,OFF,OFF,OFF,17007,No Data,TRANSFER,7.647187,25,   2:23:59.000,50,40,40,47,OFF,Auto,CLOSED,CLOSED,OPEN,CLOSED,CLOSED,CLOSED,CLOSED,CLOSED,CLOSED,CLOSED,CLOSED,CLOSED,CLOSED,CLOSED,CLOSED,OFF,OFF,OFF,CLOSED,CLOSED,CLOSED,CLOSED,13007,0,3060,3060
7/18/2019 6:22,0.0317421,499.3839,1.080115,7535.561,1.727904,-10,-11.77623,0,143.8083,50.4101,44.21129,34.46948,21.28815,30.68219,41.53987,8348.172,No Data,ON,FR-WH,TRANSFER,No Data,ON,OFF,OFF,OFF,OFF,OFF,OFF,OFF,OFF,17007,No Data,TRANSFER,7.647187,25,   2:24:58.000,50,40,40,47,OFF,Auto,CLOSED,CLOSED,OPEN,CLOSED,CLOSED,CLOSED,CLOSED,CLOSED,CLOSED,CLOSED,CLOSED,CLOSED,CLOSED,CLOSED,CLOSED,OFF,OFF,OFF,CLOSED,CLOSED,CLOSED,CLOSED,13007,0,3120,3120
7/18/2019 6:23,0.0317421,499.384,1.080016,7535.561,1.721974,-10,-11.74847,0,145.2625,50.4081,44.21211,34.461,21.30503,30.69181,41.53987,8346.093,No Data,ON,FR-WH,TRANSFER,No Data,ON,OFF,OFF,OFF,OFF,OFF,OFF,OFF,OFF,17007,No Data,TRANSFER,7.647187,25,   2:25:57.750,50,40,40,47,OFF,Auto,CLOSED,CLOSED,OPEN,CLOSED,CLOSED,CLOSED,CLOSED,CLOSED,CLOSED,CLOSED,CLOSED,CLOSED,CLOSED,CLOSED,CLOSED,OFF,OFF,OFF,CLOSED,CLOSED,CLOSED,CLOSED,13007,0,3180,3180
7/18/2019 6:24,0.0317421,499.3841,1.079918,7535.561,1.716044,-10,-11.72071,0,146.7792,50.40611,44.21293,34.45252,21.32189,30.70143,41.53987,8344.014,No Data,ON,FR-WH,TRANSFER,No Data,ON,OFF,OFF,OFF,OFF,OFF,OFF,OFF,OFF,17007,No Data,TRANSFER,7.647187,25,   2:26:50.500,50,40,40,47,OFF,Auto,CLOSED,CLOSED,OPEN,CLOSED,CLOSED,CLOSED,CLOSED,CLOSED,CLOSED,CLOSED,CLOSED,CLOSED,CLOSED,CLOSED,CLOSED,OFF,OFF,OFF,CLOSED,CLOSED,CLOSED,CLOSED,13007,0,3240,3240
7/18/2019 6:25,0.0317421,499.3842,1.07982,7535.561,1.710114,-10,-11.69296,0,146.7792,50.40411,44.21375,34.44404,21.33876,30.71105,41.53987,8341.935,No Data,ON,FR-WH,TRANSFER,No Data,ON,OFF,OFF,OFF,OFF,OFF,OFF,OFF,OFF,17007,No Data,TRANSFER,7.647187,25,   2:27:58.750,50,40,40,47,OFF,Auto,CLOSED,CLOSED,OPEN,CLOSED,CLOSED,CLOSED,CLOSED,CLOSED,CLOSED,CLOSED,CLOSED,CLOSED,CLOSED,CLOSED,CLOSED,OFF,OFF,OFF,CLOSED,CLOSED,CLOSED,CLOSED,13007,0,3300,3300
7/18/2019 6:26,0.0317421,499.3843,1.079722,7535.561,1.704184,-10,-11.6652,0,148.3,50.40211,44.21456,34.43556,21.35563,30.72067,41.53987,8339.855,No Data,ON,FR-WH,TRANSFER,No Data,ON,OFF,OFF,OFF,OFF,OFF,OFF,OFF,OFF,17007,No Data,TRANSFER,7.647187,25,   2:28:59.500,50,40,40,47,OFF,Auto,CLOSED,CLOSED,OPEN,CLOSED,CLOSED,CLOSED,CLOSED,CLOSED,CLOSED,CLOSED,CLOSED,CLOSED,CLOSED,CLOSED,CLOSED,OFF,OFF,OFF,CLOSED,CLOSED,CLOSED,CLOSED,13007,0,3360,3360
7/18/2019 6:27,0.0317421,499.3844,1.079624,7535.561,1.698254,-10,-11.63744,0,148.3,50.40011,44.21538,34.42708,21.3725,30.73029,41.53987,8337.776,No Data,ON,FR-WH,TRANSFER,No Data,ON,OFF,OFF,OFF,OFF,OFF,OFF,OFF,OFF,17007,No Data,TRANSFER,7.647187,25,   2:29:55.500,50,40,40,47,OFF,Auto,CLOSED,CLOSED,OPEN,CLOSED,CLOSED,CLOSED,CLOSED,CLOSED,CLOSED,CLOSED,CLOSED,CLOSED,CLOSED,CLOSED,CLOSED,OFF,OFF,OFF,CLOSED,CLOSED,CLOSED,CLOSED,13007,0,3420,3420
7/18/2019 6:28,0.0317421,499.3844,1.079526,7535.561,1.692324,-10,-11.60968,0,150.2958,50.39811,44.2162,34.4186,21.38937,30.73991,41.53987,8335.696,No Data,ON,FR-WH,TRANSFER,No Data,ON,OFF,OFF,OFF,OFF,OFF,OFF,OFF,OFF,17007,No Data,TRANSFER,7.647187,25,   2:30:55.750,50,40,40,47,OFF,Auto,CLOSED,CLOSED,OPEN,CLOSED,CLOSED,CLOSED,CLOSED,CLOSED,CLOSED,CLOSED,CLOSED,CLOSED,CLOSED,CLOSED,CLOSED,OFF,OFF,OFF,CLOSED,CLOSED,CLOSED,CLOSED,13007,0,3480,3480
7/18/2019 6:29,0.0317421,499.3845,1.079427,7535.561,1.686394,-10,-11.58193,0,151.7458,57.93888,44.21701,34.41011,21.40624,30.74953,41.53987,8333.617,No Data,ON,FR-WH,TRANSFER,No Data,ON,OFF,OFF,OFF,OFF,OFF,OFF,OFF,OFF,17007,No Data,TRANSFER,7.647187,25,   2:31:59.000,50,40,40,47,OFF,Auto,CLOSED,CLOSED,OPEN,CLOSED,CLOSED,CLOSED,CLOSED,CLOSED,CLOSED,CLOSED,CLOSED,CLOSED,CLOSED,CLOSED,CLOSED,OFF,OFF,OFF,CLOSED,CLOSED,CLOSED,CLOSED,13007,0,3540,3540
7/18/2019 6:30,0.0317421,499.3846,1.079329,7535.561,1.680464,-10,-11.55417,0,151.7458,100.1688,44.21783,34.40163,21.42311,30.75914,41.53987,8331.538,No Data,ON,FR-WH,TRANSFER,No Data,ON,OFF,OFF,OFF,OFF,OFF,OFF,OFF,OFF,17007,No Data,TRANSFER,7.647187,25,   2:32:58.250,50,40,40,47,OFF,Auto,CLOSED,CLOSED,OPEN,CLOSED,CLOSED,CLOSED,OPEN,CLOSED,CLOSED,CLOSED,CLOSED,CLOSED,CLOSED,CLOSED,OPEN,OFF,OFF,ON,OPEN,CLOSED,CLOSED,CLOSED,13007,0,3600,3600
7/18/2019 6:31,0.0317421,499.3847,1.079231,7535.561,1.674534,-10,-11.57321,0,153.275,100.6266,44.21865,34.39315,21.43998,30.79424,41.53987,8962.43,No Data,ON,FR-WH,TRANSFER,No Data,ON,OFF,OFF,OFF,OFF,OFF,OFF,OFF,OFF,17007,No Data,TRANSFER,7.647187,25,   2:33:56.250,50,40,40,47,OFF,Auto,CLOSED,CLOSED,OPEN,CLOSED,CLOSED,CLOSED,OPEN,CLOSED,CLOSED,CLOSED,CLOSED,CLOSED,CLOSED,CLOSED,OPEN,OFF,OFF,ON,OPEN,CLOSED,CLOSED,CLOSED,13007,0,3660,3660
7/18/2019 6:32,0.0317421,499.3848,1.079133,7535.561,1.668604,-10,-11.67309,0,154.8042,100.6261,44.21947,34.38467,21.45685,30.91879,41.53987,9984.565,No Data,ON,FR-WH,TRANSFER,No Data,ON,ON,OFF,OFF,OFF,OFF,OFF,OFF,OFF,17007,No Data,TRANSFER,7.647187,25,   2:34:50.750,50,40,40,47,OFF,Auto,CLOSED,CLOSED,OPEN,CLOSED,CLOSED,CLOSED,OPEN,CLOSED,CLOSED,CLOSED,CLOSED,CLOSED,CLOSED,CLOSED,OPEN,OFF,OFF,ON,OPEN,CLOSED,CLOSED,CLOSED,13007,0,3720,3720
7/18/2019 6:33,0.0317421,499.3849,1.079035,7535.561,1.662674,-10,-11.77297,0,154.8042,100.6256,44.22028,34.37619,21.47372,30.87895,41.53987,11029.61,No Data,ON,FR-WH,TRANSFER,No Data,ON,ON,OFF,OFF,OFF,OFF,OFF,OFF,OFF,17007,No Data,TRANSFER,7.647187,25,   2:35:59.250,50,40,40,47,OFF,Auto,CLOSED,CLOSED,OPEN,CLOSED,CLOSED,CLOSED,OPEN,CLOSED,CLOSED,CLOSED,CLOSED,CLOSED,CLOSED,CLOSED,OPEN,OFF,OFF,ON,OPEN,CLOSED,CLOSED,CLOSED,13007,0,3780,3780
7/18/2019 6:34,0.0317421,499.385,1.078937,7535.561,1.656744,-10,-11.87284,0,156.2583,100.6251,44.2211,34.36771,21.49059,30.78027,41.53987,12061.99,No Data,ON,FR-WH,TRANSFER,No Data,ON,ON,OFF,OFF,OFF,OFF,OFF,OFF,OFF,17007,No Data,TRANSFER,7.647187,25,   2:36:56.000,50,40,40,47,OFF,Auto,CLOSED,CLOSED,OPEN,CLOSED,CLOSED,CLOSED,OPEN,CLOSED,CLOSED,CLOSED,CLOSED,CLOSED,CLOSED,CLOSED,OPEN,OFF,OFF,ON,OPEN,CLOSED,CLOSED,CLOSED,13007,0,3840,3840
7/18/2019 6:35,0.0317421,499.3851,1.078838,7535.561,1.650813,-10,-11.97272,0,157.7583,100.6246,44.22192,34.35923,21.50746,30.67994,41.53987,13086.29,No Data,ON,FR-WH,TRANSFER,No Data,ON,ON,OFF,OFF,OFF,OFF,OFF,OFF,OFF,17007,No Data,TRANSFER,7.647187,25,   2:37:57.000,50,40,40,47,OFF,Auto,CLOSED,CLOSED,OPEN,CLOSED,CLOSED,CLOSED,OPEN,CLOSED,CLOSED,CLOSED,CLOSED,CLOSED,CLOSED,CLOSED,OPEN,OFF,OFF,ON,OPEN,CLOSED,CLOSED,CLOSED,13007,0,3900,3900
7/18/2019 6:36,0.0317421,499.3852,1.07874,7535.561,1.644884,-10,-12.0726,0,157.7583,100.6242,44.22274,34.35075,21.52433,30.59201,41.53987,14126.44,No Data,ON,FR-WH,TRANSFER,No Data,ON,ON,OFF,OFF,OFF,OFF,OFF,OFF,OFF,17007,No Data,TRANSFER,7.647187,25,   2:38:54.750,50,40,40,47,OFF,Auto,CLOSED,CLOSED,OPEN,CLOSED,CLOSED,CLOSED,OPEN,CLOSED,CLOSED,CLOSED,CLOSED,CLOSED,CLOSED,CLOSED,OPEN,OFF,OFF,ON,OPEN,CLOSED,CLOSED,CLOSED,13007,0,3960,3960
7/18/2019 6:37,0.0317421,499.3853,1.078642,7535.561,1.638953,-10,-12.17247,0,159.2708,100.6237,44.22355,34.34227,21.5412,30.50407,41.53987,15104.18,No Data,ON,FR-WH,TRANSFER,No Data,ON,ON,OFF,OFF,OFF,OFF,OFF,OFF,OFF,17007,No Data,TRANSFER,7.647187,25,   2:39:59.000,50,40,40,47,OFF,Auto,CLOSED,CLOSED,OPEN,CLOSED,CLOSED,CLOSED,OPEN,CLOSED,CLOSED,CLOSED,CLOSED,CLOSED,CLOSED,CLOSED,OPEN,OFF,OFF,ON,OPEN,CLOSED,CLOSED,CLOSED,13007,0,4020,4020
7/18/2019 6:38,0.0317421,499.3853,1.078544,7535.561,1.633023,-10,-12.27235,0,160.7667,100.6232,44.22437,34.33379,21.55807,30.41054,41.53987,16116.74,No Data,ON,FR-WH,TRANSFER,No Data,ON,ON,OFF,OFF,OFF,OFF,OFF,OFF,OFF,17007,No Data,TRANSFER,7.647187,25,   2:40:57.000,50,40,40,47,OFF,Auto,CLOSED,CLOSED,OPEN,CLOSED,CLOSED,CLOSED,OPEN,CLOSED,CLOSED,CLOSED,CLOSED,CLOSED,CLOSED,CLOSED,OPEN,OFF,OFF,ON,OPEN,CLOSED,CLOSED,CLOSED,13007,0,4080,4080
7/18/2019 6:39,0.0317421,499.3854,1.078446,7535.561,1.627093,-10,-12.37223,0,160.7667,100.6227,44.22519,34.32531,21.57493,30.28833,41.53987,17129.29,No Data,ON,FR-WH,TRANSFER,No Data,ON,ON,OFF,OFF,OFF,OFF,OFF,OFF,OFF,17007,No Data,TRANSFER,7.647187,25,   2:41:54.250,50,40,40,47,OFF,Auto,CLOSED,CLOSED,OPEN,CLOSED,CLOSED,CLOSED,OPEN,CLOSED,CLOSED,CLOSED,CLOSED,CLOSED,CLOSED,CLOSED,OPEN,OFF,OFF,ON,OPEN,CLOSED,CLOSED,CLOSED,13007,0,4140,4140
7/18/2019 6:40,0.0317421,499.3855,1.078348,7535.561,1.621163,-10,-12.47211,0,162.25,100.6222,44.22601,34.31682,21.5918,30.22807,41.53987,18141.84,No Data,ON,FR-WH,TRANSFER,No Data,ON,ON,OFF,OFF,OFF,OFF,OFF,OFF,OFF,17007,No Data,TRANSFER,7.647187,25,   2:42:56.500,50,40,40,47,OFF,Auto,CLOSED,CLOSED,OPEN,CLOSED,CLOSED,CLOSED,OPEN,CLOSED,CLOSED,CLOSED,CLOSED,CLOSED,CLOSED,CLOSED,OPEN,OFF,OFF,ON,OPEN,CLOSED,CLOSED,CLOSED,13007,0,4200,4200
7/18/2019 6:41,0.0317421,499.3856,1.078249,7535.561,1.615233,-10,-12.57198,0,163.7042,100.6217,44.22682,34.30834,21.60867,30.16781,41.53987,19145.04,No Data,ON,FR-WH,TRANSFER,No Data,ON,ON,OFF,OFF,OFF,OFF,OFF,OFF,OFF,17007,No Data,TRANSFER,7.647187,25,   2:43:56.500,50,40,40,47,OFF,Auto,CLOSED,CLOSED,OPEN,CLOSED,CLOSED,CLOSED,OPEN,CLOSED,CLOSED,CLOSED,CLOSED,CLOSED,CLOSED,CLOSED,OPEN,OFF,OFF,ON,OPEN,CLOSED,CLOSED,CLOSED,13007,0,4260,4260
7/18/2019 6:42,0.0317421,499.3857,1.078151,7535.561,1.609303,-10,-12.61785,0,163.7042,100.6213,44.22764,34.29986,21.62554,30.10755,41.53987,20144.23,No Data,ON,FR-WH,TRANSFER,No Data,ON,ON,OFF,OFF,OFF,OFF,OFF,OFF,OFF,17007,No Data,TRANSFER,7.647187,25,   2:44:58.000,50,40,40,47,OFF,Auto,CLOSED,CLOSED,OPEN,CLOSED,CLOSED,CLOSED,OPEN,CLOSED,CLOSED,CLOSED,CLOSED,CLOSED,CLOSED,CLOSED,OPEN,OFF,OFF,ON,OPEN,CLOSED,CLOSED,CLOSED,13007,0,4320,4320
7/18/2019 6:43,0.0317421,499.3858,1.078053,7535.561,1.603373,-10,-12.61645,0,165.3,100.6208,44.22846,34.29138,21.64241,30.04729,41.53987,21143.41,No Data,ON,FR-WH,TRANSFER,No Data,ON,ON,OFF,OFF,OFF,OFF,OFF,OFF,OFF,17007,No Data,TRANSFER,7.647187,25,   2:45:59.250,50,40,40,47,OFF,Auto,CLOSED,CLOSED,OPEN,CLOSED,CLOSED,CLOSED,OPEN,CLOSED,CLOSED,CLOSED,CLOSED,CLOSED,CLOSED,CLOSED,OPEN,OFF,OFF,ON,OPEN,CLOSED,CLOSED,CLOSED,13007,0,4380,4380
7/18/2019 6:44,0.0317421,499.3859,1.077955,7535.561,1.597443,-10,-12.61505,0,166.7958,100.6203,44.22927,34.2829,21.65928,29.98704,41.53987,22148,No Data,ON,FR-WH,TRANSFER,No Data,ON,ON,OFF,OFF,OFF,OFF,OFF,OFF,OFF,17007,No Data,TRANSFER,7.647187,25,   2:46:57.500,50,40,40,47,OFF,Auto,CLOSED,CLOSED,OPEN,CLOSED,CLOSED,CLOSED,OPEN,CLOSED,CLOSED,CLOSED,CLOSED,CLOSED,CLOSED,CLOSED,OPEN,OFF,OFF,ON,OPEN,CLOSED,CLOSED,CLOSED,13007,0,4440,4440
7/18/2019 6:45,0.0317421,499.386,1.077857,7535.561,1.591513,-10,-12.61365,0,166.7958,100.6198,44.23009,34.26612,21.67615,29.88137,41.53987,23157.01,No Data,ON,FR-WH,TRANSFER,No Data,ON,ON,OFF,OFF,OFF,OFF,OFF,OFF,OFF,17007,No Data,TRANSFER,7.647187,25,   2:47:59.500,50,40,40,47,OFF,Auto,CLOSED,CLOSED,OPEN,CLOSED,CLOSED,CLOSED,OPEN,CLOSED,CLOSED,CLOSED,CLOSED,CLOSED,CLOSED,CLOSED,OPEN,OFF,OFF,ON,OPEN,CLOSED,CLOSED,CLOSED,13007,0,4500,4500
7/18/2019 6:46,0.0317421,499.386,1.077759,7535.561,1.585583,-10,-12.61226,0,168.2458,100.6193,44.23091,34.24875,21.69302,29.86187,41.53987,24135.16,No Data,ON,FR-WH,TRANSFER,No Data,ON,ON,OFF,OFF,OFF,OFF,OFF,OFF,OFF,17007,No Data,TRANSFER,7.647187,25,   2:48:57.750,50,40,40,47,OFF,Auto,CLOSED,CLOSED,OPEN,CLOSED,CLOSED,CLOSED,OPEN,CLOSED,CLOSED,CLOSED,CLOSED,CLOSED,CLOSED,CLOSED,OPEN,OFF,OFF,ON,OPEN,CLOSED,CLOSED,CLOSED,13007,0,4560,4560
7/18/2019 6:47,0.0317421,499.3861,1.07766,7535.561,1.579653,-10,-12.61086,0,169.7167,100.6188,44.23173,34.23138,21.70989,29.84237,41.53987,25103.01,No Data,ON,FR-WH,TRANSFER,No Data,ON,ON,OFF,OFF,OFF,OFF,OFF,OFF,OFF,17007,No Data,TRANSFER,7.647187,25,   2:49:58.250,50,40,40,47,OFF,Auto,CLOSED,CLOSED,OPEN,CLOSED,CLOSED,CLOSED,OPEN,CLOSED,CLOSED,CLOSED,CLOSED,CLOSED,CLOSED,CLOSED,OPEN,OFF,OFF,ON,OPEN,CLOSED,CLOSED,CLOSED,13007,0,4620,4620
7/18/2019 6:48,0.0317421,499.3862,1.077562,7535.561,1.573723,-10,-12.60946,0,169.7167,100.6183,44.23254,34.214,21.72676,29.82287,41.53987,26070.87,No Data,ON,FR-WH,TRANSFER,No Data,ON,ON,OFF,OFF,OFF,OFF,OFF,OFF,OFF,17007,No Data,TRANSFER,7.647187,25,   2:50:58.250,50,40,40,47,OFF,Auto,CLOSED,CLOSED,OPEN,CLOSED,CLOSED,CLOSED,OPEN,CLOSED,CLOSED,CLOSED,CLOSED,CLOSED,CLOSED,CLOSED,OPEN,OFF,OFF,ON,OPEN,CLOSED,CLOSED,CLOSED,13007,0,4680,4680
7/18/2019 6:49,0.0317421,499.3863,1.077464,7535.561,1.567793,-10,-12.60806,0,171.2542,100.6179,44.23336,34.19663,21.74363,29.80337,41.53987,27049.55,No Data,ON,FR-WH,TRANSFER,No Data,ON,ON,OFF,OFF,OFF,OFF,OFF,OFF,OFF,17007,No Data,TRANSFER,7.647187,25,   2:51:57.000,50,40,40,47,OFF,Auto,CLOSED,CLOSED,OPEN,CLOSED,CLOSED,CLOSED,OPEN,CLOSED,CLOSED,CLOSED,CLOSED,CLOSED,CLOSED,CLOSED,OPEN,OFF,OFF,ON,OPEN,CLOSED,CLOSED,CLOSED,13007,0,4740,4740
7/18/2019 6:50,0.0317421,499.3864,1.077366,7535.561,1.561863,-10,-12.60667,0,172.7583,100.6174,44.23418,34.17926,21.7605,29.78386,41.53987,27994.96,No Data,ON,FR-WH,TRANSFER,No Data,ON,ON,OFF,OFF,OFF,OFF,OFF,OFF,OFF,17007,No Data,TRANSFER,7.647187,25,   2:52:54.750,50,40,40,47,OFF,Auto,CLOSED,CLOSED,OPEN,CLOSED,CLOSED,CLOSED,OPEN,CLOSED,CLOSED,CLOSED,CLOSED,CLOSED,CLOSED,CLOSED,OPEN,OFF,OFF,ON,OPEN,CLOSED,CLOSED,CLOSED,13007,0,4800,4800
7/18/2019 6:51,0.0317421,499.3865,1.077268,7535.561,1.555933,-10,-12.60527,0,172.7583,100.6169,44.235,34.16188,21.77737,29.76436,41.53987,28958.3,No Data,ON,FR-WH,TRANSFER,No Data,ON,ON,OFF,OFF,OFF,OFF,OFF,OFF,OFF,17007,No Data,TRANSFER,7.647187,25,   2:53:57.750,50,40,40,47,OFF,Auto,CLOSED,CLOSED,OPEN,CLOSED,CLOSED,CLOSED,OPEN,CLOSED,CLOSED,CLOSED,CLOSED,CLOSED,CLOSED,CLOSED,OPEN,OFF,OFF,ON,OPEN,CLOSED,CLOSED,CLOSED,13007,0,4860,4860
7/18/2019 6:52,0.0317421,499.3866,1.07717,7535.561,1.550003,-10,-12.60387,0,174.2833,100.6164,44.23581,34.14451,21.79424,29.74486,41.53987,29926.34,No Data,ON,FR-WH,TRANSFER,No Data,ON,ON,OFF,OFF,OFF,OFF,OFF,OFF,OFF,17007,No Data,TRANSFER,7.647187,25,   2:54:57.000,50,40,40,47,OFF,Auto,CLOSED,CLOSED,OPEN,CLOSED,CLOSED,CLOSED,OPEN,CLOSED,CLOSED,CLOSED,CLOSED,CLOSED,CLOSED,CLOSED,OPEN,OFF,OFF,ON,OPEN,CLOSED,CLOSED,CLOSED,13007,0,4920,4920
7/18/2019 6:53,0.0317421,499.3867,1.077071,7535.561,1.544073,-10,-12.60247,0,175.7583,100.6159,44.23663,34.12714,21.81111,29.72536,41.53987,30857.52,No Data,ON,FR-WH,TRANSFER,No Data,ON,ON,OFF,OFF,OFF,OFF,OFF,OFF,OFF,17007,No Data,TRANSFER,7.647187,25,   2:55:56.500,50,40,40,47,OFF,Auto,CLOSED,CLOSED,OPEN,CLOSED,CLOSED,CLOSED,OPEN,CLOSED,CLOSED,CLOSED,CLOSED,CLOSED,CLOSED,CLOSED,OPEN,OFF,OFF,ON,OPEN,CLOSED,CLOSED,CLOSED,13007,0,4980,4980
7/18/2019 6:54,0.0317421,499.3868,1.076973,7535.561,1.538143,-10,-12.60108,0,175.7583,100.6154,44.23745,34.10977,21.82797,29.70586,41.53987,31836.78,No Data,ON,FR-WH,TRANSFER,No Data,ON,ON,OFF,OFF,OFF,OFF,OFF,OFF,OFF,17007,No Data,TRANSFER,7.647187,25,   2:56:59.750,50,40,40,47,OFF,Auto,CLOSED,CLOSED,OPEN,CLOSED,CLOSED,CLOSED,OPEN,CLOSED,CLOSED,CLOSED,CLOSED,CLOSED,CLOSED,CLOSED,OPEN,OFF,OFF,ON,OPEN,CLOSED,CLOSED,CLOSED,13007,0,5040,5040
7/18/2019 6:55,0.0317421,499.3868,1.076875,7535.561,1.532213,-10,-12.59968,0,177.2958,100.615,44.23827,34.0924,21.84484,29.68636,41.53987,32764.5,No Data,ON,FR-WH,TRANSFER,No Data,ON,ON,OFF,OFF,OFF,OFF,OFF,OFF,OFF,17007,No Data,TRANSFER,7.647187,25,   2:57:57.500,50,40,40,47,OFF,Auto,CLOSED,CLOSED,OPEN,CLOSED,CLOSED,CLOSED,OPEN,CLOSED,CLOSED,CLOSED,CLOSED,CLOSED,CLOSED,CLOSED,OPEN,OFF,OFF,ON,OPEN,CLOSED,CLOSED,CLOSED,13007,0,5100,5100
7/18/2019 6:56,0.0317421,499.3869,1.076777,7535.561,1.526283,-10,-12.59828,0,178.8,100.6145,44.23908,34.07502,21.86171,29.66685,41.53987,33683.99,No Data,ON,FR-WH,TRANSFER,No Data,ON,ON,OFF,OFF,OFF,OFF,OFF,OFF,OFF,17007,No Data,TRANSFER,7.647187,25,   2:58:57.250,50,40,40,47,OFF,Auto,CLOSED,CLOSED,OPEN,CLOSED,CLOSED,CLOSED,OPEN,CLOSED,CLOSED,CLOSED,CLOSED,CLOSED,CLOSED,CLOSED,OPEN,OFF,OFF,ON,OPEN,CLOSED,CLOSED,CLOSED,13007,0,5160,5160
7/18/2019 6:57,0.0317421,499.387,1.076679,7535.561,1.520353,-10,-12.59688,0,178.8,100.614,44.2399,34.05765,21.87858,29.64735,41.53987,34648.98,No Data,ON,FR-WH,TRANSFER,No Data,ON,ON,OFF,OFF,OFF,OFF,OFF,OFF,OFF,17007,No Data,TRANSFER,7.647187,25,   2:59:49.500,50,40,40,47,OFF,Auto,CLOSED,CLOSED,OPEN,CLOSED,CLOSED,CLOSED,OPEN,CLOSED,CLOSED,CLOSED,CLOSED,CLOSED,CLOSED,CLOSED,OPEN,OFF,OFF,ON,OPEN,CLOSED,CLOSED,CLOSED,13007,0,5220,5220
7/18/2019 6:58,0.0317421,499.3871,1.076581,7535.561,1.514423,-10,-12.59549,0,180.3,100.6135,44.24072,34.04028,21.89545,29.62785,41.53987,35592.08,No Data,ON,FR-WH,TRANSFER,No Data,ON,ON,OFF,OFF,OFF,OFF,OFF,OFF,OFF,17007,No Data,TRANSFER,7.647187,25,   3:00:54.000,50,40,40,47,OFF,Auto,CLOSED,CLOSED,OPEN,CLOSED,CLOSED,CLOSED,OPEN,CLOSED,CLOSED,CLOSED,CLOSED,CLOSED,CLOSED,CLOSED,OPEN,OFF,OFF,ON,OPEN,CLOSED,CLOSED,CLOSED,13007,0,5280,5280
7/18/2019 6:59,0.0317421,499.3872,1.076483,7535.561,1.508493,-10,-12.59409,0,181.7833,100.613,44.24154,34.02291,21.91232,29.60835,41.53987,36507.75,No Data,ON,FR-WH,TRANSFER,No Data,ON,ON,OFF,OFF,OFF,OFF,OFF,OFF,OFF,17007,No Data,TRANSFER,7.647187,25,   3:01:56.750,50,40,40,47,OFF,Auto,CLOSED,CLOSED,OPEN,CLOSED,CLOSED,CLOSED,OPEN,CLOSED,CLOSED,CLOSED,CLOSED,CLOSED,CLOSED,CLOSED,OPEN,OFF,OFF,ON,OPEN,CLOSED,CLOSED,CLOSED,13007,0,5340,5340
7/18/2019 7:00,0.0317421,499.3873,1.076384,7535.561,1.502563,-10,-12.59269,0,181.7833,100.6125,44.24235,34.00554,21.92919,29.58885,41.53987,37423.41,No Data,ON,FR-WH,TRANSFER,No Data,ON,ON,OFF,OFF,OFF,OFF,OFF,OFF,OFF,17007,No Data,TRANSFER,7.647187,25,   3:02:58.250,50,40,40,47,OFF,Auto,CLOSED,CLOSED,OPEN,CLOSED,CLOSED,CLOSED,OPEN,CLOSED,CLOSED,CLOSED,CLOSED,CLOSED,CLOSED,CLOSED,OPEN,OFF,OFF,ON,OPEN,CLOSED,CLOSED,CLOSED,13007,0,5400,5400
7/18/2019 7:01,0.0317421,499.3874,1.076286,7535.561,1.496633,-10,-12.59129,0,183.275,100.612,44.24317,33.98816,21.94938,29.56935,41.53987,38341.64,No Data,ON,FR-WH,TRANSFER,No Data,ON,ON,OFF,OFF,OFF,OFF,OFF,OFF,OFF,17007,No Data,TRANSFER,7.647187,25,   3:03:55.500,50,40,40,47,OFF,Auto,CLOSED,CLOSED,OPEN,CLOSED,CLOSED,CLOSED,OPEN,CLOSED,CLOSED,CLOSED,CLOSED,CLOSED,CLOSED,CLOSED,OPEN,OFF,OFF,ON,OPEN,CLOSED,CLOSED,CLOSED,13007,0,5460,5460
7/18/2019 7:02,0.0317421,499.3875,1.076188,7535.561,1.490703,-10,-12.5899,0,184.7583,100.6116,44.24399,33.97079,21.97122,29.54984,41.53987,39266.95,No Data,ON,FR-WH,TRANSFER,No Data,ON,ON,OFF,OFF,OFF,OFF,OFF,OFF,OFF,17007,No Data,TRANSFER,7.647187,25,   3:04:55.500,50,40,40,47,OFF,Auto,CLOSED,CLOSED,OPEN,CLOSED,CLOSED,CLOSED,OPEN,CLOSED,CLOSED,CLOSED,CLOSED,CLOSED,CLOSED,CLOSED,OPEN,OFF,OFF,ON,OPEN,CLOSED,CLOSED,CLOSED,13007,0,5520,5520
7/18/2019 7:03,0.0317421,499.3876,1.07609,7535.561,1.484773,-10,-12.5885,0,184.7583,100.6111,44.2448,33.95342,21.99306,29.48936,41.53987,40192.25,No Data,ON,FR-WH,TRANSFER,No Data,ON,ON,OFF,OFF,OFF,OFF,OFF,OFF,OFF,17007,No Data,TRANSFER,7.647187,25,   3:05:58.750,50,40,40,47,OFF,Auto,CLOSED,CLOSED,OPEN,CLOSED,CLOSED,CLOSED,OPEN,CLOSED,CLOSED,CLOSED,CLOSED,CLOSED,CLOSED,CLOSED,OPEN,OFF,OFF,ON,OPEN,CLOSED,CLOSED,CLOSED,13007,0,5580,5580
7/18/2019 7:04,0.0317421,499.3877,1.075992,7535.561,1.478843,-10,-12.5871,0,186.3042,100.6106,44.24562,33.93605,22.0149,29.46478,41.53987,41102.46,No Data,ON,FR-WH,TRANSFER,No Data,ON,ON,OFF,OFF,OFF,OFF,OFF,OFF,OFF,17007,No Data,TRANSFER,7.647187,25,   3:06:58.750,50,40,40,47,OFF,Auto,CLOSED,CLOSED,OPEN,CLOSED,CLOSED,CLOSED,OPEN,CLOSED,CLOSED,CLOSED,CLOSED,CLOSED,CLOSED,CLOSED,OPEN,OFF,OFF,ON,OPEN,CLOSED,CLOSED,CLOSED,13007,0,5640,5640
7/18/2019 7:05,0.0317421,499.3878,1.075894,7535.561,1.472913,-10,-12.5857,0,187.7833,100.6101,44.24644,33.91867,22.03675,29.41411,41.53987,41980.07,No Data,ON,FR-WH,TRANSFER,No Data,ON,ON,OFF,OFF,OFF,OFF,OFF,OFF,OFF,17007,No Data,TRANSFER,7.647187,25,   3:07:58.500,50,40,40,47,OFF,Auto,CLOSED,CLOSED,OPEN,CLOSED,CLOSED,CLOSED,OPEN,CLOSED,CLOSED,CLOSED,CLOSED,CLOSED,CLOSED,CLOSED,OPEN,OFF,OFF,ON,OPEN,CLOSED,CLOSED,CLOSED,13007,0,5700,5700
7/18/2019 7:06,0.0317421,499.3878,1.075795,7535.561,1.466983,-10,-12.58431,0,187.7833,100.6096,44.24726,33.9013,22.05859,29.39828,41.53987,42857.68,No Data,ON,FR-WH,TRANSFER,No Data,ON,ON,OFF,OFF,OFF,OFF,OFF,OFF,OFF,17007,No Data,TRANSFER,7.647187,25,   3:08:59.000,50,40,40,47,OFF,Auto,CLOSED,CLOSED,OPEN,CLOSED,CLOSED,CLOSED,OPEN,CLOSED,CLOSED,CLOSED,CLOSED,CLOSED,CLOSED,CLOSED,OPEN,OFF,OFF,ON,OPEN,CLOSED,CLOSED,CLOSED,13007,0,5760,5760
7/18/2019 7:07,0.0317421,499.3879,1.075697,7535.561,1.461053,-10,-12.58291,0,189.6917,100.6091,44.24807,33.88393,22.08043,29.40121,41.53987,43735.29,No Data,ON,FR-WH,TRANSFER,No Data,ON,ON,OFF,OFF,OFF,OFF,OFF,OFF,OFF,17007,No Data,TRANSFER,7.647187,25,   3:09:57.500,50,40,40,47,OFF,Auto,CLOSED,CLOSED,OPEN,CLOSED,CLOSED,CLOSED,CLOSED,CLOSED,CLOSED,CLOSED,CLOSED,CLOSED,CLOSED,CLOSED,OPEN,OFF,OFF,OFF,OPEN,CLOSED,CLOSED,CLOSED,13007,0,5820,5820
7/18/2019 7:08,0.0317421,499.388,1.075599,7535.561,1.455123,-9.486368,-12.58151,0,189.6917,100.6087,44.24889,33.86656,22.10227,29.40414,41.53987,44612.89,No Data,ON,FR-WH,TRANSFER,No Data,ON,ON,OFF,OFF,OFF,OFF,OFF,OFF,OFF,17007,No Data,TRANSFER,7.647187,25,   3:10:58.750,50,40,40,47,OFF,Auto,CLOSED,CLOSED,OPEN,CLOSED,CLOSED,CLOSED,CLOSED,CLOSED,CLOSED,CLOSED,CLOSED,CLOSED,CLOSED,CLOSED,OPEN,OFF,OFF,OFF,OPEN,CLOSED,CLOSED,CLOSED,13007,0,5880,5880
7/18/2019 7:09,0.0317421,499.3881,1.075501,7535.561,1.449193,-8.801526,-9.874646,0,191.3083,100.6082,44.24971,33.84919,22.12411,29.40708,41.53987,45175.85,No Data,ON,FR-WH,TRANSFER,No Data,ON,ON,OFF,OFF,OFF,OFF,OFF,OFF,OFF,17007,No Data,TRANSFER,7.647187,25,   3:11:56.250,50,40,40,47,OFF,Auto,CLOSED,CLOSED,OPEN,CLOSED,CLOSED,CLOSED,CLOSED,CLOSED,CLOSED,CLOSED,CLOSED,CLOSED,CLOSED,CLOSED,OPEN,OFF,OFF,OFF,OPEN,CLOSED,CLOSED,CLOSED,13007,0,5940,5940
