"0","WATER <- params$WATER"
"0","FR_ONE <- params$FR_ONE"
"0","FR_ONE_COST <- params$FR_ONE_COST"
"0","FR_TWO <- params$FR_TWO"
"0","FR_TWO_COST <- params$FR_TWO_COST"
"0",""
"0","FR_TWO_LOADING <- params$FR_TWO_LOADING"
"0",""
"0","FR_TWO_Mgal <- FR_TWO_COST * FR_TWO_LOADING"
"0",""
"0","FR_ONE_Mgal <- FR_TWO_Mgal"
"0","FR_ONE_LOADING <- FR_ONE_Mgal / FR_ONE_COST"
