"0","df <- readxl::read_xlsx('20200214 FR Cost Comparison Template (Snyder Data).xlsx', sheet = 'All Data')"
"2","New names:
* `` -> ...1
"
"0","column_names <- c('Expt', 'FR', 'FR Type', 'LOOP', 'Supplier', 'Loading (gpt)', 'Water',"
"0","                  '0.00', '0.17', '0.33', '0.50', '0.67', '0.83', '1.00', '1.17', '1.33',"
"0","                  '1.50', '1.67', '1.83', '2.00', '2.17', '2.33', '2.50', '2.67', '2.83',"
"0","                  '3.00', '3.17', '3.33', '3.50', '3.67', '3.83', '4.00', '4.17', '4.33',"
"0","                  '4.50', '4.67', '4.83', '5.00', 'Average', '3 gpt', '6 gpt', 'Date',"
"0","                  'Batch No', 'Sample', 'Pipe ID', 'Flow Rate')"
"0",""
"0","colnames(df) <- column_names"
"0",""
"0","df <- df %>%"
"0","  dplyr::select(-'3 gpt', -'6 gpt', -Date, -'Batch No', -Sample, -'Pipe ID', -'Flow Rate') %>%"
"0","  filter(`Loading (gpt)` != 'A') %>%"
"0","  filter(`Loading (gpt)` != 'k')"
"0",""
"0","alles <- complete.cases(df)"
"0",""
"0","df <- df[alles, ]"
"0",""
"0","qaz <- data.frame(rowMeans(df[ , 11:38]))"
"0","colnames(qaz) <- c('Avg30sec')"
"0","df <- cbind(df, qaz)"
"0","qaz <- data.frame(rowMeans(df[ , 14:38]))"
"0","colnames(qaz) <- c('Avg1min')"
"0","df <- cbind(df, qaz)"
"0",""
"0","df <- df %>%"
"0","  dplyr::select(-Average)"
"0",""
"0","df <- df %>%"
"0","  pivot_longer("
"0","    cols = c('0.00', '0.17', '0.33', '0.50', '0.67', '0.83', '1.00',"
"0","             '1.17', '1.33', '1.50', '1.67', '1.83', '2.00', '2.17',"
"0","             '2.33', '2.50', '2.67', '2.83', '3.00', '3.17', '3.33',"
"0","             '3.50', '3.67', '3.83', '4.00', '4.17', '4.33', '4.50',"
"0","             '4.67', '4.83', '5.00', 'Avg30sec', 'Avg1min'),"
"0","    names_to = ""time"","
"0","    values_to = ""pctFR"","
"0","    values_drop_na = TRUE"
"0","  ) %>%"
"0","  # mutate(time = as.numeric(time)) %>%"
"0","  mutate(pctFR = 100.0 * pctFR)"
"0",""
"0","df$`Loading (gpt)` <- as.numeric(df$`Loading (gpt)`)"
"0",""
"0","instances <- df %>%"
"0","  dplyr::select(FR, Water, time) %>%"
"0","  unique() %>%"
"0","  filter("
"0","    time == '0.50' |"
"0","      time == '1.00' |"
"0","      time == '2.00' |"
"0","      time == '5.00' | time == 'Avg30sec' | time == 'Avg1min'"
"0","  ) %>%"
"0","  data.frame()"
"0",""
"0","results <- data.frame("
"0","  FR = character(),"
"0","  Water = character(),"
"0","  Time = character(),"
"0","  Asymptote = numeric(),"
"0","  Asymptote_StdDev = numeric(),"
"0","  RateConstant = numeric(),"
"0","  RateConstant_StdDev = numeric(),"
"0","  stringsAsFactors = FALSE"
"0",")"
