"0","library(magrittr)"
"0","library(plyr)"
"0","library(dplyr)"
"0","library(stats)"
"0","library(tidyr)"
"0","library(ggplot2)"
"0","library(ggthemes)"
"0","library(htmlwidgets)"
"0","library(plotly)"
"0","library(officer)"
"0","library(data.table)"
"0",""
"0","library(SciViews)"
"0","library(drc)"
"0","library(nlme)"
"0",""
"0","library(aomisc)"
"0",""
"0","op = function(x, d=2) sprintf(paste0(""%1."",d,""f""), x)"
