r216_lot_number,r216_step,r216batch_num_pv,batchid,start,finish
No Data,TRANSFER,17007,13007,7/18/2019 5:30,7/18/2019 7:11
No Data,N2 SPARGE FOR 30 MINUTES,13007,13007,7/18/2019 7:12,7/18/2019 7:41
No Data,SPARGE COMPLETE...OKAY TO INITIATE...ALMACK TO TURN OFF SPARGES,13007,13007,7/18/2019 7:42,7/18/2019 7:43
No Data,SPARGES OFF...PUMP TO AUTO TO START,13007,13007,7/18/2019 7:44,7/18/2019 7:44
No Data,REACTION STARTED.....RAMPING TO TURN 1,13007,13007,7/18/2019 7:45,7/18/2019 8:29
No Data,SLOW REACTION.....REFILL SMBS IF NECESSARY,13007,13007,7/18/2019 8:30,7/18/2019 8:32
No Data,WAITING ON TURN 1,13007,13007,7/18/2019 8:33,7/18/2019 8:42
No Data,WAITING ON TURN 2,13007,13007,7/18/2019 8:43,7/18/2019 8:46
No Data,ADDING SMBS IN ONE LB INCREMENTS,13007,13007,7/18/2019 8:47,7/18/2019 10:23
No Data,PUMP SETPT TO REMOTE FOR TARGET TEMP..,13007,13007,7/18/2019 10:24,7/18/2019 10:38
No Data,TESTING REACTION FOR COMPLETION,13007,13007,7/18/2019 10:39,7/18/2019 10:58
No Data,TRANSFER,13007,13007,7/18/2019 10:59,7/18/2019 12:06
No Data,RINSE COMPLETE. DRAIN AND CHECK H2O2,13007,14006,7/20/2019 0:16,7/20/2019 2:26
No Data,RINSE COMPLETE. DRAIN AND CHECK H2O2,14006,14006,7/20/2019 2:27,7/20/2019 3:06
No Data,N2 SPARGE FOR 30 MINUTES,14006,14006,7/20/2019 3:07,7/20/2019 3:36
No Data,SPARGE COMPLETE...OKAY TO INITIATE...ALMACK TO TURN OFF SPARGES,14006,14006,7/20/2019 3:37,7/20/2019 3:38
No Data,SPARGES OFF...PUMP TO AUTO TO START,14006,14006,7/20/2019 3:39,7/20/2019 3:39
No Data,REACTION STARTED.....RAMPING TO TURN 1,14006,14006,7/20/2019 3:40,7/20/2019 4:17
No Data,SLOW REACTION.....REFILL SMBS IF NECESSARY,14006,14006,7/20/2019 4:18,7/20/2019 4:38
No Data,WAITING ON TURN 1,14006,14006,7/20/2019 4:39,7/20/2019 5:52
No Data,CONTROL AIR ON. AUTO RESPARGE AT TEMP < 62,14006,14006,7/20/2019 5:53,7/20/2019 5:54
No Data,RESPARGING 20 MINUTES AND TEMP < TOPTEMP TO RESTART,14006,14006,7/20/2019 5:55,7/20/2019 6:14
No Data,RESTARTING....LOOKING FOR INDUCTION,14006,14006,7/20/2019 6:15,7/20/2019 6:30
No Data,WAITING ON TURN 2,14006,14006,7/20/2019 6:31,7/20/2019 6:39
No Data,ADDING SMBS IN ONE LB INCREMENTS,14006,14006,7/20/2019 6:40,7/20/2019 6:43
No Data,PUMP SETPT TO REMOTE FOR TARGET TEMP..,14006,14006,7/20/2019 6:44,7/20/2019 6:49
No Data,TESTING REACTION FOR COMPLETION,14006,14006,7/20/2019 6:50,7/20/2019 7:09
No Data,REACTION COMPLETE....COOLING FOR TRANSFER,14006,14006,7/20/2019 7:10,7/20/2019 7:20
No Data,TRANSFER,14006,14006,7/20/2019 7:21,7/20/2019 15:50
No Data,TRANSFER,14006,20004,7/20/2019 15:57,7/20/2019 17:44
No Data,N2 SPARGE FOR 30 MINUTES,20003,20004,7/20/2019 17:45,7/20/2019 17:45
No Data,N2 SPARGE FOR 30 MINUTES,20004,20004,7/20/2019 17:46,7/20/2019 18:14
No Data,REACTION STARTED.....RAMPING TO TURN 1,20004,20004,7/20/2019 18:15,7/20/2019 18:56
No Data,SLOW REACTION.....REFILL SMBS IF NECESSARY,20004,20004,7/20/2019 18:57,7/20/2019 19:06
No Data,WAITING ON TURN 1,20004,20004,7/20/2019 19:07,7/20/2019 19:14
No Data,WAITING ON TURN 2,20004,20004,7/20/2019 19:15,7/20/2019 19:15
No Data,ADDING SMBS IN ONE LB INCREMENTS,20004,20004,7/20/2019 19:16,7/20/2019 21:19
No Data,PUMP SETPT TO REMOTE FOR TARGET TEMP..,20004,20004,7/20/2019 21:20,7/20/2019 22:19
No Data,TESTING REACTION FOR COMPLETION,20004,20004,7/20/2019 21:54,7/20/2019 22:39
No Data,REACTION COMPLETE....COOLING FOR TRANSFER,20004,20004,7/20/2019 22:40,7/20/2019 22:40
No Data,TRANSFER,20004,20004,7/20/2019 22:41,7/21/2019 3:24
No Data,RINSE COMPLETE. DRAIN AND CHECK H2O2,25005,24004,7/26/2019 4:26,7/26/2019 7:22
No Data,N2 SPARGE FOR 30 MINUTES,24004,24004,7/26/2019 7:23,7/26/2019 7:52
No Data,SPARGE COMPLETE...OKAY TO INITIATE...ALMACK TO TURN OFF SPARGES,24004,24004,7/26/2019 7:53,7/26/2019 7:53
No Data,SPARGES OFF...PUMP TO AUTO TO START,24004,24004,7/26/2019 7:54,7/26/2019 7:54
No Data,REACTION STARTED.....RAMPING TO TURN 1,24004,24004,7/26/2019 7:55,7/26/2019 8:31
No Data,WAITING ON TURN 1,24004,24004,7/26/2019 8:32,7/26/2019 10:16
No Data,WAITING ON TURN 2,24004,24004,7/26/2019 10:17,7/26/2019 10:17
No Data,ADDING SMBS IN ONE LB INCREMENTS,24004,24004,7/26/2019 10:18,7/26/2019 10:28
No Data,PUMP SETPT TO REMOTE FOR TARGET TEMP..,24004,24004,7/26/2019 10:29,7/26/2019 10:44
No Data,TESTING REACTION FOR COMPLETION,24004,24004,7/26/2019 10:45,7/26/2019 11:04
No Data,REACTION COMPLETE....COOLING FOR TRANSFER,24004,24004,7/26/2019 11:05,7/26/2019 11:13
No Data,TRANSFER,24004,24004,7/26/2019 11:14,7/26/2019 11:53
No Data,TRANSFER,24004,24006,7/26/2019 14:22,7/26/2019 19:11
No Data,N2 SPARGE FOR 30 MINUTES,24006,24006,7/26/2019 19:12,7/26/2019 19:41
No Data,SPARGES OFF...PUMP TO AUTO TO START,24006,24006,7/26/2019 19:42,7/26/2019 19:42
No Data,REACTION STARTED.....RAMPING TO TURN 1,24006,24006,7/26/2019 19:43,7/26/2019 20:14
No Data,WAITING ON TURN 1,24006,24006,7/26/2019 20:15,7/26/2019 20:55
No Data,CONTROL AIR ON. AUTO RESPARGE AT TEMP < 62,24006,24006,7/26/2019 20:56,7/26/2019 21:01
No Data,RESPARGING 20 MINUTES AND TEMP < TOPTEMP TO RESTART,24006,24006,7/26/2019 21:02,7/26/2019 21:21
No Data,RESTARTING....LOOKING FOR INDUCTION,24006,24006,7/26/2019 21:22,7/26/2019 21:31
No Data,WAITING ON TURN 2,24006,24006,7/26/2019 21:32,7/26/2019 22:12
No Data,ADDING SMBS IN ONE LB INCREMENTS,24006,24006,7/26/2019 22:13,7/26/2019 22:16
No Data,PUMP SETPT TO REMOTE FOR TARGET TEMP..,24006,24006,7/26/2019 22:17,7/26/2019 22:23
No Data,TESTING REACTION FOR COMPLETION,24006,24006,7/26/2019 22:24,7/26/2019 22:39
No Data,REACTION COMPLETE....COOLING FOR TRANSFER,24006,24006,7/26/2019 22:40,7/26/2019 22:46
No Data,TRANSFER,24006,24006,7/26/2019 22:47,7/27/2019 1:30
No Data,RINSE COMPLETE. DRAIN AND CHECK H2O2,24006,27007,7/27/2019 12:16,7/27/2019 15:07
No Data,N2 SPARGE FOR 30 MINUTES,27007,27007,7/27/2019 15:08,7/27/2019 15:37
No Data,SPARGE COMPLETE...OKAY TO INITIATE...ALMACK TO TURN OFF SPARGES,27007,27007,7/27/2019 15:38,7/27/2019 15:42
No Data,SPARGES OFF...PUMP TO AUTO TO START,27007,27007,7/27/2019 15:43,7/27/2019 15:43
No Data,REACTION STARTED.....RAMPING TO TURN 1,27007,27007,7/27/2019 15:44,7/27/2019 16:12
No Data,WAITING ON TURN 1,27007,27007,7/27/2019 16:13,7/27/2019 17:25
No Data,CONTROL AIR ON. AUTO RESPARGE AT TEMP < 62,27007,27007,7/27/2019 17:26,7/27/2019 17:27
No Data,RESPARGING 20 MINUTES AND TEMP < TOPTEMP TO RESTART,27007,27007,7/27/2019 17:28,7/27/2019 17:47
No Data,RESTARTING....LOOKING FOR INDUCTION,27007,27007,7/27/2019 17:48,7/27/2019 17:56
No Data,WAITING ON TURN 2,27007,27007,7/27/2019 17:57,7/27/2019 18:05
No Data,ADDING SMBS IN ONE LB INCREMENTS,27007,27007,7/27/2019 18:06,7/27/2019 18:09
No Data,PUMP SETPT TO REMOTE FOR TARGET TEMP..,27007,27007,7/27/2019 18:10,7/27/2019 18:21
No Data,TESTING REACTION FOR COMPLETION,27007,27007,7/27/2019 18:22,7/27/2019 18:41
No Data,REACTION COMPLETE....COOLING FOR TRANSFER,27007,27007,7/27/2019 18:42,7/27/2019 18:53
No Data,TRANSFER,27007,27007,7/27/2019 18:54,7/28/2019 0:49
No Data,RINSE COMPLETE. DRAIN AND CHECK H2O2,27005,28001,7/28/2019 23:19,7/29/2019 1:32
No Data,RINSE COMPLETE. DRAIN AND CHECK H2O2,28001,28001,7/29/2019 1:33,7/29/2019 1:33
No Data,N2 SPARGE FOR 30 MINUTES,28001,28001,7/29/2019 1:34,7/29/2019 2:03
No Data,SPARGE COMPLETE...OKAY TO INITIATE...ALMACK TO TURN OFF SPARGES,28001,28001,7/29/2019 2:04,7/29/2019 2:04
No Data,REACTION STARTED.....RAMPING TO TURN 1,28001,28001,7/29/2019 2:05,7/29/2019 2:46
No Data,WAITING ON TURN 1,28001,28001,7/29/2019 2:47,7/29/2019 4:35
No Data,ADDING SMBS IN ONE LB INCREMENTS,28001,28001,7/29/2019 4:36,7/29/2019 4:38
No Data,PUMP SETPT TO REMOTE FOR TARGET TEMP..,28001,28001,7/29/2019 4:39,7/29/2019 4:44
No Data,TESTING REACTION FOR COMPLETION,28001,28001,7/29/2019 4:45,7/29/2019 5:04
No Data,REACTION COMPLETE....COOLING FOR TRANSFER,28001,28001,7/29/2019 5:05,7/29/2019 5:12
No Data,TRANSFER,28001,28001,7/29/2019 5:13,7/29/2019 7:39
No Data,TRANSFER,28001,28005,7/29/2019 7:46,7/29/2019 9:36
No Data,TRANSFER,28005,28005,7/29/2019 9:37,7/29/2019 16:12
No Data,N2 SPARGE FOR 30 MINUTES,28005,28005,7/29/2019 9:38,7/29/2019 10:07
No Data,SPARGE COMPLETE...OKAY TO INITIATE...ALMACK TO TURN OFF SPARGES,28005,28005,7/29/2019 10:08,7/29/2019 10:08
No Data,REACTION STARTED.....RAMPING TO TURN 1,28005,28005,7/29/2019 10:09,7/29/2019 10:54
No Data,WAITING ON TURN 1,28005,28005,7/29/2019 10:55,7/29/2019 11:41
No Data,CONTROL AIR ON. AUTO RESPARGE AT TEMP < 62,28005,28005,7/29/2019 11:42,7/29/2019 11:45
No Data,RESPARGING 20 MINUTES AND TEMP < TOPTEMP TO RESTART,28005,28005,7/29/2019 11:46,7/29/2019 12:05
No Data,RESTARTING....LOOKING FOR INDUCTION,28005,28005,7/29/2019 12:06,7/29/2019 12:14
No Data,WAITING ON TURN 2,28005,28005,7/29/2019 12:15,7/29/2019 12:36
No Data,ADDING SMBS IN ONE LB INCREMENTS,28005,28005,7/29/2019 12:37,7/29/2019 12:42
No Data,PUMP SETPT TO REMOTE FOR TARGET TEMP..,28005,28005,7/29/2019 12:43,7/29/2019 12:52
No Data,TESTING REACTION FOR COMPLETION,28005,28005,7/29/2019 12:53,7/29/2019 13:12
No Data,REACTION COMPLETE....COOLING FOR TRANSFER,28005,28005,7/29/2019 13:13,7/29/2019 13:24
No Data,RINSE COMPLETE. DRAIN AND CHECK H2O2,28005,28007,7/30/2019 0:59,7/30/2019 2:28
No Data,N2 SPARGE FOR 30 MINUTES,28007,28007,7/30/2019 2:29,7/30/2019 2:58
No Data,SPARGE COMPLETE...OKAY TO INITIATE...ALMACK TO TURN OFF SPARGES,28007,28007,7/30/2019 2:59,7/30/2019 3:00
No Data,REACTION STARTED.....RAMPING TO TURN 1,28007,28007,7/30/2019 3:01,7/30/2019 3:31
No Data,WAITING ON TURN 1,28007,28007,7/30/2019 3:32,7/30/2019 3:43
No Data,WAITING ON TURN 2,28007,28007,7/30/2019 3:44,7/30/2019 3:45
No Data,ADDING SMBS IN ONE LB INCREMENTS,28007,28007,7/30/2019 3:46,7/30/2019 5:49
No Data,PUMP SETPT TO REMOTE FOR TARGET TEMP..,28007,28007,7/30/2019 5:50,7/30/2019 6:06
No Data,TESTING REACTION FOR COMPLETION,28007,28007,7/30/2019 6:07,7/30/2019 6:26
No Data,TRANSFER,28007,28007,7/30/2019 6:27,7/30/2019 7:06
CT19H6002,TRANSFER,6002,CT19H10001,8/6/2019 4:55,8/6/2019 6:37
CT19H6002,N2 SPARGE FOR 30 MINUTES,10001,CT19H10001,8/6/2019 6:38,8/6/2019 6:39
CT19H10001,N2 SPARGE FOR 30 MINUTES,10001,CT19H10001,8/6/2019 6:40,8/6/2019 7:07
CT19H10001,SPARGE COMPLETE...OKAY TO INITIATE...ALMACK TO TURN OFF SPARGES,10001,CT19H10001,8/6/2019 7:08,8/6/2019 7:10
CT19H10001,SPARGES OFF...PUMP TO AUTO TO START,10001,CT19H10001,8/6/2019 7:11,8/6/2019 7:11
CT19H10001,REACTION STARTED.....RAMPING TO TURN 1,10001,CT19H10001,8/6/2019 7:12,8/6/2019 7:49
CT19H10001,WAITING ON TURN 1,10001,CT19H10001,8/6/2019 7:50,8/6/2019 9:14
CT19H10001,WAITING ON TURN 2,10001,CT19H10001,8/6/2019 9:15,8/6/2019 9:16
CT19H10001,ADDING SMBS IN ONE LB INCREMENTS,10001,CT19H10001,8/6/2019 9:17,8/6/2019 9:43
CT19H10001,PUMP SETPT TO REMOTE FOR TARGET TEMP..,10001,CT19H10001,8/6/2019 9:44,8/6/2019 9:57
CT19H10001,TESTING REACTION FOR COMPLETION,10001,CT19H10001,8/6/2019 9:58,8/6/2019 10:17
CT19H10001,TRANSFER,10001,CT19H10001,8/6/2019 10:18,8/6/2019 16:31
CT19H10001,TRANSFER,10001,CT19H6007,8/6/2019 17:09,8/6/2019 20:36
CT19H10001,TRANSFER,6007,CT19H6007,8/6/2019 20:37,8/6/2019 20:37
CT19H6007,N2 SPARGE FOR 30 MINUTES,6007,CT19H6007,8/6/2019 20:38,8/6/2019 21:07
CT19H6007,SPARGE COMPLETE...OKAY TO INITIATE...ALMACK TO TURN OFF SPARGES,6007,CT19H6007,8/6/2019 21:08,8/6/2019 21:08
CT19H6007,SPARGES OFF...PUMP TO AUTO TO START,6007,CT19H6007,8/6/2019 21:09,8/6/2019 21:09
CT19H6007,REACTION STARTED.....RAMPING TO TURN 1,6007,CT19H6007,8/6/2019 21:10,8/6/2019 21:46
CT19H6007,WAITING ON TURN 1,6007,CT19H6007,8/6/2019 21:47,8/6/2019 23:10
CT19H6007,WAITING ON TURN 2,6007,CT19H6007,8/6/2019 23:11,8/6/2019 23:11
CT19H6007,ADDING SMBS IN ONE LB INCREMENTS,6007,CT19H6007,8/6/2019 23:12,8/6/2019 23:35
CT19H6007,PUMP SETPT TO REMOTE FOR TARGET TEMP..,6007,CT19H6007,8/6/2019 23:36,8/6/2019 23:51
CT19H6007,TESTING REACTION FOR COMPLETION,6007,CT19H6007,8/6/2019 23:52,8/7/2019 0:11
CT19H6007,REACTION COMPLETE....COOLING FOR TRANSFER,6007,CT19H6007,8/7/2019 0:12,8/7/2019 0:17
CT19H6007,TRANSFER,6007,CT19H6007,8/7/2019 0:18,8/7/2019 1:56
CT19H6007,RINSE COMPLETE. DRAIN AND CHECK H2O2,6007,CT19H8004,8/7/2019 10:02,8/7/2019 12:09
CT19H6007,N2 SPARGE FOR 30 MINUTES,6007,CT19H8004,8/7/2019 12:10,8/7/2019 12:10
CT19H6007,N2 SPARGE FOR 30 MINUTES,8004,CT19H8004,8/7/2019 12:11,8/7/2019 12:11
CT19H8004,N2 SPARGE FOR 30 MINUTES,8004,CT19H8004,8/7/2019 12:12,8/7/2019 12:39
CT19H8004,SPARGE COMPLETE...OKAY TO INITIATE...ALMACK TO TURN OFF SPARGES,8004,CT19H8004,8/7/2019 12:40,8/7/2019 12:45
CT19H8004,SPARGES OFF...PUMP TO AUTO TO START,8004,CT19H8004,8/7/2019 12:46,8/7/2019 12:46
CT19H8004,REACTION STARTED.....RAMPING TO TURN 1,8004,CT19H8004,8/7/2019 12:47,8/7/2019 13:16
CT19H8004,WAITING ON TURN 1,8004,CT19H8004,8/7/2019 13:17,8/7/2019 14:40
CT19H8004,WAITING ON TURN 2,8004,CT19H8004,8/7/2019 14:41,8/7/2019 14:45
CT19H8004,ADDING SMBS IN ONE LB INCREMENTS,8004,CT19H8004,8/7/2019 14:46,8/7/2019 15:20
CT19H8004,PUMP SETPT TO REMOTE FOR TARGET TEMP..,8004,CT19H8004,8/7/2019 15:21,8/7/2019 15:36
CT19H8004,TESTING REACTION FOR COMPLETION,8004,CT19H8004,8/7/2019 15:37,8/7/2019 15:56
CT19H8004,REACTION COMPLETE....COOLING FOR TRANSFER,8004,CT19H8004,8/7/2019 15:57,8/7/2019 15:57
CT19H8004,TRANSFER,8004,CT19H8004,8/7/2019 15:58,8/7/2019 16:33
CT19H8004,TRANSFER,8004,CT19H8002,8/7/2019 21:31,8/8/2019 1:06
CT19H8004,N2 SPARGE FOR 30 MINUTES,8004,CT19H8002,8/8/2019 1:07,8/8/2019 1:07
CT19H8004,N2 SPARGE FOR 30 MINUTES,8002,CT19H8002,8/8/2019 1:08,8/8/2019 1:09
CT19H8002,N2 SPARGE FOR 30 MINUTES,8002,CT19H8002,8/8/2019 1:10,8/8/2019 1:36
CT19H8002,SPARGE COMPLETE...OKAY TO INITIATE...ALMACK TO TURN OFF SPARGES,8002,CT19H8002,8/8/2019 1:37,8/8/2019 1:38
CT19H8002,REACTION STARTED.....RAMPING TO TURN 1,8002,CT19H8002,8/8/2019 1:39,8/8/2019 2:06
CT19H8002,WAITING ON TURN 1,8002,CT19H8002,8/8/2019 2:07,8/8/2019 2:18
CT19H8002,WAITING ON TURN 2,8002,CT19H8002,8/8/2019 2:19,8/8/2019 2:21
CT19H8002,ADDING SMBS IN ONE LB INCREMENTS,8002,CT19H8002,8/8/2019 2:22,8/8/2019 4:12
CT19H8002,PUMP SETPT TO REMOTE FOR TARGET TEMP..,8002,CT19H8002,8/8/2019 4:13,8/8/2019 4:32
CT19H8002,TESTING REACTION FOR COMPLETION,8002,CT19H8002,8/8/2019 4:33,8/8/2019 4:52
CT19H8002,TRANSFER,8002,CT19H8002,8/8/2019 4:53,8/8/2019 23:58
CT19H11004,RINSE COMPLETE. DRAIN AND CHECK H2O2,11004,CT19H12001,8/11/2019 19:05,8/11/2019 21:48
CT19H11004,N2 SPARGE FOR 30 MINUTES,12001,CT19H12001,8/11/2019 21:49,8/11/2019 21:49
CT19H12001,N2 SPARGE FOR 30 MINUTES,12001,CT19H12001,8/11/2019 21:50,8/11/2019 22:18
CT19H12001,SPARGE COMPLETE...OKAY TO INITIATE...ALMACK TO TURN OFF SPARGES,12001,CT19H12001,8/11/2019 22:19,8/11/2019 22:20
CT19H12001,REACTION STARTED.....RAMPING TO TURN 1,12001,CT19H12001,8/11/2019 22:21,8/11/2019 22:55
CT19H12001,WAITING ON TURN 1,12001,CT19H12001,8/11/2019 22:56,8/11/2019 23:15
CT19H12001,WAITING ON TURN 2,12001,CT19H12001,8/11/2019 23:16,8/11/2019 23:20
CT19H12001,ADDING SMBS IN ONE LB INCREMENTS,12001,CT19H12001,8/11/2019 23:21,8/12/2019 1:05
CT19H12001,PUMP SETPT TO REMOTE FOR TARGET TEMP..,12001,CT19H12001,8/12/2019 1:06,8/12/2019 1:19
CT19H12001,TESTING REACTION FOR COMPLETION,12001,CT19H12001,8/12/2019 1:20,8/12/2019 1:39
CT19H12001,TRANSFER,12001,CT19H12001,8/12/2019 1:40,8/12/2019 2:13
CT19H12001,TRANSFER,12001,CT19H12003,8/12/2019 2:19,8/12/2019 3:55
CT19H12003,N2 SPARGE FOR 30 MINUTES,12003,CT19H12003,8/12/2019 3:56,8/12/2019 4:25
CT19H12003,SPARGE COMPLETE...OKAY TO INITIATE...ALMACK TO TURN OFF SPARGES,12003,CT19H12003,8/12/2019 4:26,8/12/2019 4:26
CT19H12003,REACTION STARTED.....RAMPING TO TURN 1,12003,CT19H12003,8/12/2019 4:27,8/12/2019 4:56
CT19H12003,WAITING ON TURN 1,12003,CT19H12003,8/12/2019 4:57,8/12/2019 5:06
CT19H12003,WAITING ON TURN 2,12003,CT19H12003,8/12/2019 5:07,8/12/2019 5:08
CT19H12003,ADDING SMBS IN ONE LB INCREMENTS,12003,CT19H12003,8/12/2019 5:09,8/12/2019 6:42
CT19H12003,PUMP SETPT TO REMOTE FOR TARGET TEMP..,12003,CT19H12003,8/12/2019 6:43,8/12/2019 7:31
CT19H12003,TESTING REACTION FOR COMPLETION,12003,CT19H12003,8/12/2019 7:02,8/12/2019 7:51
CT19H12003,TRANSFER,12003,CT19H12003,8/12/2019 7:52,8/12/2019 8:23
CT19H13004,RINSE COMPLETE. DRAIN AND CHECK H2O2,13004,CT19H14008,8/14/2019 20:06,8/14/2019 22:58
CT19H13004,RINSE COMPLETE. DRAIN AND CHECK H2O2,14008,CT19H14008,8/14/2019 22:59,8/14/2019 22:59
CT19H14008,N2 SPARGE FOR 30 MINUTES,14008,CT19H14008,8/14/2019 23:00,8/14/2019 23:29
CT19H14008,SPARGES OFF...PUMP TO AUTO TO START,14008,CT19H14008,8/14/2019 23:30,8/14/2019 23:30
CT19H14008,REACTION STARTED.....RAMPING TO TURN 1,14008,CT19H14008,8/14/2019 23:31,8/15/2019 0:09
CT19H14008,WAITING ON TURN 1,14008,CT19H14008,8/15/2019 0:10,8/15/2019 0:22
CT19H14008,WAITING ON TURN 2,14008,CT19H14008,8/15/2019 0:23,8/15/2019 0:24
CT19H14008,ADDING SMBS IN ONE LB INCREMENTS,14008,CT19H14008,8/15/2019 0:25,8/15/2019 2:04
CT19H14008,PUMP SETPT TO REMOTE FOR TARGET TEMP..,14008,CT19H14008,8/15/2019 2:05,8/15/2019 2:52
CT19H14008,TESTING REACTION FOR COMPLETION,14008,CT19H14008,8/15/2019 2:24,8/15/2019 3:12
CT19H14008,TRANSFER,14008,CT19H14008,8/15/2019 3:13,8/15/2019 5:26
CT19H22001,RINSE COMPLETE. DRAIN AND CHECK H2O2,22001,CT19H29005,8/28/2019 19:26,8/28/2019 22:41
CT19H22001,RINSE COMPLETE. DRAIN AND CHECK H2O2,29005,CT19H29005,8/28/2019 22:42,8/28/2019 22:42
CT19H22001,N2 SPARGE FOR 30 MINUTES,29005,CT19H29005,8/28/2019 22:43,8/28/2019 22:43
CT19H29005,N2 SPARGE FOR 30 MINUTES,29005,CT19H29005,8/28/2019 22:44,8/28/2019 23:12
CT19H29005,SPARGE COMPLETE...OKAY TO INITIATE...ALMACK TO TURN OFF SPARGES,29005,CT19H29005,8/28/2019 23:13,8/28/2019 23:15
CT19H29005,SPARGES OFF...PUMP TO AUTO TO START,29005,CT19H29005,8/28/2019 23:16,8/28/2019 23:16
CT19H29005,REACTION STARTED.....RAMPING TO TURN 1,29005,CT19H29005,8/28/2019 23:17,8/28/2019 23:54
CT19H29005,SLOW REACTION.....REFILL SMBS IF NECESSARY,29005,CT19H29005,8/28/2019 23:55,8/29/2019 0:18
CT19H29005,WAITING ON TURN 1,29005,CT19H29005,8/29/2019 0:19,8/29/2019 0:23
CT19H29005,RAMPING TO TURN 2,29005,CT19H29005,8/29/2019 0:24,8/29/2019 0:28
CT19H29005,WAITING ON TURN 2,29005,CT19H29005,8/29/2019 0:29,8/29/2019 0:33
CT19H29005,ADDING SMBS IN ONE LB INCREMENTS,29005,CT19H29005,8/29/2019 0:34,8/29/2019 1:37
CT19H29005,PUMP SETPT TO REMOTE FOR TARGET TEMP..,29005,CT19H29005,8/29/2019 1:38,8/29/2019 2:25
CT19H29005,TESTING REACTION FOR COMPLETION,29005,CT19H29005,8/29/2019 1:56,8/29/2019 2:31
CT19H29005,TRANSFER,29005,CT19H29005,8/29/2019 2:32,8/29/2019 3:03
CT19H29005,TRANSFER,29005,CT19H29007,8/29/2019 3:09,8/29/2019 5:05
CT19H29005,N2 SPARGE FOR 30 MINUTES,29007,CT19H29007,8/29/2019 5:06,8/29/2019 5:07
CT19H29007,N2 SPARGE FOR 30 MINUTES,29007,CT19H29007,8/29/2019 5:08,8/29/2019 5:35
CT19H29007,SPARGE COMPLETE...OKAY TO INITIATE...ALMACK TO TURN OFF SPARGES,29007,CT19H29007,8/29/2019 5:36,8/29/2019 5:37
CT19H29007,SPARGES OFF...PUMP TO AUTO TO START,29007,CT19H29007,8/29/2019 5:38,8/29/2019 5:38
CT19H29007,REACTION STARTED.....RAMPING TO TURN 1,29007,CT19H29007,8/29/2019 5:39,8/29/2019 6:08
CT19H29007,WAITING ON TURN 1,29007,CT19H29007,8/29/2019 6:09,8/29/2019 6:18
CT19H29007,WAITING ON TURN 2,29007,CT19H29007,8/29/2019 6:19,8/29/2019 6:19
CT19H29007,ADDING SMBS IN ONE LB INCREMENTS,29007,CT19H29007,8/29/2019 6:20,8/29/2019 7:43
CT19H29007,PUMP SETPT TO REMOTE FOR TARGET TEMP..,29007,CT19H29007,8/29/2019 7:44,8/29/2019 7:59
CT19H29007,TESTING REACTION FOR COMPLETION,29007,CT19H29007,8/29/2019 8:00,8/29/2019 8:19
CT19H29007,TRANSFER,29007,CT19H29007,8/29/2019 8:20,8/29/2019 9:03
CT19I31003,RINSE COMPLETE. DRAIN AND CHECK H2O2,31003,CT19I4007,9/4/2019 19:53,9/4/2019 23:06
CT19I31003,RINSE COMPLETE. DRAIN AND CHECK H2O2,4007,CT19I4007,9/4/2019 23:07,9/4/2019 23:07
CT19I4007,RINSE COMPLETE. DRAIN AND CHECK H2O2,4007,CT19I4007,9/4/2019 23:08,9/4/2019 23:08
CT19I4007,N2 SPARGE FOR 30 MINUTES,4007,CT19I4007,9/4/2019 23:09,9/4/2019 23:38
CT19I4007,SPARGE COMPLETE...OKAY TO INITIATE...ALMACK TO TURN OFF SPARGES,4007,CT19I4007,9/4/2019 23:39,9/4/2019 23:39
CT19I4007,SPARGES OFF...PUMP TO AUTO TO START,4007,CT19I4007,9/4/2019 23:40,9/4/2019 23:40
CT19I4007,REACTION STARTED.....RAMPING TO TURN 1,4007,CT19I4007,9/4/2019 23:41,9/5/2019 0:03
CT19I4007,WAITING ON TURN 1,4007,CT19I4007,9/5/2019 0:04,9/5/2019 1:51
CT19I4007,WAITING ON TURN 2,4007,CT19I4007,9/5/2019 1:52,9/5/2019 1:52
CT19I4007,ADDING SMBS IN ONE LB INCREMENTS,4007,CT19I4007,9/5/2019 1:53,9/5/2019 1:55
CT19I4007,PUMP SETPT TO REMOTE FOR TARGET TEMP..,4007,CT19I4007,9/5/2019 1:56,9/5/2019 2:02
CT19I4007,TESTING REACTION FOR COMPLETION,4007,CT19I4007,9/5/2019 2:03,9/5/2019 2:22
CT19I4007,REACTION COMPLETE....COOLING FOR TRANSFER,4007,CT19I4007,9/5/2019 2:23,9/5/2019 2:30
CT19I4007,TRANSFER,4007,CT19I4007,9/5/2019 2:31,9/5/2019 2:57
CT19I8005,TRANSFER,8005,CT19I8001,9/8/2019 5:12,9/8/2019 7:07
CT19I8001,N2 SPARGE FOR 30 MINUTES,8001,CT19I8001,9/8/2019 7:08,9/8/2019 7:37
CT19I8001,SPARGE COMPLETE...OKAY TO INITIATE...ALMACK TO TURN OFF SPARGES,8001,CT19I8001,9/8/2019 7:38,9/8/2019 7:38
CT19I8001,REACTION STARTED.....RAMPING TO TURN 1,8001,CT19I8001,9/8/2019 7:39,9/8/2019 8:04
CT19I8001,WAITING ON TURN 1,8001,CT19I8001,9/8/2019 8:05,9/8/2019 9:55
CT19I8001,WAITING ON TURN 2,8001,CT19I8001,9/8/2019 9:56,9/8/2019 9:56
CT19I8001,ADDING SMBS IN ONE LB INCREMENTS,8001,CT19I8001,9/8/2019 9:57,9/8/2019 10:09
CT19I8001,PUMP SETPT TO REMOTE FOR TARGET TEMP..,8001,CT19I8001,9/8/2019 10:10,9/8/2019 10:25
CT19I8001,TESTING REACTION FOR COMPLETION,8001,CT19I8001,9/8/2019 10:26,9/8/2019 10:45
CT19I8001,TRANSFER,8001,CT19I8001,9/8/2019 10:46,9/8/2019 11:37
CT19I8001,HEATING TO 80 FOR CLEANOUT...START TIMING AT 75,8001,CT19I8001,9/8/2019 11:38,9/8/2019 13:46
CT19I8001,TIMING 3 HOUR CLEANOUT,8001,CT19I8001,9/8/2019 13:47,9/8/2019 16:46
CT19I8001,3 HOUR CLEANOUT COMPLETE. PROCEED TO RINSE,8001,CT19I8001,9/8/2019 16:47,9/8/2019 18:00
CT19I8001,ADDING RINSE  MAX WT = 550000,8001,CT19I8001,9/8/2019 18:01,9/8/2019 18:28
CT19I8001,RINSE COMPLETE. DRAIN AND CHECK H2O2,8001,CT19I8001,9/8/2019 18:29,9/10/2019 3:27
CT19I8001,RINSE COMPLETE. DRAIN AND CHECK H2O2,10001,CT19I8001,9/10/2019 3:28,9/10/2019 3:28
CT19I8001,N2 SPARGE FOR 30 MINUTES,10001,CT19I8001,9/10/2019 3:29,9/10/2019 3:58
CT19I8001,SPARGE COMPLETE...OKAY TO INITIATE...ALMACK TO TURN OFF SPARGES,10001,CT19I8001,9/10/2019 3:59,9/10/2019 3:59
CT19I8001,SPARGES OFF...PUMP TO AUTO TO START,10001,CT19I8001,9/10/2019 4:00,9/10/2019 4:00
CT19I8001,REACTION STARTED.....RAMPING TO TURN 1,10001,CT19I8001,9/10/2019 4:01,9/10/2019 4:24
CT19I8001,WAITING ON TURN 1,10001,CT19I8001,9/10/2019 4:25,9/10/2019 4:34
CT19I8001,RAMPING TO TURN 2,10001,CT19I8001,9/10/2019 4:35,9/10/2019 4:41
CT19I8001,WAITING ON TURN 2,10001,CT19I8001,9/10/2019 4:42,9/10/2019 5:46
CT19I8001,ADDING SMBS IN ONE LB INCREMENTS,10001,CT19I8001,9/10/2019 5:47,9/10/2019 6:18
CT19I8001,PUMP SETPT TO REMOTE FOR TARGET TEMP..,10001,CT19I8001,9/10/2019 6:19,9/10/2019 6:33
CT19I8001,TESTING REACTION FOR COMPLETION,10001,CT19I8001,9/10/2019 6:34,9/10/2019 6:53
CT19I8001,TRANSFER,10001,CT19I8001,9/10/2019 6:54,9/10/2019 7:45
CT19I14005,RINSE COMPLETE. DRAIN AND CHECK H2O2,14005,CT19I15002,9/15/2019 21:02,9/15/2019 23:53
CT19I14005,RINSE COMPLETE. DRAIN AND CHECK H2O2,15002,CT19I15002,9/15/2019 23:54,9/15/2019 23:54
CT19I14005,N2 SPARGE FOR 30 MINUTES,15002,CT19I15002,9/15/2019 23:55,9/15/2019 23:55
CT19I15002,N2 SPARGE FOR 30 MINUTES,15002,CT19I15002,9/15/2019 23:56,9/16/2019 0:24
CT19I15002,SPARGE COMPLETE...OKAY TO INITIATE...ALMACK TO TURN OFF SPARGES,15002,CT19I15002,9/16/2019 0:25,9/16/2019 0:25
CT19I15002,SPARGES OFF...PUMP TO AUTO TO START,15002,CT19I15002,9/16/2019 0:26,9/16/2019 0:26
CT19I15002,REACTION STARTED.....RAMPING TO TURN 1,15002,CT19I15002,9/16/2019 0:27,9/16/2019 1:05
CT19I15002,SLOW REACTION.....REFILL SMBS IF NECESSARY,15002,CT19I15002,9/16/2019 1:06,9/16/2019 1:11
CT19I15002,WAITING ON TURN 1,15002,CT19I15002,9/16/2019 1:12,9/16/2019 1:17
CT19I15002,WAITING ON TURN 2,15002,CT19I15002,9/16/2019 1:18,9/16/2019 1:18
CT19I15002,ADDING SMBS IN ONE LB INCREMENTS,15002,CT19I15002,9/16/2019 1:19,9/16/2019 2:30
CT19I15002,PUMP SETPT TO REMOTE FOR TARGET TEMP..,15002,CT19I15002,9/16/2019 2:31,9/16/2019 3:19
CT19I15002,TESTING REACTION FOR COMPLETION,15002,CT19I15002,9/16/2019 2:52,9/16/2019 3:33
CT19I15002,TRANSFER,15002,CT19I15002,9/16/2019 3:34,9/16/2019 3:59
CT19I15002,TRANSFER,16008,CT19I16008,9/16/2019 4:11,9/16/2019 4:11
CT19I16008,TRANSFER,16008,CT19I16008,9/16/2019 4:12,9/16/2019 17:03
CT19I16008,N2 SPARGE FOR 30 MINUTES,16008,CT19I16008,9/16/2019 6:12,9/16/2019 6:41
CT19I16008,SPARGE COMPLETE...OKAY TO INITIATE...ALMACK TO TURN OFF SPARGES,16008,CT19I16008,9/16/2019 6:42,9/16/2019 6:43
CT19I16008,SPARGES OFF...PUMP TO AUTO TO START,16008,CT19I16008,9/16/2019 6:44,9/16/2019 6:44
CT19I16008,REACTION STARTED.....RAMPING TO TURN 1,16008,CT19I16008,9/16/2019 6:45,9/16/2019 7:20
CT19I16008,WAITING ON TURN 1,16008,CT19I16008,9/16/2019 7:21,9/16/2019 7:41
CT19I16008,WAITING ON TURN 2,16008,CT19I16008,9/16/2019 7:42,9/16/2019 7:43
CT19I16008,ADDING SMBS IN ONE LB INCREMENTS,16008,CT19I16008,9/16/2019 7:44,9/16/2019 9:24
CT19I16008,PUMP SETPT TO REMOTE FOR TARGET TEMP..,16008,CT19I16008,9/16/2019 9:25,9/16/2019 10:18
CT19I16008,TESTING REACTION FOR COMPLETION,16008,CT19I16008,9/16/2019 9:48,9/16/2019 10:38
