"","r216_lot_number","r216_step","r216batch_num_pv","batchid","start","finish"
"1","No Data","TRANSFER",17007,"13007",2019-07-18 05:30:40,2019-07-18 07:11:40
"2","No Data","N2 SPARGE FOR 30 MINUTES",13007,"13007",2019-07-18 07:12:40,2019-07-18 07:41:40
"3","No Data","SPARGE COMPLETE...OKAY TO INITIATE...ALMACK TO TURN OFF SPARGES",13007,"13007",2019-07-18 07:42:40,2019-07-18 07:43:40
"4","No Data","SPARGES OFF...PUMP TO AUTO TO START",13007,"13007",2019-07-18 07:44:40,2019-07-18 07:44:40
"5","No Data","REACTION STARTED.....RAMPING TO TURN 1",13007,"13007",2019-07-18 07:45:40,2019-07-18 08:29:40
"6","No Data","SLOW REACTION.....REFILL SMBS IF NECESSARY",13007,"13007",2019-07-18 08:30:40,2019-07-18 08:32:40
"7","No Data","WAITING ON TURN 1",13007,"13007",2019-07-18 08:33:40,2019-07-18 08:42:40
"8","No Data","WAITING ON TURN 2",13007,"13007",2019-07-18 08:43:40,2019-07-18 08:46:40
"9","No Data","ADDING SMBS IN ONE LB INCREMENTS",13007,"13007",2019-07-18 08:47:40,2019-07-18 10:23:40
"10","No Data","PUMP SETPT TO REMOTE FOR TARGET TEMP..",13007,"13007",2019-07-18 10:24:40,2019-07-18 10:38:40
"11","No Data","TESTING REACTION FOR COMPLETION",13007,"13007",2019-07-18 10:39:40,2019-07-18 10:58:40
"12","No Data","TRANSFER",13007,"13007",2019-07-18 10:59:40,2019-07-18 12:06:40
"13","No Data","RINSE COMPLETE. DRAIN AND CHECK H2O2",13007,"14006",2019-07-20 00:16:00,2019-07-20 02:26:00
"14","No Data","RINSE COMPLETE. DRAIN AND CHECK H2O2",14006,"14006",2019-07-20 02:27:00,2019-07-20 03:06:00
"15","No Data","N2 SPARGE FOR 30 MINUTES",14006,"14006",2019-07-20 03:07:00,2019-07-20 03:36:00
"16","No Data","SPARGE COMPLETE...OKAY TO INITIATE...ALMACK TO TURN OFF SPARGES",14006,"14006",2019-07-20 03:37:00,2019-07-20 03:38:00
"17","No Data","SPARGES OFF...PUMP TO AUTO TO START",14006,"14006",2019-07-20 03:39:00,2019-07-20 03:39:00
"18","No Data","REACTION STARTED.....RAMPING TO TURN 1",14006,"14006",2019-07-20 03:40:00,2019-07-20 04:17:00
"19","No Data","SLOW REACTION.....REFILL SMBS IF NECESSARY",14006,"14006",2019-07-20 04:18:00,2019-07-20 04:38:00
"20","No Data","WAITING ON TURN 1",14006,"14006",2019-07-20 04:39:00,2019-07-20 05:52:00
"21","No Data","CONTROL AIR ON. AUTO RESPARGE AT TEMP < 62",14006,"14006",2019-07-20 05:53:00,2019-07-20 05:54:00
"22","No Data","RESPARGING 20 MINUTES AND TEMP < TOPTEMP TO RESTART",14006,"14006",2019-07-20 05:55:00,2019-07-20 06:14:00
"23","No Data","RESTARTING....LOOKING FOR INDUCTION",14006,"14006",2019-07-20 06:15:00,2019-07-20 06:30:00
"24","No Data","WAITING ON TURN 2",14006,"14006",2019-07-20 06:31:00,2019-07-20 06:39:00
"25","No Data","ADDING SMBS IN ONE LB INCREMENTS",14006,"14006",2019-07-20 06:40:00,2019-07-20 06:43:00
"26","No Data","PUMP SETPT TO REMOTE FOR TARGET TEMP..",14006,"14006",2019-07-20 06:44:00,2019-07-20 06:49:00
"27","No Data","TESTING REACTION FOR COMPLETION",14006,"14006",2019-07-20 06:50:00,2019-07-20 07:09:00
"28","No Data","REACTION COMPLETE....COOLING FOR TRANSFER",14006,"14006",2019-07-20 07:10:00,2019-07-20 07:20:00
"29","No Data","TRANSFER",14006,"14006",2019-07-20 07:21:00,2019-07-20 15:50:00
"30","No Data","TRANSFER",14006,"20004",2019-07-20 15:57:52,2019-07-20 17:44:52
"31","No Data","N2 SPARGE FOR 30 MINUTES",20003,"20004",2019-07-20 17:45:52,2019-07-20 17:45:52
"32","No Data","N2 SPARGE FOR 30 MINUTES",20004,"20004",2019-07-20 17:46:52,2019-07-20 18:14:52
"33","No Data","REACTION STARTED.....RAMPING TO TURN 1",20004,"20004",2019-07-20 18:15:52,2019-07-20 18:56:52
"34","No Data","SLOW REACTION.....REFILL SMBS IF NECESSARY",20004,"20004",2019-07-20 18:57:52,2019-07-20 19:06:52
"35","No Data","WAITING ON TURN 1",20004,"20004",2019-07-20 19:07:52,2019-07-20 19:14:52
"36","No Data","WAITING ON TURN 2",20004,"20004",2019-07-20 19:15:52,2019-07-20 19:15:52
"37","No Data","ADDING SMBS IN ONE LB INCREMENTS",20004,"20004",2019-07-20 19:16:52,2019-07-20 21:19:52
"38","No Data","PUMP SETPT TO REMOTE FOR TARGET TEMP..",20004,"20004",2019-07-20 21:20:52,2019-07-20 22:19:52
"39","No Data","TESTING REACTION FOR COMPLETION",20004,"20004",2019-07-20 21:54:52,2019-07-20 22:39:52
"40","No Data","REACTION COMPLETE....COOLING FOR TRANSFER",20004,"20004",2019-07-20 22:40:52,2019-07-20 22:40:52
"41","No Data","TRANSFER",20004,"20004",2019-07-20 22:41:52,2019-07-21 03:24:52
"42","No Data","RINSE COMPLETE. DRAIN AND CHECK H2O2",25005,"24004",2019-07-26 04:26:52,2019-07-26 07:22:52
"43","No Data","N2 SPARGE FOR 30 MINUTES",24004,"24004",2019-07-26 07:23:52,2019-07-26 07:52:52
"44","No Data","SPARGE COMPLETE...OKAY TO INITIATE...ALMACK TO TURN OFF SPARGES",24004,"24004",2019-07-26 07:53:52,2019-07-26 07:53:52
"45","No Data","SPARGES OFF...PUMP TO AUTO TO START",24004,"24004",2019-07-26 07:54:52,2019-07-26 07:54:52
"46","No Data","REACTION STARTED.....RAMPING TO TURN 1",24004,"24004",2019-07-26 07:55:52,2019-07-26 08:31:52
"47","No Data","WAITING ON TURN 1",24004,"24004",2019-07-26 08:32:52,2019-07-26 10:16:52
"48","No Data","WAITING ON TURN 2",24004,"24004",2019-07-26 10:17:52,2019-07-26 10:17:52
"49","No Data","ADDING SMBS IN ONE LB INCREMENTS",24004,"24004",2019-07-26 10:18:52,2019-07-26 10:28:52
"50","No Data","PUMP SETPT TO REMOTE FOR TARGET TEMP..",24004,"24004",2019-07-26 10:29:52,2019-07-26 10:44:52
"51","No Data","TESTING REACTION FOR COMPLETION",24004,"24004",2019-07-26 10:45:52,2019-07-26 11:04:52
"52","No Data","REACTION COMPLETE....COOLING FOR TRANSFER",24004,"24004",2019-07-26 11:05:52,2019-07-26 11:13:52
"53","No Data","TRANSFER",24004,"24004",2019-07-26 11:14:52,2019-07-26 11:53:52
"54","No Data","TRANSFER",24004,"24006",2019-07-26 14:22:59,2019-07-26 19:11:59
"55","No Data","N2 SPARGE FOR 30 MINUTES",24006,"24006",2019-07-26 19:12:59,2019-07-26 19:41:59
"56","No Data","SPARGES OFF...PUMP TO AUTO TO START",24006,"24006",2019-07-26 19:42:59,2019-07-26 19:42:59
"57","No Data","REACTION STARTED.....RAMPING TO TURN 1",24006,"24006",2019-07-26 19:43:59,2019-07-26 20:14:59
"58","No Data","WAITING ON TURN 1",24006,"24006",2019-07-26 20:15:59,2019-07-26 20:55:59
"59","No Data","CONTROL AIR ON. AUTO RESPARGE AT TEMP < 62",24006,"24006",2019-07-26 20:56:59,2019-07-26 21:01:59
"60","No Data","RESPARGING 20 MINUTES AND TEMP < TOPTEMP TO RESTART",24006,"24006",2019-07-26 21:02:59,2019-07-26 21:21:59
"61","No Data","RESTARTING....LOOKING FOR INDUCTION",24006,"24006",2019-07-26 21:22:59,2019-07-26 21:31:59
"62","No Data","WAITING ON TURN 2",24006,"24006",2019-07-26 21:32:59,2019-07-26 22:12:59
"63","No Data","ADDING SMBS IN ONE LB INCREMENTS",24006,"24006",2019-07-26 22:13:59,2019-07-26 22:16:59
"64","No Data","PUMP SETPT TO REMOTE FOR TARGET TEMP..",24006,"24006",2019-07-26 22:17:59,2019-07-26 22:23:59
"65","No Data","TESTING REACTION FOR COMPLETION",24006,"24006",2019-07-26 22:24:59,2019-07-26 22:39:59
"66","No Data","REACTION COMPLETE....COOLING FOR TRANSFER",24006,"24006",2019-07-26 22:40:59,2019-07-26 22:46:59
"67","No Data","TRANSFER",24006,"24006",2019-07-26 22:47:59,2019-07-27 01:30:59
"68","No Data","RINSE COMPLETE. DRAIN AND CHECK H2O2",24006,"27007",2019-07-27 12:16:54,2019-07-27 15:07:54
"69","No Data","N2 SPARGE FOR 30 MINUTES",27007,"27007",2019-07-27 15:08:54,2019-07-27 15:37:54
"70","No Data","SPARGE COMPLETE...OKAY TO INITIATE...ALMACK TO TURN OFF SPARGES",27007,"27007",2019-07-27 15:38:54,2019-07-27 15:42:54
"71","No Data","SPARGES OFF...PUMP TO AUTO TO START",27007,"27007",2019-07-27 15:43:54,2019-07-27 15:43:54
"72","No Data","REACTION STARTED.....RAMPING TO TURN 1",27007,"27007",2019-07-27 15:44:54,2019-07-27 16:12:54
"73","No Data","WAITING ON TURN 1",27007,"27007",2019-07-27 16:13:54,2019-07-27 17:25:54
"74","No Data","CONTROL AIR ON. AUTO RESPARGE AT TEMP < 62",27007,"27007",2019-07-27 17:26:54,2019-07-27 17:27:54
"75","No Data","RESPARGING 20 MINUTES AND TEMP < TOPTEMP TO RESTART",27007,"27007",2019-07-27 17:28:54,2019-07-27 17:47:54
"76","No Data","RESTARTING....LOOKING FOR INDUCTION",27007,"27007",2019-07-27 17:48:54,2019-07-27 17:56:54
"77","No Data","WAITING ON TURN 2",27007,"27007",2019-07-27 17:57:54,2019-07-27 18:05:54
"78","No Data","ADDING SMBS IN ONE LB INCREMENTS",27007,"27007",2019-07-27 18:06:54,2019-07-27 18:09:54
"79","No Data","PUMP SETPT TO REMOTE FOR TARGET TEMP..",27007,"27007",2019-07-27 18:10:54,2019-07-27 18:21:54
"80","No Data","TESTING REACTION FOR COMPLETION",27007,"27007",2019-07-27 18:22:54,2019-07-27 18:41:54
"81","No Data","REACTION COMPLETE....COOLING FOR TRANSFER",27007,"27007",2019-07-27 18:42:54,2019-07-27 18:53:54
"82","No Data","TRANSFER",27007,"27007",2019-07-27 18:54:54,2019-07-28 00:49:54
"83","No Data","RINSE COMPLETE. DRAIN AND CHECK H2O2",27005,"28001",2019-07-28 23:19:21,2019-07-29 01:32:21
"84","No Data","RINSE COMPLETE. DRAIN AND CHECK H2O2",28001,"28001",2019-07-29 01:33:21,2019-07-29 01:33:21
"85","No Data","N2 SPARGE FOR 30 MINUTES",28001,"28001",2019-07-29 01:34:21,2019-07-29 02:03:21
"86","No Data","SPARGE COMPLETE...OKAY TO INITIATE...ALMACK TO TURN OFF SPARGES",28001,"28001",2019-07-29 02:04:21,2019-07-29 02:04:21
"87","No Data","REACTION STARTED.....RAMPING TO TURN 1",28001,"28001",2019-07-29 02:05:21,2019-07-29 02:46:21
"88","No Data","WAITING ON TURN 1",28001,"28001",2019-07-29 02:47:21,2019-07-29 04:35:21
"89","No Data","ADDING SMBS IN ONE LB INCREMENTS",28001,"28001",2019-07-29 04:36:21,2019-07-29 04:38:21
"90","No Data","PUMP SETPT TO REMOTE FOR TARGET TEMP..",28001,"28001",2019-07-29 04:39:21,2019-07-29 04:44:21
"91","No Data","TESTING REACTION FOR COMPLETION",28001,"28001",2019-07-29 04:45:21,2019-07-29 05:04:21
"92","No Data","REACTION COMPLETE....COOLING FOR TRANSFER",28001,"28001",2019-07-29 05:05:21,2019-07-29 05:12:21
"93","No Data","TRANSFER",28001,"28001",2019-07-29 05:13:21,2019-07-29 07:39:21
"94","No Data","TRANSFER",28001,"28005",2019-07-29 07:46:39,2019-07-29 09:36:39
"95","No Data","TRANSFER",28005,"28005",2019-07-29 09:37:39,2019-07-29 16:12:39
"96","No Data","N2 SPARGE FOR 30 MINUTES",28005,"28005",2019-07-29 09:38:39,2019-07-29 10:07:39
"97","No Data","SPARGE COMPLETE...OKAY TO INITIATE...ALMACK TO TURN OFF SPARGES",28005,"28005",2019-07-29 10:08:39,2019-07-29 10:08:39
"98","No Data","REACTION STARTED.....RAMPING TO TURN 1",28005,"28005",2019-07-29 10:09:39,2019-07-29 10:54:39
"99","No Data","WAITING ON TURN 1",28005,"28005",2019-07-29 10:55:39,2019-07-29 11:41:39
"100","No Data","CONTROL AIR ON. AUTO RESPARGE AT TEMP < 62",28005,"28005",2019-07-29 11:42:39,2019-07-29 11:45:39
"101","No Data","RESPARGING 20 MINUTES AND TEMP < TOPTEMP TO RESTART",28005,"28005",2019-07-29 11:46:39,2019-07-29 12:05:39
"102","No Data","RESTARTING....LOOKING FOR INDUCTION",28005,"28005",2019-07-29 12:06:39,2019-07-29 12:14:39
"103","No Data","WAITING ON TURN 2",28005,"28005",2019-07-29 12:15:39,2019-07-29 12:36:39
"104","No Data","ADDING SMBS IN ONE LB INCREMENTS",28005,"28005",2019-07-29 12:37:39,2019-07-29 12:42:39
"105","No Data","PUMP SETPT TO REMOTE FOR TARGET TEMP..",28005,"28005",2019-07-29 12:43:39,2019-07-29 12:52:39
"106","No Data","TESTING REACTION FOR COMPLETION",28005,"28005",2019-07-29 12:53:39,2019-07-29 13:12:39
"107","No Data","REACTION COMPLETE....COOLING FOR TRANSFER",28005,"28005",2019-07-29 13:13:39,2019-07-29 13:24:39
"108","No Data","RINSE COMPLETE. DRAIN AND CHECK H2O2",28005,"28007",2019-07-30 00:59:25,2019-07-30 02:28:25
"109","No Data","N2 SPARGE FOR 30 MINUTES",28007,"28007",2019-07-30 02:29:25,2019-07-30 02:58:25
"110","No Data","SPARGE COMPLETE...OKAY TO INITIATE...ALMACK TO TURN OFF SPARGES",28007,"28007",2019-07-30 02:59:25,2019-07-30 03:00:25
"111","No Data","REACTION STARTED.....RAMPING TO TURN 1",28007,"28007",2019-07-30 03:01:25,2019-07-30 03:31:25
"112","No Data","WAITING ON TURN 1",28007,"28007",2019-07-30 03:32:25,2019-07-30 03:43:25
"113","No Data","WAITING ON TURN 2",28007,"28007",2019-07-30 03:44:25,2019-07-30 03:45:25
"114","No Data","ADDING SMBS IN ONE LB INCREMENTS",28007,"28007",2019-07-30 03:46:25,2019-07-30 05:49:25
"115","No Data","PUMP SETPT TO REMOTE FOR TARGET TEMP..",28007,"28007",2019-07-30 05:50:25,2019-07-30 06:06:25
"116","No Data","TESTING REACTION FOR COMPLETION",28007,"28007",2019-07-30 06:07:25,2019-07-30 06:26:25
"117","No Data","TRANSFER",28007,"28007",2019-07-30 06:27:25,2019-07-30 07:06:25
"118","CT19H6002","TRANSFER",6002,"CT19H10001",2019-08-06 04:55:42,2019-08-06 06:37:42
"119","CT19H6002","N2 SPARGE FOR 30 MINUTES",10001,"CT19H10001",2019-08-06 06:38:42,2019-08-06 06:39:42
"120","CT19H10001","N2 SPARGE FOR 30 MINUTES",10001,"CT19H10001",2019-08-06 06:40:42,2019-08-06 07:07:42
"121","CT19H10001","SPARGE COMPLETE...OKAY TO INITIATE...ALMACK TO TURN OFF SPARGES",10001,"CT19H10001",2019-08-06 07:08:42,2019-08-06 07:10:42
"122","CT19H10001","SPARGES OFF...PUMP TO AUTO TO START",10001,"CT19H10001",2019-08-06 07:11:42,2019-08-06 07:11:42
"123","CT19H10001","REACTION STARTED.....RAMPING TO TURN 1",10001,"CT19H10001",2019-08-06 07:12:42,2019-08-06 07:49:42
"124","CT19H10001","WAITING ON TURN 1",10001,"CT19H10001",2019-08-06 07:50:42,2019-08-06 09:14:42
"125","CT19H10001","WAITING ON TURN 2",10001,"CT19H10001",2019-08-06 09:15:42,2019-08-06 09:16:42
"126","CT19H10001","ADDING SMBS IN ONE LB INCREMENTS",10001,"CT19H10001",2019-08-06 09:17:42,2019-08-06 09:43:42
"127","CT19H10001","PUMP SETPT TO REMOTE FOR TARGET TEMP..",10001,"CT19H10001",2019-08-06 09:44:42,2019-08-06 09:57:42
"128","CT19H10001","TESTING REACTION FOR COMPLETION",10001,"CT19H10001",2019-08-06 09:58:42,2019-08-06 10:17:42
"129","CT19H10001","TRANSFER",10001,"CT19H10001",2019-08-06 10:18:42,2019-08-06 16:31:42
"130","CT19H10001","TRANSFER",10001,"CT19H6007",2019-08-06 17:09:35,2019-08-06 20:36:35
"131","CT19H10001","TRANSFER",6007,"CT19H6007",2019-08-06 20:37:35,2019-08-06 20:37:35
"132","CT19H6007","N2 SPARGE FOR 30 MINUTES",6007,"CT19H6007",2019-08-06 20:38:35,2019-08-06 21:07:35
"133","CT19H6007","SPARGE COMPLETE...OKAY TO INITIATE...ALMACK TO TURN OFF SPARGES",6007,"CT19H6007",2019-08-06 21:08:35,2019-08-06 21:08:35
"134","CT19H6007","SPARGES OFF...PUMP TO AUTO TO START",6007,"CT19H6007",2019-08-06 21:09:35,2019-08-06 21:09:35
"135","CT19H6007","REACTION STARTED.....RAMPING TO TURN 1",6007,"CT19H6007",2019-08-06 21:10:35,2019-08-06 21:46:35
"136","CT19H6007","WAITING ON TURN 1",6007,"CT19H6007",2019-08-06 21:47:35,2019-08-06 23:10:35
"137","CT19H6007","WAITING ON TURN 2",6007,"CT19H6007",2019-08-06 23:11:35,2019-08-06 23:11:35
"138","CT19H6007","ADDING SMBS IN ONE LB INCREMENTS",6007,"CT19H6007",2019-08-06 23:12:35,2019-08-06 23:35:35
"139","CT19H6007","PUMP SETPT TO REMOTE FOR TARGET TEMP..",6007,"CT19H6007",2019-08-06 23:36:35,2019-08-06 23:51:35
"140","CT19H6007","TESTING REACTION FOR COMPLETION",6007,"CT19H6007",2019-08-06 23:52:35,2019-08-07 00:11:35
"141","CT19H6007","REACTION COMPLETE....COOLING FOR TRANSFER",6007,"CT19H6007",2019-08-07 00:12:35,2019-08-07 00:17:35
"142","CT19H6007","TRANSFER",6007,"CT19H6007",2019-08-07 00:18:35,2019-08-07 01:56:35
"143","CT19H6007","RINSE COMPLETE. DRAIN AND CHECK H2O2",6007,"CT19H8004",2019-08-07 10:02:47,2019-08-07 12:09:47
"144","CT19H6007","N2 SPARGE FOR 30 MINUTES",6007,"CT19H8004",2019-08-07 12:10:47,2019-08-07 12:10:47
"145","CT19H6007","N2 SPARGE FOR 30 MINUTES",8004,"CT19H8004",2019-08-07 12:11:47,2019-08-07 12:11:47
"146","CT19H8004","N2 SPARGE FOR 30 MINUTES",8004,"CT19H8004",2019-08-07 12:12:47,2019-08-07 12:39:47
"147","CT19H8004","SPARGE COMPLETE...OKAY TO INITIATE...ALMACK TO TURN OFF SPARGES",8004,"CT19H8004",2019-08-07 12:40:47,2019-08-07 12:45:47
"148","CT19H8004","SPARGES OFF...PUMP TO AUTO TO START",8004,"CT19H8004",2019-08-07 12:46:47,2019-08-07 12:46:47
"149","CT19H8004","REACTION STARTED.....RAMPING TO TURN 1",8004,"CT19H8004",2019-08-07 12:47:47,2019-08-07 13:16:47
"150","CT19H8004","WAITING ON TURN 1",8004,"CT19H8004",2019-08-07 13:17:47,2019-08-07 14:40:47
"151","CT19H8004","WAITING ON TURN 2",8004,"CT19H8004",2019-08-07 14:41:47,2019-08-07 14:45:47
"152","CT19H8004","ADDING SMBS IN ONE LB INCREMENTS",8004,"CT19H8004",2019-08-07 14:46:47,2019-08-07 15:20:47
"153","CT19H8004","PUMP SETPT TO REMOTE FOR TARGET TEMP..",8004,"CT19H8004",2019-08-07 15:21:47,2019-08-07 15:36:47
"154","CT19H8004","TESTING REACTION FOR COMPLETION",8004,"CT19H8004",2019-08-07 15:37:47,2019-08-07 15:56:47
"155","CT19H8004","REACTION COMPLETE....COOLING FOR TRANSFER",8004,"CT19H8004",2019-08-07 15:57:47,2019-08-07 15:57:47
"156","CT19H8004","TRANSFER",8004,"CT19H8004",2019-08-07 15:58:47,2019-08-07 16:33:47
"157","CT19H8004","TRANSFER",8004,"CT19H8002",2019-08-07 21:31:18,2019-08-08 01:06:18
"158","CT19H8004","N2 SPARGE FOR 30 MINUTES",8004,"CT19H8002",2019-08-08 01:07:18,2019-08-08 01:07:18
"159","CT19H8004","N2 SPARGE FOR 30 MINUTES",8002,"CT19H8002",2019-08-08 01:08:18,2019-08-08 01:09:18
"160","CT19H8002","N2 SPARGE FOR 30 MINUTES",8002,"CT19H8002",2019-08-08 01:10:18,2019-08-08 01:36:18
"161","CT19H8002","SPARGE COMPLETE...OKAY TO INITIATE...ALMACK TO TURN OFF SPARGES",8002,"CT19H8002",2019-08-08 01:37:18,2019-08-08 01:38:18
"162","CT19H8002","REACTION STARTED.....RAMPING TO TURN 1",8002,"CT19H8002",2019-08-08 01:39:18,2019-08-08 02:06:18
"163","CT19H8002","WAITING ON TURN 1",8002,"CT19H8002",2019-08-08 02:07:18,2019-08-08 02:18:18
"164","CT19H8002","WAITING ON TURN 2",8002,"CT19H8002",2019-08-08 02:19:18,2019-08-08 02:21:18
"165","CT19H8002","ADDING SMBS IN ONE LB INCREMENTS",8002,"CT19H8002",2019-08-08 02:22:18,2019-08-08 04:12:18
"166","CT19H8002","PUMP SETPT TO REMOTE FOR TARGET TEMP..",8002,"CT19H8002",2019-08-08 04:13:18,2019-08-08 04:32:18
"167","CT19H8002","TESTING REACTION FOR COMPLETION",8002,"CT19H8002",2019-08-08 04:33:18,2019-08-08 04:52:18
"168","CT19H8002","TRANSFER",8002,"CT19H8002",2019-08-08 04:53:18,2019-08-08 23:58:18
"169","CT19H11004","RINSE COMPLETE. DRAIN AND CHECK H2O2",11004,"CT19H12001",2019-08-11 19:05:38,2019-08-11 21:48:38
"170","CT19H11004","N2 SPARGE FOR 30 MINUTES",12001,"CT19H12001",2019-08-11 21:49:38,2019-08-11 21:49:38
"171","CT19H12001","N2 SPARGE FOR 30 MINUTES",12001,"CT19H12001",2019-08-11 21:50:38,2019-08-11 22:18:38
"172","CT19H12001","SPARGE COMPLETE...OKAY TO INITIATE...ALMACK TO TURN OFF SPARGES",12001,"CT19H12001",2019-08-11 22:19:38,2019-08-11 22:20:38
"173","CT19H12001","REACTION STARTED.....RAMPING TO TURN 1",12001,"CT19H12001",2019-08-11 22:21:38,2019-08-11 22:55:38
"174","CT19H12001","WAITING ON TURN 1",12001,"CT19H12001",2019-08-11 22:56:38,2019-08-11 23:15:38
"175","CT19H12001","WAITING ON TURN 2",12001,"CT19H12001",2019-08-11 23:16:38,2019-08-11 23:20:38
"176","CT19H12001","ADDING SMBS IN ONE LB INCREMENTS",12001,"CT19H12001",2019-08-11 23:21:38,2019-08-12 01:05:38
"177","CT19H12001","PUMP SETPT TO REMOTE FOR TARGET TEMP..",12001,"CT19H12001",2019-08-12 01:06:38,2019-08-12 01:19:38
"178","CT19H12001","TESTING REACTION FOR COMPLETION",12001,"CT19H12001",2019-08-12 01:20:38,2019-08-12 01:39:38
"179","CT19H12001","TRANSFER",12001,"CT19H12001",2019-08-12 01:40:38,2019-08-12 02:13:38
"180","CT19H12001","TRANSFER",12001,"CT19H12003",2019-08-12 02:19:49,2019-08-12 03:55:49
"181","CT19H12003","N2 SPARGE FOR 30 MINUTES",12003,"CT19H12003",2019-08-12 03:56:49,2019-08-12 04:25:49
"182","CT19H12003","SPARGE COMPLETE...OKAY TO INITIATE...ALMACK TO TURN OFF SPARGES",12003,"CT19H12003",2019-08-12 04:26:49,2019-08-12 04:26:49
"183","CT19H12003","REACTION STARTED.....RAMPING TO TURN 1",12003,"CT19H12003",2019-08-12 04:27:49,2019-08-12 04:56:49
"184","CT19H12003","WAITING ON TURN 1",12003,"CT19H12003",2019-08-12 04:57:49,2019-08-12 05:06:49
"185","CT19H12003","WAITING ON TURN 2",12003,"CT19H12003",2019-08-12 05:07:49,2019-08-12 05:08:49
"186","CT19H12003","ADDING SMBS IN ONE LB INCREMENTS",12003,"CT19H12003",2019-08-12 05:09:49,2019-08-12 06:42:49
"187","CT19H12003","PUMP SETPT TO REMOTE FOR TARGET TEMP..",12003,"CT19H12003",2019-08-12 06:43:49,2019-08-12 07:31:49
"188","CT19H12003","TESTING REACTION FOR COMPLETION",12003,"CT19H12003",2019-08-12 07:02:49,2019-08-12 07:51:49
"189","CT19H12003","TRANSFER",12003,"CT19H12003",2019-08-12 07:52:49,2019-08-12 08:23:49
"190","CT19H13004","RINSE COMPLETE. DRAIN AND CHECK H2O2",13004,"CT19H14008",2019-08-14 20:06:15,2019-08-14 22:58:15
"191","CT19H13004","RINSE COMPLETE. DRAIN AND CHECK H2O2",14008,"CT19H14008",2019-08-14 22:59:15,2019-08-14 22:59:15
"192","CT19H14008","N2 SPARGE FOR 30 MINUTES",14008,"CT19H14008",2019-08-14 23:00:15,2019-08-14 23:29:15
"193","CT19H14008","SPARGES OFF...PUMP TO AUTO TO START",14008,"CT19H14008",2019-08-14 23:30:15,2019-08-14 23:30:15
"194","CT19H14008","REACTION STARTED.....RAMPING TO TURN 1",14008,"CT19H14008",2019-08-14 23:31:15,2019-08-15 00:09:15
"195","CT19H14008","WAITING ON TURN 1",14008,"CT19H14008",2019-08-15 00:10:15,2019-08-15 00:22:15
"196","CT19H14008","WAITING ON TURN 2",14008,"CT19H14008",2019-08-15 00:23:15,2019-08-15 00:24:15
"197","CT19H14008","ADDING SMBS IN ONE LB INCREMENTS",14008,"CT19H14008",2019-08-15 00:25:15,2019-08-15 02:04:15
"198","CT19H14008","PUMP SETPT TO REMOTE FOR TARGET TEMP..",14008,"CT19H14008",2019-08-15 02:05:15,2019-08-15 02:52:15
"199","CT19H14008","TESTING REACTION FOR COMPLETION",14008,"CT19H14008",2019-08-15 02:24:15,2019-08-15 03:12:15
"200","CT19H14008","TRANSFER",14008,"CT19H14008",2019-08-15 03:13:15,2019-08-15 05:26:15
"201","CT19H22001","RINSE COMPLETE. DRAIN AND CHECK H2O2",22001,"CT19H29005",2019-08-28 19:26:55,2019-08-28 22:41:55
"202","CT19H22001","RINSE COMPLETE. DRAIN AND CHECK H2O2",29005,"CT19H29005",2019-08-28 22:42:55,2019-08-28 22:42:55
"203","CT19H22001","N2 SPARGE FOR 30 MINUTES",29005,"CT19H29005",2019-08-28 22:43:55,2019-08-28 22:43:55
"204","CT19H29005","N2 SPARGE FOR 30 MINUTES",29005,"CT19H29005",2019-08-28 22:44:55,2019-08-28 23:12:55
"205","CT19H29005","SPARGE COMPLETE...OKAY TO INITIATE...ALMACK TO TURN OFF SPARGES",29005,"CT19H29005",2019-08-28 23:13:55,2019-08-28 23:15:55
"206","CT19H29005","SPARGES OFF...PUMP TO AUTO TO START",29005,"CT19H29005",2019-08-28 23:16:55,2019-08-28 23:16:55
"207","CT19H29005","REACTION STARTED.....RAMPING TO TURN 1",29005,"CT19H29005",2019-08-28 23:17:55,2019-08-28 23:54:55
"208","CT19H29005","SLOW REACTION.....REFILL SMBS IF NECESSARY",29005,"CT19H29005",2019-08-28 23:55:55,2019-08-29 00:18:55
"209","CT19H29005","WAITING ON TURN 1",29005,"CT19H29005",2019-08-29 00:19:55,2019-08-29 00:23:55
"210","CT19H29005","RAMPING TO TURN 2",29005,"CT19H29005",2019-08-29 00:24:55,2019-08-29 00:28:55
"211","CT19H29005","WAITING ON TURN 2",29005,"CT19H29005",2019-08-29 00:29:55,2019-08-29 00:33:55
"212","CT19H29005","ADDING SMBS IN ONE LB INCREMENTS",29005,"CT19H29005",2019-08-29 00:34:55,2019-08-29 01:37:55
"213","CT19H29005","PUMP SETPT TO REMOTE FOR TARGET TEMP..",29005,"CT19H29005",2019-08-29 01:38:55,2019-08-29 02:25:55
"214","CT19H29005","TESTING REACTION FOR COMPLETION",29005,"CT19H29005",2019-08-29 01:56:55,2019-08-29 02:31:55
"215","CT19H29005","TRANSFER",29005,"CT19H29005",2019-08-29 02:32:55,2019-08-29 03:03:55
"216","CT19H29005","TRANSFER",29005,"CT19H29007",2019-08-29 03:09:57,2019-08-29 05:05:57
"217","CT19H29005","N2 SPARGE FOR 30 MINUTES",29007,"CT19H29007",2019-08-29 05:06:57,2019-08-29 05:07:57
"218","CT19H29007","N2 SPARGE FOR 30 MINUTES",29007,"CT19H29007",2019-08-29 05:08:57,2019-08-29 05:35:57
"219","CT19H29007","SPARGE COMPLETE...OKAY TO INITIATE...ALMACK TO TURN OFF SPARGES",29007,"CT19H29007",2019-08-29 05:36:57,2019-08-29 05:37:57
"220","CT19H29007","SPARGES OFF...PUMP TO AUTO TO START",29007,"CT19H29007",2019-08-29 05:38:57,2019-08-29 05:38:57
"221","CT19H29007","REACTION STARTED.....RAMPING TO TURN 1",29007,"CT19H29007",2019-08-29 05:39:57,2019-08-29 06:08:57
"222","CT19H29007","WAITING ON TURN 1",29007,"CT19H29007",2019-08-29 06:09:57,2019-08-29 06:18:57
"223","CT19H29007","WAITING ON TURN 2",29007,"CT19H29007",2019-08-29 06:19:57,2019-08-29 06:19:57
"224","CT19H29007","ADDING SMBS IN ONE LB INCREMENTS",29007,"CT19H29007",2019-08-29 06:20:57,2019-08-29 07:43:57
"225","CT19H29007","PUMP SETPT TO REMOTE FOR TARGET TEMP..",29007,"CT19H29007",2019-08-29 07:44:57,2019-08-29 07:59:57
"226","CT19H29007","TESTING REACTION FOR COMPLETION",29007,"CT19H29007",2019-08-29 08:00:57,2019-08-29 08:19:57
"227","CT19H29007","TRANSFER",29007,"CT19H29007",2019-08-29 08:20:57,2019-08-29 09:03:57
"228","CT19I31003","RINSE COMPLETE. DRAIN AND CHECK H2O2",31003,"CT19I4007",2019-09-04 19:53:53,2019-09-04 23:06:53
"229","CT19I31003","RINSE COMPLETE. DRAIN AND CHECK H2O2",4007,"CT19I4007",2019-09-04 23:07:53,2019-09-04 23:07:53
"230","CT19I4007","RINSE COMPLETE. DRAIN AND CHECK H2O2",4007,"CT19I4007",2019-09-04 23:08:53,2019-09-04 23:08:53
"231","CT19I4007","N2 SPARGE FOR 30 MINUTES",4007,"CT19I4007",2019-09-04 23:09:53,2019-09-04 23:38:53
"232","CT19I4007","SPARGE COMPLETE...OKAY TO INITIATE...ALMACK TO TURN OFF SPARGES",4007,"CT19I4007",2019-09-04 23:39:53,2019-09-04 23:39:53
"233","CT19I4007","SPARGES OFF...PUMP TO AUTO TO START",4007,"CT19I4007",2019-09-04 23:40:53,2019-09-04 23:40:53
"234","CT19I4007","REACTION STARTED.....RAMPING TO TURN 1",4007,"CT19I4007",2019-09-04 23:41:53,2019-09-05 00:03:53
"235","CT19I4007","WAITING ON TURN 1",4007,"CT19I4007",2019-09-05 00:04:53,2019-09-05 01:51:53
"236","CT19I4007","WAITING ON TURN 2",4007,"CT19I4007",2019-09-05 01:52:53,2019-09-05 01:52:53
"237","CT19I4007","ADDING SMBS IN ONE LB INCREMENTS",4007,"CT19I4007",2019-09-05 01:53:53,2019-09-05 01:55:53
"238","CT19I4007","PUMP SETPT TO REMOTE FOR TARGET TEMP..",4007,"CT19I4007",2019-09-05 01:56:53,2019-09-05 02:02:53
"239","CT19I4007","TESTING REACTION FOR COMPLETION",4007,"CT19I4007",2019-09-05 02:03:53,2019-09-05 02:22:53
"240","CT19I4007","REACTION COMPLETE....COOLING FOR TRANSFER",4007,"CT19I4007",2019-09-05 02:23:53,2019-09-05 02:30:53
"241","CT19I4007","TRANSFER",4007,"CT19I4007",2019-09-05 02:31:53,2019-09-05 02:57:53
"242","CT19I8005","TRANSFER",8005,"CT19I8001",2019-09-08 05:12:24,2019-09-08 07:07:24
"243","CT19I8001","N2 SPARGE FOR 30 MINUTES",8001,"CT19I8001",2019-09-08 07:08:24,2019-09-08 07:37:24
"244","CT19I8001","SPARGE COMPLETE...OKAY TO INITIATE...ALMACK TO TURN OFF SPARGES",8001,"CT19I8001",2019-09-08 07:38:24,2019-09-08 07:38:24
"245","CT19I8001","REACTION STARTED.....RAMPING TO TURN 1",8001,"CT19I8001",2019-09-08 07:39:24,2019-09-08 08:04:24
"246","CT19I8001","WAITING ON TURN 1",8001,"CT19I8001",2019-09-08 08:05:24,2019-09-08 09:55:24
"247","CT19I8001","WAITING ON TURN 2",8001,"CT19I8001",2019-09-08 09:56:24,2019-09-08 09:56:24
"248","CT19I8001","ADDING SMBS IN ONE LB INCREMENTS",8001,"CT19I8001",2019-09-08 09:57:24,2019-09-08 10:09:24
"249","CT19I8001","PUMP SETPT TO REMOTE FOR TARGET TEMP..",8001,"CT19I8001",2019-09-08 10:10:24,2019-09-08 10:25:24
"250","CT19I8001","TESTING REACTION FOR COMPLETION",8001,"CT19I8001",2019-09-08 10:26:24,2019-09-08 10:45:24
"251","CT19I8001","TRANSFER",8001,"CT19I8001",2019-09-08 10:46:24,2019-09-08 11:37:24
"252","CT19I8001","HEATING TO 80 FOR CLEANOUT...START TIMING AT 75",8001,"CT19I8001",2019-09-08 11:38:24,2019-09-08 13:46:24
"253","CT19I8001","TIMING 3 HOUR CLEANOUT",8001,"CT19I8001",2019-09-08 13:47:24,2019-09-08 16:46:24
"254","CT19I8001","3 HOUR CLEANOUT COMPLETE. PROCEED TO RINSE",8001,"CT19I8001",2019-09-08 16:47:24,2019-09-08 18:00:24
"255","CT19I8001","ADDING RINSE  MAX WT = 550000",8001,"CT19I8001",2019-09-08 18:01:24,2019-09-08 18:28:24
"256","CT19I8001","RINSE COMPLETE. DRAIN AND CHECK H2O2",8001,"CT19I8001",2019-09-08 18:29:24,2019-09-10 03:27:24
"257","CT19I8001","RINSE COMPLETE. DRAIN AND CHECK H2O2",10001,"CT19I8001",2019-09-10 03:28:24,2019-09-10 03:28:24
"258","CT19I8001","N2 SPARGE FOR 30 MINUTES",10001,"CT19I8001",2019-09-10 03:29:24,2019-09-10 03:58:24
"259","CT19I8001","SPARGE COMPLETE...OKAY TO INITIATE...ALMACK TO TURN OFF SPARGES",10001,"CT19I8001",2019-09-10 03:59:24,2019-09-10 03:59:24
"260","CT19I8001","SPARGES OFF...PUMP TO AUTO TO START",10001,"CT19I8001",2019-09-10 04:00:24,2019-09-10 04:00:24
"261","CT19I8001","REACTION STARTED.....RAMPING TO TURN 1",10001,"CT19I8001",2019-09-10 04:01:24,2019-09-10 04:24:24
"262","CT19I8001","WAITING ON TURN 1",10001,"CT19I8001",2019-09-10 04:25:24,2019-09-10 04:34:24
"263","CT19I8001","RAMPING TO TURN 2",10001,"CT19I8001",2019-09-10 04:35:24,2019-09-10 04:41:24
"264","CT19I8001","WAITING ON TURN 2",10001,"CT19I8001",2019-09-10 04:42:24,2019-09-10 05:46:24
"265","CT19I8001","ADDING SMBS IN ONE LB INCREMENTS",10001,"CT19I8001",2019-09-10 05:47:24,2019-09-10 06:18:24
"266","CT19I8001","PUMP SETPT TO REMOTE FOR TARGET TEMP..",10001,"CT19I8001",2019-09-10 06:19:24,2019-09-10 06:33:24
"267","CT19I8001","TESTING REACTION FOR COMPLETION",10001,"CT19I8001",2019-09-10 06:34:24,2019-09-10 06:53:24
"268","CT19I8001","TRANSFER",10001,"CT19I8001",2019-09-10 06:54:24,2019-09-10 07:45:24
"269","CT19I14005","RINSE COMPLETE. DRAIN AND CHECK H2O2",14005,"CT19I15002",2019-09-15 21:02:52,2019-09-15 23:53:52
"270","CT19I14005","RINSE COMPLETE. DRAIN AND CHECK H2O2",15002,"CT19I15002",2019-09-15 23:54:52,2019-09-15 23:54:52
"271","CT19I14005","N2 SPARGE FOR 30 MINUTES",15002,"CT19I15002",2019-09-15 23:55:52,2019-09-15 23:55:52
"272","CT19I15002","N2 SPARGE FOR 30 MINUTES",15002,"CT19I15002",2019-09-15 23:56:52,2019-09-16 00:24:52
"273","CT19I15002","SPARGE COMPLETE...OKAY TO INITIATE...ALMACK TO TURN OFF SPARGES",15002,"CT19I15002",2019-09-16 00:25:52,2019-09-16 00:25:52
"274","CT19I15002","SPARGES OFF...PUMP TO AUTO TO START",15002,"CT19I15002",2019-09-16 00:26:52,2019-09-16 00:26:52
"275","CT19I15002","REACTION STARTED.....RAMPING TO TURN 1",15002,"CT19I15002",2019-09-16 00:27:52,2019-09-16 01:05:52
"276","CT19I15002","SLOW REACTION.....REFILL SMBS IF NECESSARY",15002,"CT19I15002",2019-09-16 01:06:52,2019-09-16 01:11:52
"277","CT19I15002","WAITING ON TURN 1",15002,"CT19I15002",2019-09-16 01:12:52,2019-09-16 01:17:52
"278","CT19I15002","WAITING ON TURN 2",15002,"CT19I15002",2019-09-16 01:18:52,2019-09-16 01:18:52
"279","CT19I15002","ADDING SMBS IN ONE LB INCREMENTS",15002,"CT19I15002",2019-09-16 01:19:52,2019-09-16 02:30:52
"280","CT19I15002","PUMP SETPT TO REMOTE FOR TARGET TEMP..",15002,"CT19I15002",2019-09-16 02:31:52,2019-09-16 03:19:52
"281","CT19I15002","TESTING REACTION FOR COMPLETION",15002,"CT19I15002",2019-09-16 02:52:52,2019-09-16 03:33:52
"282","CT19I15002","TRANSFER",15002,"CT19I15002",2019-09-16 03:34:52,2019-09-16 03:59:52
"283","CT19I15002","TRANSFER",16008,"CT19I16008",2019-09-16 04:11:18,2019-09-16 04:11:18
"284","CT19I16008","TRANSFER",16008,"CT19I16008",2019-09-16 04:12:18,2019-09-16 17:03:18
"285","CT19I16008","N2 SPARGE FOR 30 MINUTES",16008,"CT19I16008",2019-09-16 06:12:18,2019-09-16 06:41:18
"286","CT19I16008","SPARGE COMPLETE...OKAY TO INITIATE...ALMACK TO TURN OFF SPARGES",16008,"CT19I16008",2019-09-16 06:42:18,2019-09-16 06:43:18
"287","CT19I16008","SPARGES OFF...PUMP TO AUTO TO START",16008,"CT19I16008",2019-09-16 06:44:18,2019-09-16 06:44:18
"288","CT19I16008","REACTION STARTED.....RAMPING TO TURN 1",16008,"CT19I16008",2019-09-16 06:45:18,2019-09-16 07:20:18
"289","CT19I16008","WAITING ON TURN 1",16008,"CT19I16008",2019-09-16 07:21:18,2019-09-16 07:41:18
"290","CT19I16008","WAITING ON TURN 2",16008,"CT19I16008",2019-09-16 07:42:18,2019-09-16 07:43:18
"291","CT19I16008","ADDING SMBS IN ONE LB INCREMENTS",16008,"CT19I16008",2019-09-16 07:44:18,2019-09-16 09:24:18
"292","CT19I16008","PUMP SETPT TO REMOTE FOR TARGET TEMP..",16008,"CT19I16008",2019-09-16 09:25:18,2019-09-16 10:18:18
"293","CT19I16008","TESTING REACTION FOR COMPLETION",16008,"CT19I16008",2019-09-16 09:48:18,2019-09-16 10:38:18
