"","start_time","end_time","product","lot_number","reactor","invert_tank","invert_base_weight","percent_off_of_batch_sheet_8","invert_dilution_weight","percent_off_of_batch_sheet_10","difference","last_in_invert","quality_30_sec","quality_1_min","batch1","batch_2","batch3","batch_4","reaction_profile_comments","oil","oil_pct_over_charge","brine","brine_pct_over_charge","water","water_pct_over_charge","marc_tank","marc_tank_pct_over_charge","mark_invert","mark_invert_pct_over_charge","x30"
"1",2019-06-27 16:35:00,2019-06-28 01:16:00,"FR-MC-#1","F28001","R-216","V502",22266,0.989819959991109,22411,0.997551856138164,0.00773189614705516,"FR-HVA",47.1,50.6,"X",NA,NA,NA,"Fast Exotherm Took Air",3508.9,-0.201934015927187,17636.23,0.0977921561950349,934.6,4.1917502787068,352,7.97546012269939,280.9,-13.8343558282209,NA
"2",NA,NA,"FR-MC-#2","F28002","R-216","V206",22375,0.994665481218048,22777,1.01384314074602,0.0191776595279678,"FR-HSM",44,46.1,"X",NA,NA,NA,"Fast Exotherm Took Air",3784.5,7.63651877133106,17618.9,-0.000567569101529853,862.2,-3.87959866220735,322.3,-1.13496932515337,292.5,-10.2760736196319,NA
"3",2019-07-02 08:26:00,2019-07-02 15:41:00,"FR-MC-#1","G02007","R-216","V206",22641,1.00649033118471,23191,1.03227098726965,0.0257806560849441,NA,64.7,66.6,"FR-MC","FR-MC","X",NA,"Fast Exotherm",3418,-2.7872582480091,17872.3,1.43765253419603,902,0.557413600891862,404,23.9263803680982,239,-26.6871165644172,NA
"4",NA,NA,"FR-MC-#2","G02008","R-216","V502",21972,0.976750388975328,22216,0.988872073355292,0.0121216843799646,NA,50.7,55.5,"FR-MC","FR-MC","X",NA,"Fast Exotherm",3481.7,-0.975540386803191,17620,0.00567569101538112,874,-2.56410256410256,446,36.8098159509202,282.9,-13.2208588957055,NA
"5",2019-07-07 10:52:00,2019-07-07 21:01:00,"FR-MC-#1","G07003","R-216","V206",22967,1.02098244054234,22902,1.01940710406837,-0.00157533647397279,NA,42.2,44.6,"X",NA,NA,NA,"Fast Exotherm, took air 3x",3451,-1.84869169510808,17582,-0.210000567569102,954.6,6.42140468227425,432,32.5153374233129,315.6,-3.19018404907975,NA
"6",NA,NA,"FR-MC-#2","G07004","R-216","V502",21443,0.953234052011558,22356,0.995103712276329,0.0418696602647706,NA,60,60.7,"X",NA,NA,NA,"Fast Exotherm, took air 3x",3470,-1.30830489192264,NA,-100,885,-1.33779264214047,348,6.74846625766871,253,-22.3926380368098,NA
"7",2019-07-07 21:01:00,2019-07-08 09:30:00,"FR-MC-#1","G07005","R-216","V502",22316,0.992042676150256,22436,0.998664648802635,0.0066219726523794,NA,40.1,43.8,"FR-MC","X",NA,NA,"Fast Exotherm",NA,NA,NA,NA,NA,NA,NA,NA,NA,NA,NA
"8",NA,NA,"FR-MC-#2","G08001","R-216","V215",22245,0.988886419204268,23037,1.02541618445651,0.0365297652522446,NA,NA,NA,NA,NA,NA,NA,"Fast Exotherm",NA,NA,NA,NA,NA,NA,NA,NA,NA,NA,NA
"9",2019-07-11 01:34:00,2019-07-11 20:46:00,"FR-MC-#1","G11004 (10 in PI)","R-216","V206",22723,1.01013558568571,23085,1.0275527463723,0.0174171606865881,NA,NA,NA,"X",NA,NA,NA,"Fast Exotherm (No shots) Took Air x2",NA,NA,NA,NA,NA,NA,NA,NA,NA,NA,NA
"10",NA,NA,"FR-MC-#2","G11005","R-216","V502",22278,0.990353411869304,22401,0.997106739072376,0.00675332720307176,NA,59.4,57.9,"X",NA,NA,NA,"Fast Exotherm (No shots) Took Air x2",NA,NA,NA,NA,NA,NA,NA,NA,NA,NA,NA
"11",2019-07-11 20:46:00,2019-07-12 16:39:00,"FR-MC-#1","G11007","R-216","V502",21620,0.961102467214937,22385,0.996394551767115,0.0352920845521781,NA,55.9,56.8,"FR-MC","X",NA,NA,"Fast Exotherm (No shots) Took Air",NA,NA,NA,NA,NA,NA,NA,NA,NA,NA,NA
"12",NA,NA,"FR-MC-#2","G11008","R-216","V206",23155,1.02933985330073,23087,1.02764176978545,-0.00169808351527978,NA,NA,NA,NA,NA,NA,NA,"Fast Exotherm (No shots) Took Air",NA,NA,NA,NA,NA,NA,NA,NA,NA,NA,NA
"13",2019-07-27 07:21:00,2019-07-27 21:00:00,"FR-MC-#1","G27007","R-216","V215",22939,1.01973771949322,23104.9,1.02843852933321,0.00870080983999411,NA,45.6,49.9,"X",NA,NA,NA,"Fast Exotherm (No shots) Took Air",3539,0.65415244596132,NA,NA,NA,NA,232,-28.8343558282209,344,5.52147239263804,"Tank Level Looks Weird"
"14",NA,NA,"FR-MC-#2","G27008","R-216","V215",22167,0.985418981995999,23074,1.02706311759993,0.0416441356039297,NA,33.2,37.5,NA,NA,NA,NA,"Fast Exotherm (No shots) Took Air",NA,NA,NA,NA,NA,NA,379,16.2576687116564,323,-0.920245398773006,NA
"15",2019-07-29 03:44:00,2019-07-29 12:20:00,"FR-MC-#1","G28004","R-216","V215",22853,1.01591464769949,23051,1.02603934834862,0.010124700649127,NA,30.2,36.5,"FR-MC","X",NA,NA,"Fast Exotherm (No shots) Took Air",NA,NA,NA,NA,NA,NA,NA,NA,350.6,7.54601226993862,NA
"16",NA,NA,"FR-MC-#2","G28005","R-216","V206",22505,1.00044454323183,22988,1.02323511083415,0.0227905676023201,NA,28,37.7,NA,NA,NA,NA,"Fast Exotherm (No shots) Took Air",NA,NA,NA,NA,NA,NA,NA,NA,354.4,8.71165644171782,NA
"17",2019-08-06 00:54:00,2019-08-06 12:04:00,"FR-MC-#1","H10001","R-216","V215",23186,1.0307179373194,23171,1.03138075313808,0.000662815818671003,NA,43.6,50.2,"FR-WH","X",NA,NA,"Fast Exotherm (15 min shots)",NA,NA,NA,NA,NA,NA,NA,NA,328.1,0.644171779141076,NA
"18",NA,NA,"FR-MC-#2","H10002","R-216","V206",22095,0.982218270726828,22992,1.02341315766046,0.0411948869336366,NA,33.6,37.1,"FR-WH","X",NA,NA,"Fast Exotherm (15 min shots)",NA,NA,NA,NA,NA,NA,NA,NA,NA,NA,NA
"19",2019-08-06 12:04:00,2019-08-06 22:04:00,"FR-MC-#1","H06007","R-216","V502",22235,0.988441875972438,22363.285,0.995427980058755,0.00698610408631717,NA,38.5,42.4,"FR-WH","FR-MC","X",NA,"Fast Exotherm (27 min shots)",NA,NA,NA,NA,NA,NA,NA,NA,318.9,-2.17791411042942,NA
"20",NA,NA,"FR-MC-#2","H06008","R-216","V215",22219,0.987730606801511,22891.32,1.01893171904211,0.0312011122405966,NA,61.5,65,"FR-WH","FR-MC","X",NA,"Fast Exotherm (27 min shots)",3455.2,-1.72923777019341,17529,-0.510812191384301,1089,21.4046822742475,NA,NA,268.5,-17.638036809816,"R211 dilution tank"
"21",2019-08-07 06:00:00,2019-08-07 12:49:00,"FR-MC-#1","H08004","R-216","V215",22841,1.01538119582129,23044,1.02572776640256,0.0103465705812702,NA,40.3,51.1,"X",NA,NA,NA,"Fast Exotherm (35 min shots)",NA,NA,NA,NA,NA,NA,NA,NA,328,0.613496932515337,NA
"22",NA,NA,"FR-MC-#2","H07006","R-216","V206",22029,0.979284285396755,23042,1.02563874298941,0.0463544575926514,NA,37.3,40.2,"X",NA,NA,NA,"Fast Exotherm (35 min shots)",NA,NA,NA,NA,NA,NA,NA,NA,331.6,1.71779141104292,NA
"23",2019-08-11 22:20:00,2019-08-12 04:32:00,"FR-MC-#1","H12003","R-216","V215",22942,1.01987108246277,22926,1.02047538502626,0.000604302563492531,NA,30.3,35.3,"FR-MC","X",NA,NA,"Shot on Shot off Full Double Test logic",NA,NA,NA,NA,NA,NA,NA,NA,339,3.98773006134969,NA
"24",NA,NA,"FR-MC-#2","H12004","R-216","V502",21926,0.974705490108913,22398,0.99697320395264,0.0222677138437265,NA,36.1,43.4,"FR-MC","X",NA,NA,"Shot on Shot off Full Double Test logic",NA,NA,NA,NA,NA,NA,NA,NA,334.6,2.63803680981592,NA
"25",2019-08-14 16:03:00,2019-08-15 01:36:00,"FR-MC-#1","H14008","R-216","V215",23116,1.0276061346966,23055,1.02621739517493,-0.00138873952166829,NA,37.3,40.9,"X",NA,NA,NA,"Shot on Shot off Full Double Test logic",NA,NA,NA,NA,NA,NA,NA,NA,363,11.3496932515337,"Dilution tank weight dips at the end"
"26",NA,NA,"FR-MC-#2","H14009","R-216","V206",22365,0.994220937986219,23042,1.02563874298941,0.0314178050031871,NA,44.8,47.2,"X",NA,NA,NA,"Shot on Shot off Full Double Test logic",NA,NA,NA,NA,NA,NA,NA,NA,323.7,-0.705521472392694,NA
"27",2019-08-28 14:25:00,2019-08-28 22:46:00,"FR-MC-#1","H29005","R-216","V215",23206,1.03160702378306,22885,1.01865040505653,-0.0129566187265329,NA,37.6,38,"X",NA,NA,NA,"Shot On Shot Off Slow Reaction Logic & Double Test",NA,NA,NA,NA,NA,NA,NA,NA,363,11.3496932515337,NA
"28",NA,NA,"FR-MC-#2","H29006","R-216","V206",23088,1.02636141364748,22767,1.01339802368023,-0.0129633899672494,NA,39.2,39.8,"X",NA,NA,NA,"Shot On Shot offSlow Reaction Logic & Double Test",NA,NA,NA,NA,NA,NA,NA,NA,NA,NA,NA
"29",2019-08-28 22:46:00,2019-08-29 05:10:00,"FR-MC-#1","H29007","R-216","V215",22754,1.01151366970438,22992,1.02341315766046,0.0118994879560861,NA,41.3,43.8,"FR-MC","X",NA,NA,"Batch following slow reaction barely got above turn",NA,NA,NA,NA,NA,NA,NA,NA,NA,NA,NA
"30",NA,NA,"FR-MC-#2","H29008","R-216","V206",22483,0.999466548121805,23092,1.02786432831835,0.0283977801965429,NA,32.6,37.5,"FR-MC","X",NA,NA,"Batch following slow reaction barely got above turn",NA,NA,NA,NA,NA,NA,NA,NA,NA,NA,NA
"31",2019-09-04 15:57:00,2019-09-04 23:09:00,"FR-MC-#1","I04007","R-216","V215",23019,1.02329406534786,23077,1.02719665271967,0.00390258737181015,NA,42.1,50.9,"X",NA,NA,NA,NA,NA,NA,NA,NA,NA,NA,NA,NA,331,1.53374233128834,NA
"32",NA,NA,"FR-MC-#2",NA,"R-216","V206",22157,0.98497443876417,22902,1.01940710406837,0.0344326653042001,NA,NA,NA,NA,NA,NA,NA,NA,NA,NA,NA,NA,NA,NA,NA,NA,NA,NA,NA
"33",2019-09-08 01:11:00,2019-09-08 07:43:00,"FR-MC-#1","I08001","R-216","V206",22980,1.02156034674372,22953,1.02167720110389,0.000116854360169505,NA,26.8,41.2,NA,NA,NA,NA,"New Turn Temps",NA,NA,NA,NA,NA,NA,NA,NA,317,-2.76073619631902,NA
"34",NA,NA,"FR-MC-#2","I08006","R-216","V502",21711,0.965147810624583,22193,0.987848304103979,0.0227004934793962,NA,29.7,38.9,NA,NA,NA,NA,NA,NA,NA,NA,NA,NA,NA,NA,NA,309,-5.21472392638037,NA
"35",NA,NA,"FR-MC-#1","I10001","R-216","V502",22375,0.994665481218048,22173,0.986958069972403,-0.00770741124564567,NA,39.5,41.4,NA,NA,NA,NA,NA,NA,NA,NA,NA,NA,NA,NA,NA,289,-11.3496932515337,"R211 dilution tank"
"36",NA,NA,"FR-MC-#2",NA,"R-216","V215",23253,1.03369637697266,23007,1.02408083325915,-0.00961554371351347,NA,NA,NA,NA,NA,NA,NA,NA,NA,NA,NA,NA,NA,NA,NA,NA,NA,NA,NA
