start_time,end_time,lot_number,color
6/27/2019 16:35,6/28/2019 1:16,F28001,blue
7/2/2019 8:26,7/2/2019 15:41,G02007,blue
7/7/2019 10:52,7/7/2019 21:01,G07003,blue
7/7/2019 21:01,7/8/2019 9:30,G07005,blue
7/11/2019 1:34,7/11/2019 20:46,G11004 (10 in PI),blue
7/11/2019 20:46,7/12/2019 16:39,G11007,blue
7/27/2019 7:21,7/27/2019 21:00,G27007,blue
7/29/2019 3:44,7/29/2019 12:20,G28004,blue
8/6/2019 0:54,8/6/2019 12:04,H10001,blue
8/6/2019 12:04,8/6/2019 22:04,H06007,blue
8/7/2019 6:00,8/7/2019 12:49,H08004,blue
8/11/2019 22:20,8/12/2019 4:32,H12003,blue
8/14/2019 16:03,8/15/2019 1:36,H14008,blue
8/28/2019 14:25,8/28/2019 22:46,H29005,blue
8/28/2019 22:46,8/29/2019 5:10,H29007,blue
9/4/2019 15:57,9/4/2019 23:09,I04007,blue
9/8/2019 1:11,9/8/2019 7:43,I08001,blue
