"0","df <- readxl::read_xlsx('20200214 FR Cost Comparison Template (Snyder Data).xlsx', sheet = 'All Data')"
"0",""
"0","column_names <- c('Expt', 'FR', 'FR Type', 'LOOP', 'Supplier', 'Loading (gpt)', 'Water',"
"0","                  '0.00', '0.17', '0.33', '0.50', '0.67', '0.83', '1.00', '1.17', '1.33',"
"0","                  '1.50', '1.67', '1.83', '2.00', '2.17', '2.33', '2.50', '2.67', '2.83',"
"0","                  '3.00', '3.17', '3.33', '3.50', '3.67', '3.83', '4.00', '4.17', '4.33',"
"0","                  '4.50', '4.67', '4.83', '5.00', 'Average', '3 gpt', '6 gpt', 'Date',"
"0","                  'Batch No', 'Sample', 'Pipe ID', 'Flow Rate')"
"0",""
"0","colnames(df) <- column_names"
