"batchid","RxnMinTemp","RxnMaxTemp","RxnAvgTemp","RxnInitTemp","RxnFinalTemp","RxnDuration_mins","AgitMin","AgitMax","AgitAvg","source","Thirty","Sixty"
"CT19G17006",49.25088,56.2979,54.7025694339623,49.25088,54.28345,105,75.46248,75.48111,75.4717922641509,"FDP-S1176M",38.6,50.9
"CT19G18003",46.59626,56.26028,54.373404765625,46.59626,54.2239,127,74.76086,74.76595,74.76339875,"FDP-S1176M",34.2,42.2
"CT19G19003",45.57795,55.86208,53.2524795,45.57795,54.34003,79,75.73798,75.80276,75.770372875,"FDP-S1176-15",48.6,57.3
"CT19G19005",45.3283,55.72547,52.7537283333333,45.3283,54.25586,71,74.49696,74.50401,74.5004845833333,"FDP-S1176M",32.6,47.2
"CT19G19006",48.39223,55.93727,54.287273,48.39223,54.11865,89,74.22044,74.34585,74.2831438888889,"FDP-S1176M",38.4,50.4
"CT19G20006",46.48116,55.73154,53.64907325,46.48116,54.14117,79,75.55616,75.64053,75.59834025,"FDP-S1176M",35.9,49.4
"CT19G24009",47.72544,55.31945,53.3092877586207,47.72544,54.2333,57,75.33062,75.34031,75.3354639655172,"FDP-S1176M",39.4,50.7
"CT19G25009",46.13203,54.9043,52.7503303333333,46.13203,54.06755,59,75.71709,75.75864,75.7378698333333,"FDP-S1176M",49.3,57.4
"CT19G25010",46.93849,55.58355,53.137700862069,46.93849,54.16176,57,75.4196,75.49374,75.4566712068965,"FDP-S1176M",35,50.2
"CT19I13002",46.04789,55.5167,53.0585955128205,46.04789,54.20269,77,72.07999,72.10389,72.0919378205128,"FDP-S1176M",30.3,41.3
"CT19I13003",45.09041,55.47486,52.805484625,45.09041,54.25206,79,75.16257,75.16564,75.164109125,"FDP-S1176M",24.2,37.7
"CT19I13004",45.8073,55.42226,52.8614144736842,45.8073,54.35493,75,75.23732,75.26484,75.2510811842105,"FDP-S1176M",32.6,42.6
"CT19I13005",45.94633,54.20161,51.8326911290323,45.94633,53.42573,61,74.1458,74.14763,74.1467133870968,"FDP-S1176M",31.5,41.9
"CT19I21007",44.13472,53.90972,51.2127102857143,44.13472,53.25859,69,72.3857,72.43934,72.412517,"FDP-S1176M",34,42.9
"CT19I22007",45.83929,54.18119,51.8460464516129,45.83929,53.57225,61,77.50563,77.54509,77.5253596774194,"FDP-S1176M",32.6,43
"CT19I25007",44.31734,54.93016,51.9328642857143,44.31734,54.12889,69,75.11646,75.14699,75.131723,"FDP-S1176M",35.6,46.5
"CT19H10001",44.54649,45.44107,45.1603007142857,45.28135,44.54649,27,101.3167,101.3206,101.318642857143,"R216 / FR-MC",43.6,50.2
"CT19H12001",41.41513,42.5428,42.2280729807692,41.41513,41.81836,103,101.5143,101.6434,101.553863461538,"R216 / FR-MC",34.1,36.8
"CT19H12003",41.18532,43.68489,42.8965472340426,41.18532,42.93606,93,101.1264,101.2053,101.165895744681,"R216 / FR-MC",30.3,35.3
"CT19H14008",41.30272,42.81384,42.3397983,41.30272,42.00457,99,101.6047,101.8613,101.732998,"R216 / FR-MC",37.3,40.9
"CT19H29005",39.13134,39.98983,39.769700625,39.77094,39.13134,63,102.062,102.1616,102.1118234375,"R216 / FR-MC",37.6,38
"CT19H29007",40.64766,42.19661,41.6282617857143,40.64766,41.2999,83,101.329,101.3953,101.362122619048,"R216 / FR-MC",39.2,39.8
"CT19I15002",39.32779,40.08583,39.8933773611111,39.6884,39.32779,71,101.7579,101.9306,101.844251388889,"R216 / FR-MC",56.4,55
"CT19I16008",41.63234,44.1725,43.2597859803922,41.63234,43.36165,101,101.034,101.0386,101.036319607843,"R216 / FR-MC",42.2,49.4
