"","SOURCE","BATCHID","START","END","DURATION","FlowLoopSource","FR_30sec","FR_60sec"
"1","R201 S1176","CT19F23002",2019-06-22 19:26:04,2019-06-22 23:11:04,3.75,"FDP-S1176M",31.1,45.4
"2","R201 S1176","CT19F23003",2019-06-22 23:20:42,2019-06-23 03:32:42,4.2,"FDP-S1176M",31.2,45.5
"3","R201 S1176","CT19F24001",2019-06-23 03:41:44,2019-06-23 08:31:44,4.83,"FDP-S1176-15",51.8,60.8
"4","R201 S1176","CT19F24002",2019-06-23 08:34:33,2019-06-23 12:49:33,4.25,"FDP-S1176-15",49,59.3
"5","R201 S1176","CT19F26001",2019-06-26 00:14:53,2019-06-26 05:16:53,5.03,"FDP-S1176-15",52.4,60.2
"6","R201 S1176","CT19F26002",2019-06-26 05:50:51,2019-06-26 11:31:51,5.68,"FDP-S1176-15",49.6,59.4
"7","R201 S1176","CT19F26003",2019-06-26 11:36:32,2019-06-26 15:39:32,4.05,"FDP-S1176-15",50.5,59.7
"8","R201 S1176","CT19F28003",2019-06-27 18:41:37,2019-06-27 23:10:37,4.48,"FDP-S1176-15",48.9,58.5
"9","R201 S1176","CT19F28006",2019-06-28 00:40:10,2019-06-28 06:40:10,6,"FDP-S1176-15",52.3,61.3
"10","R201 S1176","CT19F28007",2019-06-28 06:42:11,2019-06-28 10:41:11,3.98,"FDP-S1176-15",50.9,58.6
"11","R201 S1176","CT19F30005",2019-06-30 05:45:33,2019-06-30 11:06:33,5.35,"FDP-S1176-15",56,62
"12","R201 S1176","CT19F30006",2019-06-30 11:08:44,2019-06-30 16:22:44,5.23,"FDP-S1176-15",52.7,61.5
"13","R201 S1176","CT19F30007",2019-06-30 16:28:28,2019-06-30 21:29:28,5.02,"FR-HSM",39.7,43.8
"14","R201 S1176","CT19G02005",2019-07-01 20:40:59,2019-07-02 02:05:59,5.42,"FDP-S1176-15",44.7,53.6
"15","R201 S1176","CT19G05001",2019-07-05 12:38:51,2019-07-05 17:10:51,4.53,"FDP-S1176-15",51.3,59.2
"16","R201 S1176","CT19G07001",2019-07-07 01:09:54,2019-07-07 08:51:54,7.7,"FDP-S1176-15",44.4,55.2
"17","R201 S1176","CT19G07006",2019-07-07 18:30:42,2019-07-08 05:14:42,10.73,"FDP-S1176-15",50.7,59
"18","R201 S1176","CT19G08006",2019-07-09 03:37:59,2019-07-09 07:38:59,4.02,"FDP-S1176-15",51.7,58.8
"19","R201 S1176","CT19G10003",2019-07-10 12:22:16,2019-07-10 16:43:16,4.35,"FDP-S1176M",36.3,48.3
"20","R201 S1176","CT19G12002",2019-07-11 22:30:26,2019-07-12 04:04:26,5.57,"FDP-S1176M",36.1,47.3
"21","R201 S1176","CT19G13010",2019-07-13 11:39:16,2019-07-13 17:28:16,5.82,"FDP-S1176M",33.5,47.5
"22","R201 S1176","CT19G15003",2019-07-15 14:00:37,2019-07-15 18:44:37,4.73,"FDP-S1176-15",40.2,52.8
"23","R201 S1176","CT19G17006",2019-07-17 18:59:27,2019-07-18 02:22:27,7.38,"FDP-S1176M",38.6,50.9
"24","R201 S1176","CT19G18003",2019-07-18 02:24:00,2019-07-18 08:40:00,6.27,"FDP-S1176M",34.2,42.2
"25","R201 S1176","CT19G19003",2019-07-19 00:36:00,2019-07-19 05:42:00,5.1,"FDP-S1176-15",48.6,57.3
"26","R201 S1176","CT19G19005",2019-07-19 05:50:00,2019-07-19 10:58:00,5.13,"FDP-S1176M",32.6,47.2
"27","R201 S1176","CT19G19006",2019-07-19 11:06:00,2019-07-19 16:50:00,5.73,"FDP-S1176M",38.4,50.4
"28","R201 S1176","CT19G20006",2019-07-20 12:24:00,2019-07-20 17:42:00,5.3,"FDP-S1176M",35.9,49.4
"29","R201 S1176","CT19G24009",2019-07-24 03:44:00,2019-07-24 08:26:00,4.7,"FDP-S1176M",39.4,50.7
"30","R201 S1176","CT19G25009",2019-07-25 08:44:00,2019-07-25 13:06:00,4.37,"FDP-S1176M",49.3,57.4
"31","R201 S1176","CT19G25010",2019-07-25 13:16:00,2019-07-25 18:06:00,4.83,"FDP-S1176M",35,50.2
"32","R201 S1176","CT19I13002",2019-09-13 19:44:00,2019-09-14 00:28:00,4.73,"FDP-S1176M",30.3,41.3
"33","R201 S1176","CT19I13003",2019-09-14 02:00:00,2019-09-14 07:08:00,5.13,"FDP-S1176M",24.2,37.7
"34","R201 S1176","CT19I13004",2019-09-15 01:18:00,2019-09-15 06:32:00,5.23,"FDP-S1176M",32.6,42.6
"35","R201 S1176","CT19I13005",2019-09-15 06:42:00,2019-09-15 10:46:00,4.07,"FDP-S1176M",31.5,41.9
"36","R201 S1176","CT19I21007",2019-09-21 03:34:00,2019-09-21 08:20:00,4.77,"FDP-S1176M",34,42.9
"37","R201 S1176","CT19I22007",2019-09-21 08:28:00,2019-09-21 12:56:00,4.47,"FDP-S1176M",32.6,43
"38","R201 S1176","CT19I25007",2019-09-26 01:02:00,2019-09-26 05:18:00,4.27,"FDP-S1176M",35.6,46.5
"39","R216 FR-MC","CT19H10001",2019-08-06 04:55:42,2019-08-06 16:31:42,11.6,"R216 / FR-MC",43.6,50.2
"40","R216 FR-MC","CT19H12001",2019-08-11 19:05:38,2019-08-12 02:13:38,7.13,"R216 / FR-MC",34.1,36.8
"41","R216 FR-MC","CT19H12003",2019-08-12 02:19:49,2019-08-12 08:23:49,6.07,"R216 / FR-MC",30.3,35.3
"42","R216 FR-MC","CT19H14008",2019-08-14 20:06:15,2019-08-15 05:26:15,9.33,"R216 / FR-MC",37.3,40.9
"43","R216 FR-MC","CT19H29005",2019-08-28 19:26:55,2019-08-29 03:03:55,7.62,"R216 / FR-MC",37.6,38
"44","R216 FR-MC","CT19H29007",2019-08-29 03:09:57,2019-08-29 09:03:57,5.9,"R216 / FR-MC",39.2,39.8
"45","R216 FR-MC","CT19I15002",2019-09-15 21:02:52,2019-09-16 03:59:52,6.95,"R216 / FR-MC",56.4,55
"46","R216 FR-MC","CT19I16008",2019-09-16 04:11:18,2019-09-16 17:03:18,12.87,"R216 / FR-MC",42.2,49.4
