"","SOURCE","BATCHID","START","END","DURATION","FlowLoopSource","FR_30sec","FR_60sec"
"1","R201 FR-HSM","",2019-07-31 16:02:00,2019-07-31 22:08:00,6.1,NA,NA,NA
"2","R201 FR-HSM","CT19F27001",2019-06-26 15:41:05,2019-06-26 20:05:05,4.4,NA,NA,NA
"3","R201 FR-HSM","CT19G02006",2019-07-02 02:08:49,2019-07-02 06:05:49,3.95,NA,NA,NA
"4","R201 FR-HSM","CT19G02010",2019-07-02 06:08:46,2019-07-02 12:52:46,6.73,NA,NA,NA
"5","R201 FR-HSM","CT19G06002",2019-07-06 04:39:30,2019-07-06 11:06:30,6.45,NA,NA,NA
"6","R201 FR-HSM","CT19G06003",2019-07-06 11:07:41,2019-07-06 16:32:41,5.42,NA,NA,NA
"7","R201 FR-HSM","CT19G07007",2019-07-05 20:32:50,2019-07-06 04:13:50,7.68,NA,NA,NA
"8","R201 FR-HSM","CT19G08002",2019-07-08 05:14:38,2019-07-08 15:36:38,10.37,NA,NA,NA
"9","R201 FR-HSM","CT19G09002",2019-07-09 07:40:46,2019-07-09 12:25:46,4.75,NA,NA,NA
"10","R201 FR-HSM","CT19G09007",2019-07-09 14:26:09,2019-07-09 21:46:09,7.33,NA,NA,NA
"11","R201 FR-HSM","CT19G09008",2019-07-09 16:33:41,2019-07-10 04:54:41,12.35,NA,NA,NA
"12","R201 FR-HSM","CT19G11001",2019-07-10 16:46:18,2019-07-10 23:19:18,6.55,NA,NA,NA
"13","R201 FR-HSM","CT19G11002",2019-07-10 23:23:53,2019-07-11 08:32:53,9.15,NA,NA,NA
"14","R201 FR-HSM","CT19G13009",2019-07-15 18:48:23,2019-07-15 23:31:23,4.72,NA,NA,NA
"15","R201 FR-HSM","CT19G15004",2019-07-16 01:55:21,2019-07-16 08:13:21,6.3,NA,NA,NA
"16","R201 FR-HSM","CT19G19004",2019-07-19 18:30:00,2019-07-20 00:44:00,6.23,NA,NA,NA
"17","R201 FR-HSM","CT19G24007",2019-07-24 08:30:00,2019-07-24 17:22:00,8.87,NA,NA,NA
"18","R201 FR-HSM","CT19G26001",2019-07-25 18:56:00,2019-07-26 01:06:00,6.17,NA,NA,NA
"19","R201 FR-HSM","CT19G29004",2019-07-31 10:30:00,2019-07-31 15:52:00,5.37,NA,NA,NA
"20","R201 FR-HSM","CT19H10007",2019-08-09 16:06:00,2019-08-10 02:36:00,10.5,NA,NA,NA
"21","R201 FR-HSM","CT19H10008",2019-08-10 02:42:00,2019-08-10 07:08:00,4.43,NA,NA,NA
"22","R201 FR-HSM","CT19H31004",2019-08-30 22:10:00,2019-08-31 02:18:00,4.13,NA,NA,NA
"23","R201 FR-HSM","CT19H31005",2019-08-31 02:32:00,2019-08-31 07:24:00,4.87,NA,NA,NA
"24","R201 FR-HSM","CT19H31006",2019-08-31 07:32:00,2019-08-31 21:42:00,14.17,NA,NA,NA
"25","R201 FR-HSM","CT19I1001",2019-09-30 22:24:00,2019-10-01 02:56:00,4.53,NA,NA,NA
"26","R201 FR-HSM","CT19I1005",2019-10-01 03:02:00,2019-10-01 13:08:00,10.1,NA,NA,NA
"27","R201 FR-HSM","CT19I12001",2019-09-11 17:46:00,2019-09-11 23:10:00,5.4,NA,NA,NA
"28","R201 FR-HSM","CT19I12002",2019-09-11 23:30:00,2019-09-12 05:36:00,6.1,NA,NA,NA
"29","R201 FR-HSM","CT19I14006",2019-09-14 07:14:00,2019-09-14 11:54:00,4.67,NA,NA,NA
"30","R201 FR-HSM","CT19I14007",2019-09-14 12:06:00,2019-09-14 17:02:00,4.93,NA,NA,NA
"31","R201 FR-HSM","CT19I15003",2019-09-15 10:54:00,2019-09-15 14:56:00,4.03,NA,NA,NA
"32","R201 FR-HSM","CT19I16005",2019-09-16 01:56:00,2019-09-16 05:54:00,3.97,NA,NA,NA
"33","R201 FR-HSM","CT19I16006",2019-09-15 15:02:00,2019-09-15 19:16:00,4.23,NA,NA,NA
"34","R201 FR-HSM","CT19I16007",2019-09-16 06:02:00,2019-09-16 11:24:00,5.37,NA,NA,NA
"35","R201 FR-HSM","CT19I17002",2019-09-16 14:00:00,2019-09-16 18:58:00,4.97,NA,NA,NA
"36","R201 FR-HSM","CT19I22006",2019-09-21 16:12:00,2019-09-21 21:18:00,5.1,NA,NA,NA
"37","R201 FR-HSM","CT19I25004",2019-09-26 05:28:00,2019-09-26 12:52:00,7.4,NA,NA,NA
"38","R201 FR-HSM","CT19I26001",2019-09-26 13:04:00,2019-09-26 19:02:00,5.97,NA,NA,NA
"39","R201 FR-HSM","CT19I29007",2019-09-29 15:00:00,2019-09-29 19:44:00,4.73,NA,NA,NA
"40","R201 FR-HSM","CT19I4004",2019-09-04 05:18:00,2019-09-04 09:10:00,3.87,NA,NA,NA
"41","R201 FR-HSM","CT19I5001",2019-09-04 09:16:00,2019-09-04 14:18:00,5.03,NA,NA,NA
"42","R201 FR-HSM","CT19I7001",2019-09-06 15:42:00,2019-09-06 19:52:00,4.17,NA,NA,NA
"43","R201 FR-HSM","CT19I7002",2019-09-06 23:04:00,2019-09-07 04:10:00,5.1,NA,NA,NA
"44","R201 FR-HSM","CT19I8002",2019-09-08 01:24:00,2019-09-08 06:24:00,5,NA,NA,NA
"45","R201 FR-HSM","CT19I9001",2019-09-08 06:34:00,2019-09-08 14:34:00,8,NA,NA,NA
"46","R201 FR-HSM","CT19I9002",2019-09-08 14:42:00,2019-09-08 19:08:00,4.43,NA,NA,NA
"47","R201 FR-HSM","CT19J1006",2019-10-02 08:54:00,2019-10-02 13:30:00,4.6,NA,NA,NA
"48","R201 FR-HSM","CT19J18003",2019-10-17 02:28:00,2019-10-17 06:34:00,4.1,NA,NA,NA
"49","R201 FR-HSM","CT19J18004",2019-10-17 09:54:00,2019-10-17 15:22:00,5.47,NA,NA,NA
"50","R201 FR-HSM","CT19J18005",2019-10-17 16:48:00,2019-10-18 00:36:00,7.8,NA,NA,NA
"51","R201 FR-HSM","CT19J19001",2019-10-18 23:06:00,2019-10-19 03:36:00,4.5,NA,NA,NA
"52","R201 FR-HSM","CT19J19002",2019-10-19 05:36:00,2019-10-19 10:04:00,4.47,NA,NA,NA
"53","R201 FR-HSM","CT19J20002",2019-10-20 09:16:00,2019-10-20 14:06:00,4.83,NA,NA,NA
"54","R201 FR-HSM","CT19J2003",2019-10-02 13:38:00,2019-10-02 18:48:00,5.17,NA,NA,NA
"55","R201 FR-HSM","CT19J21003",2019-10-20 14:26:00,2019-10-20 18:56:00,4.5,NA,NA,NA
"56","R201 FR-HSM","CT19J21006",2019-10-21 20:36:00,2019-10-22 07:04:00,10.47,NA,NA,NA
"57","R201 FR-HSM","CT19J3008",2019-10-03 12:14:00,2019-10-03 17:02:00,4.8,NA,NA,NA
"58","R201 FR-HSM","CT19J4006",2019-10-03 17:16:00,2019-10-03 21:58:00,4.7,NA,NA,NA
"59","R201 FR-HSM","CT19J7003",2019-10-07 00:26:00,2019-10-07 04:28:00,4.03,NA,NA,NA
"60","R201 FR-HSM","CT19K06013",2019-11-07 13:24:00,2019-11-07 17:32:00,4.13,NA,NA,NA
"61","R201 FR-HSM","CT19K07002",2019-11-06 07:26:00,2019-11-06 11:38:00,4.2,NA,NA,NA
"62","R201 FR-HSM","CT19K07003",2019-11-06 11:58:00,2019-11-06 17:24:00,5.43,NA,NA,NA
"63","R201 FR-HSM","CT19K09003",2019-11-08 04:44:00,2019-11-08 08:56:00,4.2,NA,NA,NA
"64","R201 FR-HSM","CT19K17002",2019-11-16 15:30:00,2019-11-16 19:40:00,4.17,NA,NA,NA
"65","R201 FR-HSM","CT19K18001",2019-11-18 22:04:00,2019-11-19 02:42:00,4.63,NA,NA,NA
"66","R201 FR-HSM","CT19K19001",2019-11-19 02:48:00,2019-11-19 06:42:00,3.9,NA,NA,NA
"67","R201 FR-HSM","CT19K22003",2019-11-22 18:54:00,2019-11-22 23:32:00,4.63,NA,NA,NA
"68","R201 FR-HSM","CT19K23003",2019-11-23 20:00:00,2019-11-24 00:08:00,4.13,NA,NA,NA
"69","R201 FR-HSM","CT19K24002",2019-11-24 21:04:00,2019-11-25 01:00:00,3.93,NA,NA,NA
"70","R201 FR-HSM","CT19L05001",2019-12-02 23:12:00,2019-12-03 04:08:00,4.93,NA,NA,NA
"71","R201 FR-HSM","CT19L19005",2019-12-19 04:52:00,2019-12-19 09:06:00,4.23,NA,NA,NA
"72","R201 FR-HSM","CT19L6002",2019-12-05 01:16:00,2019-12-05 18:42:00,17.43,NA,NA,NA
"73","R201 FR-HSM","CT19L7001",2019-12-05 18:54:00,2019-12-06 00:26:00,5.53,NA,NA,NA
"74","R216 FR-HSM","CT19H31003",2019-08-30 23:29:49,2019-08-31 17:51:49,18.37,NA,NA,NA
"75","R216 FR-HSM","CT19I20002",2019-09-19 10:25:19,2019-09-19 17:58:19,7.55,NA,NA,NA
"76","R216 FR-HSM","CT19J12009",2019-10-13 09:12:38,2019-10-13 14:46:38,5.57,NA,NA,NA
"77","R216 FR-HSM","CT19J2010",2019-10-13 14:56:52,2019-10-13 20:56:52,6,NA,NA,NA
"78","R216 FR-HSM","CT19J24004",2019-10-24 05:10:56,2019-10-24 10:25:56,5.25,NA,NA,NA
"79","R216 FR-HSM","CT19J26001",2019-10-25 07:51:31,2019-10-25 13:52:31,6.02,NA,NA,NA
"80","R216 FR-HSM","CT19J26004",2019-10-25 14:04:00,2019-10-25 20:08:00,6.07,NA,NA,NA
"81","R216 FR-HSM","CT19J27004",2019-10-26 09:22:34,2019-10-26 15:03:34,5.68,NA,NA,NA
"82","R216 FR-HSM","CT19J27005",2019-10-26 15:38:51,2019-10-26 21:18:51,5.67,NA,NA,NA
"83","R216 FR-HSM","CT19J28006",2019-10-27 18:40:21,2019-10-28 00:08:21,5.47,NA,NA,NA
"84","R216 FR-HSM","CT19J29001",2019-10-28 00:15:32,2019-10-28 06:28:32,6.22,NA,NA,NA
"85","R216 FR-HSM","CT19K11001",2019-11-10 11:00:29,2019-11-10 16:29:29,5.48,NA,NA,NA
"86","R216 FR-HSM","CT19K11002",2019-11-10 16:38:08,2019-11-10 21:50:08,5.2,NA,NA,NA
"87","R216 FR-HSM","CT19K11004",2019-11-10 21:57:24,2019-11-11 03:33:24,5.6,NA,NA,NA
"88","R216 FR-HSM","CT19K2001",2019-12-02 04:29:22,2019-12-02 09:43:22,5.23,NA,NA,NA
"89","R216 FR-HSM","CT19K2003",2019-12-02 09:51:10,2019-12-02 15:12:10,5.35,NA,NA,NA
"90","R216 FR-HSM","CT19K26001",2019-11-25 19:46:31,2019-11-26 01:22:31,5.6,NA,NA,NA
"91","R216 FR-HSM","CT19K26002",2019-11-26 01:43:15,2019-11-26 07:54:15,6.18,NA,NA,NA
"92","R216 FR-HSM","CT19K27002",2019-11-26 21:04:54,2019-11-27 02:12:54,5.13,NA,NA,NA
"93","R216 FR-HSM","CT19L9002",2019-12-17 15:23:52,2019-12-17 21:46:52,6.38,NA,NA,NA
"94","R201 S1176","CT19F23002",2019-06-22 19:26:04,2019-06-22 23:11:04,3.75,"FDP-S1176M",31.1,45.4
"95","R201 S1176","CT19F23003",2019-06-22 23:20:42,2019-06-23 03:32:42,4.2,"FDP-S1176M",31.2,45.5
"96","R201 S1176","CT19F24001",2019-06-23 03:41:44,2019-06-23 08:31:44,4.83,"FDP-S1176-15",51.8,60.8
"97","R201 S1176","CT19F24002",2019-06-23 08:34:33,2019-06-23 12:49:33,4.25,"FDP-S1176-15",49,59.3
"98","R201 S1176","CT19F26001",2019-06-26 00:14:53,2019-06-26 05:16:53,5.03,"FDP-S1176-15",52.4,60.2
"99","R201 S1176","CT19F26002",2019-06-26 05:50:51,2019-06-26 11:31:51,5.68,"FDP-S1176-15",49.6,59.4
"100","R201 S1176","CT19F26003",2019-06-26 11:36:32,2019-06-26 15:39:32,4.05,"FDP-S1176-15",50.5,59.7
"101","R201 S1176","CT19F28003",2019-06-27 18:41:37,2019-06-27 23:10:37,4.48,"FDP-S1176-15",48.9,58.5
"102","R201 S1176","CT19F28006",2019-06-28 00:40:10,2019-06-28 06:40:10,6,"FDP-S1176-15",52.3,61.3
"103","R201 S1176","CT19F28007",2019-06-28 06:42:11,2019-06-28 10:41:11,3.98,"FDP-S1176-15",50.9,58.6
"104","R201 S1176","CT19F30005",2019-06-30 05:45:33,2019-06-30 11:06:33,5.35,"FDP-S1176-15",56,62
"105","R201 S1176","CT19F30006",2019-06-30 11:08:44,2019-06-30 16:22:44,5.23,"FDP-S1176-15",52.7,61.5
"106","R201 S1176","CT19F30007",2019-06-30 16:28:28,2019-06-30 21:29:28,5.02,"FR-HSM",39.7,43.8
"107","R201 S1176","CT19G02005",2019-07-01 20:40:59,2019-07-02 02:05:59,5.42,"FDP-S1176-15",44.7,53.6
"108","R201 S1176","CT19G05001",2019-07-05 12:38:51,2019-07-05 17:10:51,4.53,"FDP-S1176-15",51.3,59.2
"109","R201 S1176","CT19G05002",2019-07-07 08:55:32,2019-07-07 13:40:32,4.75,"FDP-S1176-15",NA,NA
"110","R201 S1176","CT19G07001",2019-07-07 01:09:54,2019-07-07 08:51:54,7.7,"FDP-S1176-15",44.4,55.2
"111","R201 S1176","CT19G07006",2019-07-07 18:30:42,2019-07-08 05:14:42,10.73,"FDP-S1176-15",50.7,59
"112","R201 S1176","CT19G08006",2019-07-09 03:37:59,2019-07-09 07:38:59,4.02,"FDP-S1176-15",51.7,58.8
"113","R201 S1176","CT19G10003",2019-07-10 12:22:16,2019-07-10 16:43:16,4.35,"FDP-S1176M",36.3,48.3
"114","R201 S1176","CT19G12002",2019-07-11 22:30:26,2019-07-12 04:04:26,5.57,"FDP-S1176M",36.1,47.3
"115","R201 S1176","CT19G13010",2019-07-13 11:39:16,2019-07-13 17:28:16,5.82,"FDP-S1176M",33.5,47.5
"116","R201 S1176","CT19G15003",2019-07-15 14:00:37,2019-07-15 18:44:37,4.73,"FDP-S1176-15",40.2,52.8
"117","R201 S1176","CT19G17006",2019-07-17 18:59:27,2019-07-18 02:22:27,7.38,"FDP-S1176M",38.6,50.9
"118","R201 S1176","CT19G18003",2019-07-18 02:24:00,2019-07-18 08:40:00,6.27,"FDP-S1176M",34.2,42.2
"119","R201 S1176","CT19G19003",2019-07-19 00:36:00,2019-07-19 05:42:00,5.1,"FDP-S1176-15",48.6,57.3
"120","R201 S1176","CT19G19005",2019-07-19 05:50:00,2019-07-19 10:58:00,5.13,"FDP-S1176M",32.6,47.2
"121","R201 S1176","CT19G19006",2019-07-19 11:06:00,2019-07-19 16:50:00,5.73,"FDP-S1176M",38.4,50.4
"122","R201 S1176","CT19G20006",2019-07-20 12:24:00,2019-07-20 17:42:00,5.3,"FDP-S1176M",35.9,49.4
"123","R201 S1176","CT19G24009",2019-07-24 03:44:00,2019-07-24 08:26:00,4.7,"FDP-S1176M",39.4,50.7
"124","R201 S1176","CT19G25009",2019-07-25 08:44:00,2019-07-25 13:06:00,4.37,"FDP-S1176M",49.3,57.4
"125","R201 S1176","CT19G25010",2019-07-25 13:16:00,2019-07-25 18:06:00,4.83,"FDP-S1176M",35,50.2
"126","R201 S1176","CT19H28002",2019-08-27 18:30:00,2019-08-28 02:44:00,8.23,"FDP-S1176-15",NA,NA
"127","R201 S1176","CT19H28006",2019-08-28 03:00:00,2019-08-28 06:44:00,3.73,"FDP-S1176-15",NA,NA
"128","R201 S1176","CT19H28007",2019-08-28 07:08:00,2019-08-28 11:20:00,4.2,"FDP-S1176-15",NA,NA
"129","R201 S1176","CT19H3005",2019-08-30 16:14:00,2019-08-30 22:04:00,5.83,"FDP-S1176-15",NA,NA
"130","R201 S1176","CT19I13002",2019-09-13 19:44:00,2019-09-14 00:28:00,4.73,"FDP-S1176M",30.3,41.3
"131","R201 S1176","CT19I13003",2019-09-14 02:00:00,2019-09-14 07:08:00,5.13,"FDP-S1176M",24.2,37.7
"132","R201 S1176","CT19I13004",2019-09-15 01:18:00,2019-09-15 06:32:00,5.23,"FDP-S1176M",32.6,42.6
"133","R201 S1176","CT19I13005",2019-09-15 06:42:00,2019-09-15 10:46:00,4.07,"FDP-S1176M",31.5,41.9
"134","R201 S1176","CT19I21007",2019-09-21 03:34:00,2019-09-21 08:20:00,4.77,"FDP-S1176M",34,42.9
"135","R201 S1176","CT19I22007",2019-09-21 08:28:00,2019-09-21 12:56:00,4.47,"FDP-S1176M",32.6,43
"136","R201 S1176","CT19I25007",2019-09-26 01:02:00,2019-09-26 05:18:00,4.27,"FDP-S1176M",35.6,46.5
"137","R201 S1176","CT19I6006",2019-09-06 06:44:00,2019-09-06 11:30:00,4.77,"FDP-S1176-15",NA,NA
"138","R201 S1176","CT19I6009",2019-09-06 11:38:00,2019-09-06 15:32:00,3.9,"FDP-S1176-15",NA,NA
"139","R216 FR-MC","13007",2019-07-18 05:30:40,2019-07-18 12:06:40,6.6,"R216 / FR-MC",NA,NA
"140","R216 FR-MC","14006",2019-07-20 00:16:00,2019-07-20 15:50:00,15.57,"R216 / FR-MC",NA,NA
"141","R216 FR-MC","20004",2019-07-20 15:57:52,2019-07-21 03:24:52,11.45,"R216 / FR-MC",NA,NA
"142","R216 FR-MC","24004",2019-07-26 04:26:52,2019-07-26 11:53:52,7.45,"R216 / FR-MC",NA,NA
"143","R216 FR-MC","24006",2019-07-26 14:22:59,2019-07-27 01:30:59,11.13,"R216 / FR-MC",NA,NA
"144","R216 FR-MC","27007",2019-07-27 12:16:54,2019-07-28 00:49:54,12.55,"R216 / FR-MC",NA,NA
"145","R216 FR-MC","28001",2019-07-28 23:19:21,2019-07-29 07:39:21,8.33,"R216 / FR-MC",NA,NA
"146","R216 FR-MC","28005",2019-07-29 07:46:39,2019-07-29 16:12:39,8.43,"R216 / FR-MC",NA,NA
"147","R216 FR-MC","28007",2019-07-30 00:59:25,2019-07-30 07:06:25,6.12,"R216 / FR-MC",NA,NA
"148","R216 FR-MC","CT19H10001",2019-08-06 04:55:42,2019-08-06 16:31:42,11.6,"R216 / FR-MC",43.6,50.2
"149","R216 FR-MC","CT19H12001",2019-08-11 19:05:38,2019-08-12 02:13:38,7.13,"R216 / FR-MC",34.1,36.8
"150","R216 FR-MC","CT19H12003",2019-08-12 02:19:49,2019-08-12 08:23:49,6.07,"R216 / FR-MC",30.3,35.3
"151","R216 FR-MC","CT19H14008",2019-08-14 20:06:15,2019-08-15 05:26:15,9.33,"R216 / FR-MC",37.3,40.9
"152","R216 FR-MC","CT19H29005",2019-08-28 19:26:55,2019-08-29 03:03:55,7.62,"R216 / FR-MC",37.6,38
"153","R216 FR-MC","CT19H29007",2019-08-29 03:09:57,2019-08-29 09:03:57,5.9,"R216 / FR-MC",39.2,39.8
"154","R216 FR-MC","CT19H6007",2019-08-06 17:09:35,2019-08-07 01:56:35,8.78,"R216 / FR-MC",NA,NA
"155","R216 FR-MC","CT19H8002",2019-08-07 21:31:18,2019-08-08 23:58:18,26.45,"R216 / FR-MC",NA,NA
"156","R216 FR-MC","CT19H8004",2019-08-07 10:02:47,2019-08-07 16:33:47,6.52,"R216 / FR-MC",NA,NA
"157","R216 FR-MC","CT19I15002",2019-09-15 21:02:52,2019-09-16 03:59:52,6.95,"R216 / FR-MC",56.4,55
"158","R216 FR-MC","CT19I16008",2019-09-16 04:11:18,2019-09-16 17:03:18,12.87,"R216 / FR-MC",42.2,49.4
"159","R216 FR-MC","CT19I4007",2019-09-04 19:53:53,2019-09-05 02:57:53,7.07,"R216 / FR-MC",NA,NA
"160","R216 FR-MC","CT19I8001",2019-09-08 05:12:24,2019-09-10 07:45:24,50.55,NA,NA,NA
