,Batch,Reactor,Time_030,Time_060,MaxTemp,kolor,diff
0,CT19F23002,R201,31.1,45.4,55.23094,1.0,14.299999999999997
1,CT19F23003,R201,31.2,45.5,55.27471,1.0,14.3
2,CT19F24001,R201,51.8,60.8,55.49052,1.0,9.0
3,CT19F24002,R201,49.0,59.3,54.26603,1.0,10.299999999999997
4,CT19F26001,R201,52.4,60.2,54.81899,1.0,7.800000000000004
5,CT19F26002,R201,49.6,59.4,55.64569,1.0,9.799999999999997
6,CT19F26003,R201,50.5,59.7,55.17976,1.0,9.200000000000003
7,CT19F28003,R201,48.9,58.5,53.87817,1.0,9.600000000000001
8,CT19F28006,R201,52.3,61.3,55.62278,1.0,9.0
9,CT19F28007,R201,50.9,58.6,54.80661,1.0,7.700000000000003
10,CT19F30005,R201,56.0,62.0,55.9926,1.0,6.0
11,CT19F30006,R201,52.7,61.5,56.24086,1.0,8.799999999999997
13,CT19G02005,R201,44.7,53.6,55.78965,1.0,8.899999999999999
14,CT19G05001,R201,51.3,59.2,54.7021,1.0,7.900000000000006
15,CT19G07001,R201,44.4,55.2,46.66988,1.0,10.800000000000004
16,CT19G07006,R201,50.7,59.0,56.26947,1.0,8.299999999999997
17,CT19G08006,R201,51.7,58.8,55.38425,1.0,7.099999999999994
18,CT19G10003,R201,36.3,48.3,55.2887,1.0,12.0
19,CT19G12002,R201,36.1,47.3,55.56846,1.0,11.199999999999996
20,CT19G13010,R201,33.5,47.5,54.67693,1.0,14.0
21,CT19G15003,R201,40.2,52.8,55.37533,1.0,12.599999999999994
22,CT19G17006,R201,38.6,50.9,56.2979,1.0,12.299999999999997
23,CT19G18003 ,R201,34.2,42.2,56.26028,1.0,8.0
24,CT19G19003,R201,48.6,57.3,55.86208,1.0,8.699999999999996
25,CT19G19005,R201,32.6,47.2,55.72547,1.0,14.600000000000001
26,CT19G19006,R201,38.4,50.4,55.93727,1.0,12.0
27,CT19G20006,R201,35.9,49.4,55.73154,1.0,13.5
28,CT19G24009,R201,39.4,50.7,55.31945,1.0,11.300000000000004
29,CT19G25009,R201,49.3,57.4,54.9043,1.0,8.100000000000001
30,CT19G25010,R201,35.0,50.2,55.58355,1.0,15.200000000000003
31,CT19H10001,R216,43.6,50.2,46.6469,2.0,6.600000000000001
32,CT19H12001,R216,34.1,36.8,44.3304,2.0,2.6999999999999957
33,CT19H12003,R216,30.3,35.3,44.24441,2.0,4.9999999999999964
34,CT19H14008,R216,37.3,40.9,43.09507,2.0,3.6000000000000014
35,CT19H29005,R216,37.6,38.0,41.05106,2.0,0.3999999999999986
36,CT19H29007,R216,39.2,39.8,50.26077,2.0,0.5999999999999943
37,CT19I13002,R201,30.3,41.3,,1.0,10.999999999999996
38,CT19I13003,R201,24.2,37.7,,1.0,13.500000000000004
39,CT19I13004,R201,32.6,42.6,,1.0,10.0
40,CT19I13005,R201,31.5,41.9,,1.0,10.399999999999999
41,CT19I15002,R216,56.4,55.0,40.60429,2.0,-1.3999999999999986
42,CT19I16008,R216,42.2,49.4,47.81311,2.0,7.199999999999996
43,CT19I21007,R201,34.0,42.9,,1.0,8.899999999999999
44,CT19I22007,R201,32.6,43.0,,1.0,10.399999999999999
45,CT19I25007,R201,35.6,46.5,,1.0,10.899999999999999
