,batchid,SMBS_ADDITION,N2_SPARGE
1,CT19F23002,3180,1740
2,CT19F23003,3300,1740
3,CT19F24001,3660,1740
4,CT19F24002,3480,1740
5,CT19F26001,3480,1740
6,CT19F26002,3360,1740
7,CT19F26003,3060,1740
8,CT19F26003,3060,1740
9,CT19F26003,1320,1740
10,CT19F26003,1320,1740
11,CT19F28003,3720,1740
12,CT19F28006,3300,1740
13,CT19F28007,3360,1740
14,CT19F30005,4380,1740
15,CT19F30006,4920,1740
16,CT19F30007,7980,1740
17,CT19G02005,4860,1740
18,CT19G05001,3780,1740
19,CT19G05002,5100,1920
20,CT19G07001,11640,1740
21,CT19G07006,7440,1740
22,CT19G08006,4380,1740
23,CT19G10003,4140,1740
24,CT19G12002,4320,1740
25,CT19G13010,4380,1740
26,CT19G15003,4080,1740
27,CT19G17006,6420,1740
28,CT19G18003,7560,1740
29,CT19G19003,4740,1740
30,CT19G19005,4200,1740
31,CT19G19006,5340,1740
32,CT19G20006,4740,1740
33,CT19G24009,3480,1740
34,CT19G25009,3480,1740
35,CT19G25010,3420,1740
36,CT19H28002,18540,16440
37,CT19H28006,4080,1740
38,CT19H28007,4200,1740
39,CT19H3005,3600,6660
40,CT19I13002,4680,1800
41,CT19I13003,4740,1740
42,CT19I13004,4560,1740
43,CT19I13005,3660,1740
44,CT19I21007,4140,1740
45,CT19I22007,3720,1740
46,CT19I25007,4080,1800
47,CT19I6006,3900,1740
48,CT19I6009,3300,1740
