Batch,Reactor,Time_030,Time_060,diff,tag
CT19I15002,R216,56.4,55,-1.4,positive
CT19F30005,R201,56,62,6,positive
CT19F30006,R201,52.7,61.5,8.8,positive
CT19F26001,R201,52.4,60.2,7.8,positive
CT19F28006,R201,52.3,61.3,9,positive
CT19F24001,R201,51.8,60.8,9,positive
CT19G08006,R201,51.7,58.8,7.1,positive
CT19G05001,R201,51.3,59.2,7.9,positive
CT19F28007,R201,50.9,58.6,7.7,positive
CT19G07006,R201,50.7,59,8.3,positive
CT19F26003,R201,50.5,59.7,9.2,positive
CT19F26002,R201,49.6,59.4,9.8,positive
CT19G25009,R201,49.3,57.4,8.1,positive
CT19F24002,R201,49,59.3,10.3,positive
CT19F28003,R201,48.9,58.5,9.6,positive
CT19G19003,R201,48.6,57.3,8.7,positive
CT19G02005,R201,44.7,53.6,8.9,neutral
CT19G07001,R201,44.4,55.2,10.8,neutral
CT19H10001,R216,43.6,50.2,6.6,neutral
CT19I16008,R216,42.2,49.4,7.2,neutral
CT19G15003,R201,40.2,52.8,12.6,neutral
CT19F30007,R201,39.7,43.8,4.1,neutral
CT19G24009,R201,39.4,50.7,11.3,neutral
CT19H29007,R216,39.2,39.8,0.6,neutral
CT19G17006,R201,38.6,50.9,12.3,neutral
CT19G19006,R201,38.4,50.4,12,neutral
CT19H29005,R216,37.6,38,0.4,neutral
CT19H14008,R216,37.3,40.9,3.6,neutral
CT19G10003,R201,36.3,48.3,12,neutral
CT19G12002,R201,36.1,47.3,11.2,neutral
CT19G20006,R201,35.9,49.4,13.5,neutral
CT19I25007,R201,35.6,46.5,10.9,neutral
CT19G25010,R201,35,50.2,15.2,neutral
CT19G18003 ,R201,34.2,42.2,8,neutral
CT19H12001,R216,34.1,36.8,2.7,neutral
CT19I21007,R201,34,42.9,8.9,neutral
CT19G13010,R201,33.5,47.5,14,neutral
CT19G19005,R201,32.6,47.2,14.6,neutral
CT19I13004,R201,32.6,42.6,10,neutral
CT19I22007,R201,32.6,43,10.4,neutral
CT19I13005,R201,31.5,41.9,10.4,neutral
CT19F23003,R201,31.2,45.5,14.3,neutral
CT19F23002,R201,31.1,45.4,14.3,neutral
CT19H12003,R216,30.3,35.3,5,neutral
CT19I13002,R201,30.3,41.3,11,neutral
CT19I13003,R201,24.2,37.7,13.5,neutral
