"0","suppressMessages(library(tint))"
"0","suppressMessages(library(tidyverse))"
"0","suppressMessages(library(readxl))"
"0","suppressMessages(library(magrittr))"
"0","suppressMessages(library(usethis))"
"0","suppressMessages(library(lubridate))"
"0","suppressMessages(library(janitor))"
"0","suppressMessages(library(ggplot2))"
"0","suppressMessages(library(ggthemes))"
"0","suppressMessages(library(gridExtra))"
"0","suppressMessages(library(here))"
"0","suppressMessages(library(vtree))"
"0","suppressMessages(library(janitor))"
"0","suppressMessages(library(naniar))"
"0","suppressMessages(library(kableExtra))"
"0","# invalidate cache when the package version changes"
"0","knitr::opts_chunk$set(tidy = FALSE, cache.extra = packageVersion('tint'), warning = FALSE)"
"0","options(htmltools.dir.version = FALSE)"
"0","options(knitr.kable.NA = '')"
