FR,Supplier,Type,Cost per gal
Plexslick 953,Solvay,Anionic,$4.50
Plexslick 959,Solvay,Anionic,$5.99
FR-HPA,Solvay,Anionic,$7.50
FR-WW,Solvay,Anionic,$11.00
FR-WW2,Solvay,Anionic,$8.00
Plexslick V993,Solvay,HVFR,$7.00
Plexslick V999,Solvay,HVFR,$6.20
Plexslick V997,Solvay,HVFR,$7.00
Plexslick 920,Solvay,Cationic,$9.00
Plexslick 922,Solvay,Cationic,$8.50
Plexslick 930,Solvay,Cationic,$6.50
Plexslick 986C Boost,Solvay,Cationic,$8.00
FR-HSU,Solvay,Cationic,$9.00
DR-22430,SNF,Anionic,$4.75
DR-42430,SNF,Cationic,$5.50
Kemflow A4251,Kemira,Anionic,$7.50
Hiflo 5,DCS,HVFR,$12.00
