"0","df <- read.csv('BatchSummaries.csv', stringsAsFactors = FALSE)"
"0","kable(df, caption = ""Batch summary data: InitTemp = temperature when SMBS first added; MaxTemp = maximum temperature; time is reported in minutes."") %>%"
"0","  kable_styling(bootstrap_options = ""striped"", full_width = F)"
