"0","dfb <-"
"0","  df %>%"
"0","  filter(batchid == '14006') %>%"
"0","  select(procedure, starttime, endtime, uniqueid, batchid) %>%"
"0","  mutate(procedure = factor(procedure, levels = rev(unique(procedure)), ordered  = TRUE)) %>%"
"0","  data.frame()"
"0","ggplot(dfb,"
"0","       aes("
"0","         x = starttime,"
"0","         xend = endtime,"
"0","         y = procedure,"
"0","         yend = procedure,"
"0","         color = batchid"
"0","       )) +"
"0","  geom_segment(size = 2) # +"
