FR,Water,Time,Asymptote,Asymptote_StdDev,RateConstant,RateConstant_StdDev
Plexslick 953,Fresh,0.5,72.748,0.902,6.978,0.307
Plexslick 953,Fresh,1,72.932,0.795,6.59,0.249
Plexslick 953,Fresh,2,73.021,1.026,5.699,0.261
Plexslick 953,Fresh,5,74.028,1.326,4.202,0.217
Plexslick 953,Fresh,Avg30sec,73.091,0.967,5.312,0.223
Plexslick 953,Fresh,Avg1min,73.219,1.042,5.14,0.229
Plexslick 953,50k,0.5,67.819,2.866,3.957,0.512
Plexslick 953,50k,1,68.301,1.266,4.244,0.251
Plexslick 953,50k,2,65.62,1.193,3.886,0.221
Plexslick 953,50k,5,60.274,0.857,3.163,0.13
Plexslick 953,50k,Avg30sec,64.099,0.999,3.692,0.176
Plexslick 953,50k,Avg1min,63.639,0.946,3.632,0.165
Plexslick 953,100k,0.5,36.419,1.182,1.453,0.0907
Plexslick 953,100k,1,43.7,4.224,1.638,0.326
Plexslick 953,100k,2,45.354,4.527,2.059,0.489
Plexslick 953,100k,5,48.28,5.246,2.194,0.595
Plexslick 953,100k,Avg30sec,45.071,4.231,2.091,0.472
Plexslick 953,100k,Avg1min,45.901,4.422,2.147,0.506
Plexslick 953,150k,0.5,15.643,2.026,1.999,0.604
Plexslick 953,150k,1,20.368,1.657,2.718,0.616
Plexslick 953,150k,2,28.679,2.976,2.759,0.816
Plexslick 953,150k,5,34.998,2.13,2.956,0.519
Plexslick 953,150k,Avg30sec,29.004,2.345,2.854,0.662
Plexslick 953,150k,Avg1min,30.391,2.423,2.903,0.67
Plexslick 959,Fresh,0.5,73.069,0.128,12.413,0.0955
Plexslick 959,Fresh,1,72.773,0.14,11.173,0.0876
Plexslick 959,Fresh,2,72.299,0.506,9.364,0.237
Plexslick 959,Fresh,5,70.565,0.692,7.234,0.218
Plexslick 959,Fresh,Avg30sec,71.491,0.552,8.965,0.244
Plexslick 959,Fresh,Avg1min,71.423,0.593,8.639,0.247
Plexslick 959,50k,0.5,69.6,1.83,7.643,0.646
Plexslick 959,50k,1,68.481,1.544,7.402,0.525
Plexslick 959,50k,2,65.632,1.841,6.386,0.514
Plexslick 959,50k,5,60.789,2.302,5.085,0.484
Plexslick 959,50k,Avg30sec,64.29,1.977,6.143,0.531
Plexslick 959,50k,Avg1min,63.789,2.014,5.956,0.519
Plexslick 959,100k,0.5,71.15,6.675,3.863,0.763
Plexslick 959,100k,1,69.241,4.274,4.505,0.638
Plexslick 959,100k,2,66.238,3.12,4.361,0.465
Plexslick 959,100k,5,59.612,0.921,3.982,0.134
Plexslick 959,100k,Avg30sec,64.568,2.794,4.221,0.407
Plexslick 959,100k,Avg1min,63.87,2.466,4.226,0.364
Plexslick V999,Fresh,0.5,69.564,1.687,8.098,0.739
Plexslick V999,Fresh,1,70.908,0.47,12.162,0.396
Plexslick V999,Fresh,2,71.063,0.489,12.134,0.41
Plexslick V999,Fresh,5,70.809,0.229,9.594,0.131
Plexslick V999,Fresh,Avg30sec,70.799,0.361,11.006,0.258
Plexslick V999,Fresh,Avg1min,70.879,0.365,11.151,0.267
Plexslick V999,50k,0.5,41.568,5.938,3.129,1.406
Plexslick V999,50k,1,53.86,5.539,5.357,2.123
Plexslick V999,50k,2,60.416,3.479,7.55,1.723
Plexslick V999,50k,5,63.57,1.933,7.045,0.805
Plexslick V999,50k,Avg30sec,59.46,3.115,7.036,1.425
Plexslick V999,50k,Avg1min,61.268,2.934,7.309,1.358
Plexslick V999,100k,0.5,32.669,2.787,4.742,1.461
Plexslick V999,100k,1,47.065,2.849,6.103,1.388
Plexslick V999,100k,2,56.863,2.282,7.446,1.15
Plexslick V999,100k,5,61.954,1.287,7.049,0.543
Plexslick V999,100k,Avg30sec,56.195,2,7.2,0.972
Plexslick V999,100k,Avg1min,58.392,1.926,7.346,0.921
Plexslick V999,150k,0.5,28.989,6.058,1.544,0.599
Plexslick V999,150k,1,41.939,5.118,1.805,0.461
Plexslick V999,150k,2,46.779,5.316,3.019,0.934
Plexslick V999,150k,5,52.737,3.51,4.504,0.957
Plexslick V999,150k,Avg30sec,46.599,4.503,3.376,0.928
Plexslick V999,150k,Avg1min,48.405,4.671,3.56,1.003
Plexslick V999,200k,0.5,18.114,9.456,1.183,1.118
Plexslick V999,200k,1,27.492,9.9,1.859,1.546
Plexslick V999,200k,2,34.99,9.109,2.905,2.124
Plexslick V999,200k,5,42.347,5.317,5.123,2.241
Plexslick V999,200k,Avg30sec,34.594,6.668,3.799,2.308
Plexslick V999,200k,Avg1min,36.507,6.904,3.981,2.418
HiFlo 5,Fresh,0.5,69.318,1.993,8.517,0.664
HiFlo 5,Fresh,1,70.992,0.768,14.358,0.647
HiFlo 5,Fresh,2,71.064,0.372,17.612,0.47
HiFlo 5,Fresh,5,70.302,0.904,14.843,0.821
HiFlo 5,Fresh,Avg30sec,70.505,0.633,15.667,0.636
HiFlo 5,Fresh,Avg1min,70.789,0.665,16.364,0.726
Plexslick 930,Fresh,0.5,73.64,1.058,7.084,0.306
Plexslick 930,Fresh,1,72.984,0.828,8.699,0.337
Plexslick 930,Fresh,2,73.579,1.127,8.948,0.475
Plexslick 930,Fresh,5,75.812,2.035,6.472,0.492
Plexslick 930,Fresh,Avg30sec,74.136,1.357,7.902,0.463
Plexslick 930,Fresh,Avg1min,74.253,1.419,7.919,0.484
Plexslick 930,50k,0.5,74.874,1.844,6.574,0.463
Plexslick 930,50k,1,74.208,1.001,7.912,0.343
Plexslick 930,50k,2,74.831,1.644,7.86,0.55
Plexslick 930,50k,5,76.485,3.102,5.68,0.603
Plexslick 930,50k,Avg30sec,75.287,2.081,6.975,0.57
Plexslick 930,50k,Avg1min,75.382,2.168,6.956,0.59
Plexslick 930,100k,0.5,67.566,3.371,5.822,0.79
Plexslick 930,100k,1,68.999,2.372,7.797,0.875
Plexslick 930,100k,2,70.63,1.743,8.322,0.696
Plexslick 930,100k,5,71.475,1.73,6.043,0.405
Plexslick 930,100k,Avg30sec,70.65,1.815,7.219,0.574
Plexslick 930,100k,Avg1min,70.987,1.697,7.292,0.542
Plexslick 930,150k,0.5,26.625,1.756,5.698,0.976
Plexslick 930,150k,1,44.792,1.79,6.328,0.703
Plexslick 930,150k,2,60.825,1.638,6.526,0.501
Plexslick 930,150k,5,69.323,2.405,5.341,0.471
Plexslick 930,150k,Avg30sec,60.05,1.926,6.055,0.529
Plexslick 930,150k,Avg1min,63.233,1.981,6.06,0.518
Plexslick 930,200k,0.5,36.51,27.123,1.812,2.106
Plexslick 930,200k,1,44.609,11.193,3.714,2.037
Plexslick 930,200k,2,58.696,6.549,5.135,1.486
Plexslick 930,200k,5,69.586,1.829,4.755,0.302
Plexslick 930,200k,Avg30sec,58.845,4.744,4.911,0.991
Plexslick 930,200k,Avg1min,61.968,4.432,5.031,0.911
Plexslick 986C Boost,Fresh,0.5,72.227,1.254,10.14,0.75
Plexslick 986C Boost,Fresh,1,72.286,1.023,11.568,0.762
Plexslick 986C Boost,Fresh,2,72.464,1.2,11.273,0.85
Plexslick 986C Boost,Fresh,5,73.078,1.765,8.211,0.743
Plexslick 986C Boost,Fresh,Avg30sec,72.55,1.363,10.089,0.802
Plexslick 986C Boost,Fresh,Avg1min,72.595,1.391,10.017,0.808
Plexslick 986C Boost,50k,0.5,73.586,1.961,5.643,0.489
Plexslick 986C Boost,50k,1,72.234,0.786,7.602,0.31
Plexslick 986C Boost,50k,2,72.389,0.651,8.252,0.287
Plexslick 986C Boost,50k,5,73.592,1.557,6.349,0.448
Plexslick 986C Boost,50k,Avg30sec,72.759,0.833,7.343,0.305
Plexslick 986C Boost,50k,Avg1min,72.782,0.876,7.457,0.328
Plexslick 986C Boost,100k,0.5,69.136,0.876,2.974,0.0962
Plexslick 986C Boost,100k,1,70.707,0.616,5.033,0.137
Plexslick 986C Boost,100k,2,71.031,0.525,6.964,0.183
Plexslick 986C Boost,100k,5,71.506,1.174,6.081,0.329
Plexslick 986C Boost,100k,Avg30sec,70.756,0.62,6.209,0.183
Plexslick 986C Boost,100k,Avg1min,71.243,0.766,6.537,0.241
Plexslick 986C Boost,150k,0.5,63.414,5.245,2.627,0.536
Plexslick 986C Boost,150k,1,68.39,3.576,4.49,0.725
Plexslick 986C Boost,150k,2,69.936,1.993,6.612,0.684
Plexslick 986C Boost,150k,5,70.933,0.386,6.001,0.11
Plexslick 986C Boost,150k,Avg30sec,69.339,1.631,5.957,0.48
Plexslick 986C Boost,150k,Avg1min,70.203,1.365,6.306,0.43
Plexslick 986C Boost,200k,0.5,58.221,2.169,2.343,0.2
Plexslick 986C Boost,200k,1,66.635,0.675,3.846,0.109
Plexslick 986C Boost,200k,2,69.84,0.557,5.625,0.148
Plexslick 986C Boost,200k,5,71.077,0.229,5.546,0.0581
Plexslick 986C Boost,200k,Avg30sec,68.772,0.427,5.282,0.105
Plexslick 986C Boost,200k,Avg1min,70.028,0.344,5.586,0.0898
FR-HPA,Fresh,0.5,70.024,0.692,7.263,0.268
FR-HPA,Fresh,1,71.366,0.264,10.818,0.184
FR-HPA,Fresh,2,71.551,0.436,11.047,0.311
FR-HPA,Fresh,5,71.111,0.454,7.471,0.179
FR-HPA,Fresh,Avg30sec,71.217,0.216,9.35,0.119
FR-HPA,Fresh,Avg1min,71.306,0.207,9.436,0.116
FR-HPA,50k,0.5,70.188,0.289,6.302,0.0892
FR-HPA,50k,1,71.23,0.872,10.153,0.552
FR-HPA,50k,2,71.63,0.944,10.206,0.592
FR-HPA,50k,5,70.16,0.339,6.957,0.121
FR-HPA,50k,Avg30sec,70.88,0.613,8.648,0.301
FR-HPA,50k,Avg1min,70.939,0.625,8.761,0.313
FR-HPA,100k,0.5,71.043,5.27,3.407,0.673
FR-HPA,100k,1,70.909,3.604,6.003,1.049
FR-HPA,100k,2,71.025,3.445,6.876,1.221
FR-HPA,100k,5,69.599,3.359,5.314,0.837
FR-HPA,100k,Avg30sec,70.463,3.541,5.917,1.017
FR-HPA,100k,Avg1min,70.51,3.456,6.147,1.049
FR-HPA,150k,0.5,12.899,1.28,5.563,1.877
FR-HPA,150k,1,31.064,2.746,6.297,1.974
FR-HPA,150k,2,47.86,3.427,8.267,2.269
FR-HPA,150k,5,60.164,1.62,8.171,0.832
FR-HPA,150k,Avg30sec,48.258,2.578,8.145,1.654
FR-HPA,150k,Avg1min,51.741,2.685,8.268,1.638
FR-HPA,200k,0.5,12.725,5.18,1.074,0.698
FR-HPA,200k,1,30.329,5.815,1.473,0.534
FR-HPA,200k,2,43.866,3.665,2.474,0.503
FR-HPA,200k,5,55.18,2.786,4.868,0.798
FR-HPA,200k,Avg30sec,43.427,2.973,3.244,0.611
FR-HPA,200k,Avg1min,46.756,3.136,3.342,0.624
DR-22430,50k,0.5,70.698,1.03,5.334,0.197
DR-22430,50k,1,70.848,0.246,5.731,0.0522
DR-22430,50k,2,69.267,0.71,5.191,0.134
DR-22430,50k,5,64.627,0.703,4.335,0.11
DR-22430,50k,Avg30sec,67.905,0.623,4.945,0.112
DR-22430,50k,Avg1min,67.592,0.796,4.865,0.141
DR-22430,100k,0.5,71.071,2.74,4.91,0.463
DR-22430,100k,1,71.116,2.662,5.419,0.516
DR-22430,100k,2,70.758,2.301,4.871,0.387
DR-22430,100k,5,66.984,2.19,3.98,0.291
DR-22430,100k,Avg30sec,69.338,2.133,4.641,0.342
DR-22430,100k,Avg1min,69.147,2.082,4.573,0.327
DR-22430,150k,0.5,72.784,3.676,3.495,0.37
DR-22430,150k,1,70.074,2.73,4.034,0.353
DR-22430,150k,2,66.697,3.241,3.991,0.433
DR-22430,150k,5,65.064,0.524,3.109,0.0498
DR-22430,150k,Avg30sec,67.601,2.154,3.576,0.242
DR-22430,150k,Avg1min,67.144,1.95,3.547,0.218
Kemflow A4251,50k,0.5,72.193,6.797,6.026,1.554
Kemflow A4251,50k,1,74.396,8.718,5.178,1.563
Kemflow A4251,50k,2,72.554,11.376,4.505,1.717
Kemflow A4251,50k,5,65.901,16.241,4.287,2.535
Kemflow A4251,50k,Avg30sec,70.437,12.108,4.568,1.926
Kemflow A4251,50k,Avg1min,70.338,13.031,4.412,1.974
Kemflow A4251,100k,0.5,100.609,32.335,1.627,0.777
Kemflow A4251,100k,1,98.688,20.685,1.731,0.553
Kemflow A4251,100k,2,86.131,11.276,1.926,0.401
Kemflow A4251,100k,5,58.208,0.272,3.233,0.0307
Kemflow A4251,100k,Avg30sec,76.406,6.033,2.254,0.303
Kemflow A4251,100k,Avg1min,74.173,4.77,2.33,0.259
Kemflow A4251,150k,0.5,48.095,19.199,1.047,0.544
Kemflow A4251,150k,1,53.094,0.774,1.555,0.0334
Kemflow A4251,150k,2,47.88,5.671,2.625,0.574
Kemflow A4251,150k,5,44.564,3.611,4.803,0.963
Kemflow A4251,150k,Avg30sec,44.035,4.506,3.261,0.685
Kemflow A4251,150k,Avg1min,44.987,4.726,3.428,0.759
DR-42430,50k,0.5,71.692,0.429,13.815,0.337
DR-42430,50k,1,72.947,0.113,10.987,0.0595
DR-42430,50k,2,73.159,0.173,8.662,0.0634
DR-42430,50k,5,72.017,0.116,6.173,0.0269
DR-42430,50k,Avg30sec,72.248,0.139,8.192,0.0477
DR-42430,50k,Avg1min,72.479,0.0201,7.757,0.00633
DR-42430,100k,0.5,73.063,0.12,13.261,0.0861
DR-42430,100k,1,73.24,0.0192,10.84,0.00986
DR-42430,100k,2,73.874,0.0346,8.331,0.0119
DR-42430,100k,5,72.695,0.743,5.988,0.164
DR-42430,100k,Avg30sec,72.908,0.484,7.947,0.157
DR-42430,100k,Avg1min,73.103,0.402,7.523,0.121
DR-42430,150k,0.5,73.275,1.487,9.214,0.589
DR-42430,150k,1,73.429,1.175,8.417,0.408
DR-42430,150k,2,73.73,0.971,7.134,0.267
DR-42430,150k,5,72.416,0.963,5.389,0.183
DR-42430,150k,Avg30sec,72.845,0.912,6.773,0.236
DR-42430,150k,Avg1min,72.93,0.914,6.529,0.225
DR-42430,200k,0.5,70.429,2.957,5.389,0.574
DR-42430,200k,1,69.593,0.684,6.24,0.166
DR-42430,200k,2,68.388,1.102,6.474,0.288
DR-42430,200k,5,67.81,2.239,5.333,0.452
DR-42430,200k,Avg30sec,68.352,0.914,6.007,0.215
DR-42430,200k,Avg1min,68.146,1.262,6.038,0.301
Plexslick 922,Fresh,0.5,71.814,1.118,4.073,0.143
Plexslick 922,Fresh,1,71.086,1.084,5.85,0.235
Plexslick 922,Fresh,2,71.753,1.901,6.526,0.473
Plexslick 922,Fresh,5,74.513,3.119,5.003,0.516
Plexslick 922,Fresh,Avg30sec,72.535,2.261,5.774,0.47
Plexslick 922,Fresh,Avg1min,72.814,2.391,5.883,0.508
Plexslick 922,50k,0.5,68.081,1.425,4.395,0.303
Plexslick 922,50k,1,71.412,0.862,7.4,0.332
Plexslick 922,50k,2,72.473,0.281,8.651,0.129
Plexslick 922,50k,5,72.751,0.139,6.539,0.0444
Plexslick 922,50k,Avg30sec,72.089,0.283,7.467,0.108
Plexslick 922,50k,Avg1min,72.492,0.215,7.708,0.0845
Plexslick 922,100k,0.5,51.416,2.329,3.648,0.522
Plexslick 922,100k,1,63.227,1.026,5.718,0.326
Plexslick 922,100k,2,69.383,0.685,7.491,0.273
Plexslick 922,100k,5,72.97,0.832,5.771,0.225
Plexslick 922,100k,Avg30sec,68.621,0.594,6.547,0.202
Plexslick 922,100k,Avg1min,70.263,0.569,6.751,0.195
Plexslick 922,150k,0.5,48.661,6.482,2.241,0.763
Plexslick 922,150k,1,59.244,4.152,4.416,1.079
Plexslick 922,150k,2,65.903,2.047,6.83,0.792
Plexslick 922,150k,5,70.808,0.608,5.77,0.17
Plexslick 922,150k,Avg30sec,65.43,1.565,6.084,0.523
Plexslick 922,150k,Avg1min,67.468,1.234,6.354,0.419
Plexslick 922,200k,0.5,34.887,3.22,3.383,0.987
Plexslick 922,200k,1,51.974,3.051,5.305,1.133
Plexslick 922,200k,2,63.023,1.731,6.914,0.708
Plexslick 922,200k,5,69.965,0.905,5.16,0.223
Plexslick 922,200k,Avg30sec,62.473,1.17,5.974,0.399
Plexslick 922,200k,Avg1min,65.112,0.997,6.102,0.333
Plexslick 920,Fresh,0.5,70.33,0.289,7.789,0.0946
Plexslick 920,Fresh,1,70.284,0.251,11.328,0.144
Plexslick 920,Fresh,2,71.263,0.884,11.858,0.535
Plexslick 920,Fresh,5,73.476,1.369,8.542,0.485
Plexslick 920,Fresh,Avg30sec,71.65,0.818,10.278,0.393
Plexslick 920,Fresh,Avg1min,71.875,0.961,10.407,0.468
Plexslick 920,50k,0.5,70.955,0.495,9.514,0.261
Plexslick 920,50k,1,71.367,0.685,12.115,0.513
Plexslick 920,50k,2,72.002,1.307,10.884,0.813
Plexslick 920,50k,5,72.145,1.005,7.506,0.377
Plexslick 920,50k,Avg30sec,71.76,0.92,9.56,0.479
Plexslick 920,50k,Avg1min,71.845,0.976,9.433,0.498
Plexslick 920,100k,0.5,70.372,1.502,5.133,0.378
Plexslick 920,100k,1,71.694,0.298,7.875,0.121
Plexslick 920,100k,2,72.602,0.73,8.129,0.303
Plexslick 920,100k,5,73,0.522,6.313,0.158
Plexslick 920,100k,Avg30sec,72.414,0.485,7.252,0.176
Plexslick 920,100k,Avg1min,72.647,0.591,7.364,0.217
Plexslick 920,150k,0.5,25.28,2.013,6.182,1.88
Plexslick 920,150k,1,45.555,2.905,6.665,1.628
Plexslick 920,150k,2,61.568,2.684,7.028,1.162
Plexslick 920,150k,5,69.275,2.107,6.311,0.696
Plexslick 920,150k,Avg30sec,60.424,2.517,6.715,1.045
Plexslick 920,150k,Avg1min,63.725,2.538,6.731,1.001
Plexslick 920,200k,0.5,25.88,0.907,4.519,0.536
Plexslick 920,200k,1,47.61,2.46,5.211,0.966
Plexslick 920,200k,2,63.282,2.189,6.375,0.814
Plexslick 920,200k,5,70.639,0.889,6.01,0.267
Plexslick 920,200k,Avg30sec,61.92,1.679,6.183,0.608
Plexslick 920,200k,Avg1min,65.272,1.693,6.278,0.591
Plexslick V997,Fresh,0.5,111.7,42.312,0.889,0.528
Plexslick V997,Fresh,1,69.228,1.116,7.139,0.425
Plexslick V997,Fresh,2,70.498,0.578,12.571,0.476
Plexslick V997,Fresh,5,70.878,0.612,12.932,0.524
Plexslick V997,Fresh,Avg30sec,69.379,0.95,11.075,0.658
Plexslick V997,Fresh,Avg1min,70.503,0.613,12.31,0.488
Plexslick V997,50k,0.5,51.046,14.397,1.57,0.93
Plexslick V997,50k,1,57.955,7.769,3.25,1.391
Plexslick V997,50k,2,61.037,4.14,6.555,1.719
Plexslick V997,50k,5,65.167,2.471,8.898,1.366
Plexslick V997,50k,Avg30sec,60.162,3.979,6.965,1.802
Plexslick V997,50k,Avg1min,62.059,3.656,7.47,1.735
Plexslick V997,100k,0.5,50.047,16.857,1.268,0.796
Plexslick V997,100k,1,56.358,7.406,3.067,1.239
Plexslick V997,100k,2,60.614,4.342,6.256,1.725
Plexslick V997,100k,5,65.063,2.094,7.583,0.937
Plexslick V997,100k,Avg30sec,59.615,3.827,6.341,1.559
Plexslick V997,100k,Avg1min,61.765,3.544,6.791,1.503
Plexslick V997,150k,0.5,43.091,15.813,1.379,0.972
Plexslick V997,150k,1,53.434,8.322,3.003,1.403
Plexslick V997,150k,2,59.578,4.838,5.647,1.723
Plexslick V997,150k,5,63.431,2.592,6.684,1.027
Plexslick V997,150k,Avg30sec,58.292,4.206,5.661,1.526
Plexslick V997,150k,Avg1min,60.508,3.973,6.052,1.499
Plexslick V997,200k,0.5,30.802,4.931,1.275,0.373
Plexslick V997,200k,1,46.439,4.632,2.689,0.75
Plexslick V997,200k,2,55.196,4.435,4.728,1.367
Plexslick V997,200k,5,60.288,3.558,5.312,1.142
Plexslick V997,200k,Avg30sec,53.828,3.943,4.725,1.237
Plexslick V997,200k,Avg1min,56.478,3.968,4.983,1.268
Plexslick V993,Fresh,0.5,72.301,0.699,16.841,0.924
Plexslick V993,Fresh,1,72.283,0.495,29.307,2.499
Plexslick V993,Fresh,2,71.88,0.78,28.009,3.442
Plexslick V993,Fresh,5,70.888,0.891,18.039,1.378
Plexslick V993,Fresh,Avg30sec,71.577,0.785,22.843,2.028
Plexslick V993,Fresh,Avg1min,71.483,0.809,23.114,2.152
Plexslick V993,50k,0.5,68.094,1.651,4.952,0.412
Plexslick V993,50k,1,70.233,1.316,8.213,0.594
Plexslick V993,50k,2,70.206,1.329,10.352,0.827
Plexslick V993,50k,5,68.226,1.379,9.453,0.777
Plexslick V993,50k,Avg30sec,69.411,1.42,9.508,0.793
Plexslick V993,50k,Avg1min,69.579,1.355,9.986,0.808
Plexslick V993,100k,0.5,64.557,1.557,3.745,0.283
Plexslick V993,100k,1,68.823,1.431,6.681,0.509
Plexslick V993,100k,2,69.528,1.466,8.922,0.749
Plexslick V993,100k,5,67.985,1.562,8.854,0.809
Plexslick V993,100k,Avg30sec,68.474,1.647,8.388,0.79
Plexslick V993,100k,Avg1min,68.928,1.544,8.897,0.794
Plexslick V993,150k,0.5,60.797,3.71,2.594,0.428
Plexslick V993,150k,1,66.242,2.477,5.068,0.664
Plexslick V993,150k,2,67.121,2.38,7.063,0.948
Plexslick V993,150k,5,65.008,1.827,7.69,0.828
Plexslick V993,150k,Avg30sec,65.52,2.349,6.826,0.919
Plexslick V993,150k,Avg1min,66.215,2.163,7.264,0.901
Plexslick V993,200k,0.5,47.055,NA,2.197,NA
Plexslick V993,200k,1,66.79,NA,2.197,NA
Plexslick V993,200k,2,71.901,NA,2.197,NA
Plexslick V993,200k,5,70.616,NA,2.197,NA
Plexslick V993,200k,Avg30sec,69.582,NA,2.197,NA
Plexslick V993,200k,Avg1min,71.212,NA,2.197,NA
FR-HSU,Fresh,0.5,70.421,0.45,5.376,0.117
FR-HSU,Fresh,1,71.477,0.357,7.785,0.144
FR-HSU,Fresh,2,71.66,0.472,9.822,0.261
FR-HSU,Fresh,5,71.91,0.525,10.759,0.328
FR-HSU,Fresh,Avg30sec,71.506,0.49,9.652,0.265
FR-HSU,Fresh,Avg1min,71.714,0.501,10.14,0.289
FR-HSU,50k,0.5,72.31,0.551,8.592,0.248
FR-HSU,50k,1,72.413,0.402,11.738,0.286
FR-HSU,50k,2,72.299,0.546,12.688,0.441
FR-HSU,50k,5,72.729,0.762,9.606,0.397
FR-HSU,50k,Avg30sec,72.309,0.598,11.243,0.397
FR-HSU,50k,Avg1min,72.321,0.614,11.427,0.418
FR-HSU,100k,0.5,71.772,0.478,6.433,0.151
FR-HSU,100k,1,71.905,0.357,9.584,0.19
FR-HSU,100k,2,71.595,0.29,11.137,0.193
FR-HSU,100k,5,71.81,0.471,8.913,0.225
FR-HSU,100k,Avg30sec,71.651,0.251,9.882,0.14
FR-HSU,100k,Avg1min,71.668,0.256,10.198,0.149
FR-HSU,150k,0.5,67.934,3.856,3.066,0.503
FR-HSU,150k,1,69.373,3.111,5.785,0.942
FR-HSU,150k,2,70.699,2.212,8.243,1.011
FR-HSU,150k,5,71.698,1.339,7.66,0.538
FR-HSU,150k,Avg30sec,70.387,2.156,7.473,0.87
FR-HSU,150k,Avg1min,70.998,1.947,7.949,0.84
FR-HSU,200k,0.5,27.896,2.233,2.877,0.666
FR-HSU,200k,1,49.357,3.391,4.326,1.027
FR-HSU,200k,2,63.836,1.915,7.501,0.857
FR-HSU,200k,5,71.038,0.564,7.813,0.232
FR-HSU,200k,Avg30sec,62.292,1.641,7.416,0.738
FR-HSU,200k,Avg1min,65.76,1.498,7.697,0.665
