"0","dfb <-"
"0","  qaz %>%"
"0","  filter(batchid == 'CT19I8001') %>%"
"0","  select(r216_step, start, finish) %>%"
"0","  mutate(r216_step = factor(r216_step, levels = rev(unique(r216_step)), ordered  = TRUE)) %>%"
"0","  mutate(delta_time = (finish - start)/60) %>%"
"0","  data.frame()"
"0","ggplot(dfb, aes(x=start, xend=finish, y=r216_step, yend=r216_step)) +"
"0","  geom_segment(size = 2) +"
"0","  ggtitle(paste0('CT19I8001', '\n', 'start = ', min(dfb$start), '\n', 'end = ', max(dfb$finish)))"
