"0","input <-"
"0","  read.csv('Results_Asymptote_RateConstant_StdDev_Avgs.csv',"
"0","           stringsAsFactors = FALSE)"
"0",""
"0","X <- seq(0.0, 1.0, by = 0.01) %>%"
"0","  data.frame()"
"0","colnames(X) <- c('Loading')"
"0",""
"0","df1 <- input %>%"
"0","  dplyr::filter(Time == params$Time) %>%"
"0","  filter(FR == params$FR_one) %>%"
"0","  filter(Water == params$Water_one)"
"0",""
"0","Y1 <- df1$Asymptote * (1 - exp((-df1$RateConstant) * X)) %>%"
"0","  data.frame()"
"0","colnames(Y1) <- c(params$FR_one)"
"0",""
"0","df1_plot <- cbind(X, Y1) %>%"
"0","  mutate(FR = params$FR_one) %>%"
"0","  rename('pctFR' = params$FR_one)"
"0",""
"0","df2 <- input %>%"
"0","  dplyr::filter(Time == params$Time) %>%"
"0","  filter(FR == params$FR_two) %>%"
"0","  filter(Water == params$Water_two)"
"0",""
"0","Y2 <- df2$Asymptote * (1 - exp((-df2$RateConstant) * X)) %>%"
"0","  data.frame()"
"0","colnames(Y2) <- c(params$FR_two)"
"0",""
"0","df2_plot <- cbind(X, Y2) %>%"
"0","  mutate(FR = params$FR_two) %>%"
"0","  rename('pctFR' = params$FR_two)"
"0",""
"0","data2plot <- rbind(df1_plot, df2_plot)"
"0",""
"0","buildTitle <- paste0(params$FR_one, ' | ', params$Water_one, ' compared to ', params$FR_two, ' | ', params$Water_two)"
"0",""
"0","graf <-"
"0","  ggplot2::ggplot(data2plot, aes(x = Loading, y = pctFR, colour = FR)) +"
"0","  geom_line() +"
"0","  ylim(-1.0, 100) +"
"0","  ggtitle(buildTitle) +"
"0","  xlab('Loading (gpt)') +"
"0","  ylab('% Friction Reduction') +"
"0","  ggthemes::theme_hc()"
"0","graf"
